# This file uses centimeters as units for non-parametric coordinates.

mtllib ulna.mtl
g default
v -532.418924 1023.497499 55.187595
v -350.139933 1171.687441 -40.257706
v -342.699930 1176.217470 -33.383206
v -352.859934 1188.117494 -34.939007
v -342.092936 1183.437441 -27.438305
v -537.363932 1025.297426 51.524593
v -543.338907 1024.757509 49.007894
v -531.566935 1037.297426 41.613794
v -541.080912 1037.777529 52.775493
v -537.616922 1031.577455 60.957393
v -542.158915 1033.347475 55.127693
v -348.415934 1167.847475 -35.256004
v -380.288920 1153.687441 -32.348107
v -364.507914 1159.297426 -31.126007
v -528.591898 1030.507509 42.906694
v -528.919901 1028.227480 45.297994
v -357.329935 1162.257509 -23.739006
v -341.764933 1176.087465 -26.020405
v -357.357920 1177.007509 -21.376507
v -362.438913 1178.527529 -3.529406
v -347.186930 1186.917421 -18.312504
v -353.364908 1184.617494 -21.231205
v -361.430918 1173.607485 -16.778805
v -364.122934 1177.677431 -19.932507
v -356.293924 1194.527529 -27.231705
v -372.452921 1178.147524 -22.602905
v -362.782908 1182.247499 -39.122204
v -362.014933 1190.677431 -32.199104
v -352.888926 1176.787416 -42.027107
v -374.592936 1178.027529 -16.211605
v -381.120920 1180.277529 -23.969307
v -384.863932 1172.827455 -15.417008
v -372.599924 1177.307436 -5.929106
v -383.914927 1168.647524 -27.069004
v -374.736918 1177.707460 -28.025406
v -394.845926 1170.577455 -18.018807
v -372.857920 1166.457460 -37.751507
v -357.903910 1159.347475 -12.331307
v -361.193918 1164.117494 -5.102406
v -389.026926 1156.027529 -7.625607
v -383.723917 1163.397524 -9.913305
v -422.811930 1123.177431 1.368793
v -376.158915 1153.387514 -12.172104
v -382.310923 1149.757509 -25.662907
v -393.032908 1152.067446 -31.174404
v -419.090921 1132.077455 -18.366806
v -402.049936 1160.637514 -15.741905
v -392.567911 1158.427431 -29.235504
v -520.461893 1049.887514 37.661394
v -523.822916 1035.137514 50.917494
v -531.103922 1029.947451 60.331196
v -534.609903 1037.877504 59.871895
v -516.482920 1043.367494 47.305094
v -490.482920 1061.167421 36.308794
v -479.735910 1067.797426 29.167104
v -449.759928 1094.087465 12.608004
v -392.286936 1144.597475 -8.665007
v -476.067911 1085.137514 28.268284
v -520.949930 1049.787416 46.263994
v -479.758921 1086.307436 26.758364
v -495.933909 1067.657534 36.856294
v -412.857920 1145.257509 -3.690605
v -463.198923 1097.607485 22.247775
v -453.068918 1113.857485 12.355744
v -449.897928 1111.547426 14.987544
v -433.534922 1130.877504 5.967295
v -520.147928 1051.877504 42.435694
v -433.113932 1128.077455 -10.149605
v -499.674936 1058.467470 26.603744
v -466.624918 1098.987490 12.941104
v -422.325907 1133.987490 -18.010807
v -472.465921 1085.507509 10.981794
v -503.452921 1062.777529 29.097054
v -441.256907 1116.647524 -7.638207
v -502.892923 1046.307436 37.441295
v -432.184916 1110.577455 4.174095
v -461.417917 1083.277529 13.650965
v -514.721933 1042.397524 35.758794
v -483.678934 1068.137514 19.793724
v -469.054911 1081.717470 11.697894
v -424.127909 1117.527529 -5.205607
v -413.615915 1132.807436 -18.156605
v -402.229929 1134.527529 -10.526608
vn -0.606514 -0.596544 0.525620
vn -0.606514 -0.596544 0.525620
vn -0.606514 -0.596544 0.525620
vn 0.027451 0.774534 -0.631937
vn 0.027451 0.774534 -0.631937
vn 0.027451 0.774534 -0.631937
vn -0.052249 0.636624 -0.769402
vn -0.052249 0.636624 -0.769402
vn -0.052249 0.636624 -0.769402
vn 0.741815 -0.383503 -0.550124
vn 0.741815 -0.383503 -0.550124
vn 0.741815 -0.383503 -0.550124
vn 0.832121 -0.542486 -0.115253
vn 0.832121 -0.542486 -0.115253
vn 0.832121 -0.542486 -0.115253
vn 0.647309 0.086154 -0.757343
vn 0.647309 0.086154 -0.757343
vn 0.647309 0.086154 -0.757343
vn 0.043678 0.529781 -0.847009
vn 0.043678 0.529781 -0.847009
vn 0.043678 0.529781 -0.847009
vn 0.885876 0.125685 0.446573
vn 0.885876 0.125685 0.446573
vn 0.885876 0.125685 0.446573
vn 0.991878 0.020035 -0.125605
vn 0.991878 0.020035 -0.125605
vn 0.991878 0.020035 -0.125605
vn 0.571121 0.738027 -0.359355
vn 0.571121 0.738027 -0.359355
vn 0.571121 0.738027 -0.359355
vn 0.615306 0.787097 0.043317
vn 0.615306 0.787097 0.043317
vn 0.615306 0.787097 0.043317
vn 0.580376 0.488018 -0.651922
vn 0.580376 0.488018 -0.651922
vn 0.580376 0.488018 -0.651922
vn 0.634600 0.408717 -0.655921
vn 0.634600 0.408717 -0.655921
vn 0.634600 0.408717 -0.655921
vn 0.122689 0.111363 0.986177
vn 0.122689 0.111363 0.986177
vn 0.122689 0.111363 0.986177
vn -0.673858 -0.664368 0.323312
vn -0.673858 -0.664368 0.323312
vn -0.673858 -0.664368 0.323312
vn 0.806914 -0.459990 0.370538
vn 0.806914 -0.459990 0.370538
vn 0.806914 -0.459990 0.370538
vn -0.077463 -0.611893 0.787138
vn -0.077463 -0.611893 0.787138
vn -0.077463 -0.611893 0.787138
vn -0.003501 -0.723518 -0.690297
vn -0.003501 -0.723518 -0.690297
vn -0.003501 -0.723518 -0.690297
vn 0.176500 -0.961003 -0.212887
vn 0.176500 -0.961003 -0.212887
vn 0.176500 -0.961003 -0.212887
vn -0.006930 -0.901146 -0.433460
vn -0.006930 -0.901146 -0.433460
vn -0.006930 -0.901146 -0.433460
vn -0.266372 -0.291643 -0.918689
vn -0.266372 -0.291643 -0.918689
vn -0.266372 -0.291643 -0.918689
vn -0.718140 0.305471 -0.625270
vn -0.718140 0.305471 -0.625270
vn -0.718140 0.305471 -0.625270
vn -0.288372 -0.528988 0.798131
vn -0.288372 -0.528988 0.798131
vn -0.288372 -0.528988 0.798131
vn -0.977531 0.193627 -0.083314
vn -0.977531 0.193627 -0.083314
vn -0.977531 0.193627 -0.083314
vn -0.649964 0.419435 0.633736
vn -0.649964 0.419435 0.633736
vn -0.649964 0.419435 0.633736
vn -0.654500 0.472601 0.590151
vn -0.654500 0.472601 0.590151
vn -0.654500 0.472601 0.590151
vn -0.025465 -0.339901 -0.940116
vn -0.025465 -0.339900 -0.940117
vn -0.025465 -0.339900 -0.940117
vn -0.013767 -0.382836 -0.923714
vn -0.013767 -0.382835 -0.923714
vn -0.013767 -0.382836 -0.923714
vn 0.668501 -0.725069 0.165473
vn 0.668501 -0.725069 0.165473
vn 0.668501 -0.725069 0.165473
vn 0.451082 -0.888688 -0.082207
vn 0.451082 -0.888689 -0.082207
vn 0.451082 -0.888688 -0.082207
vn 0.317325 -0.772947 -0.549416
vn 0.317325 -0.772947 -0.549416
vn 0.317325 -0.772947 -0.549416
vn 0.225339 -0.733724 -0.640992
vn 0.225339 -0.733724 -0.640992
vn 0.225339 -0.733724 -0.640992
vn 0.804529 -0.593913 0.000579
vn 0.804529 -0.593913 0.000579
vn 0.804529 -0.593913 0.000579
vn 0.195703 -0.121267 0.973137
vn 0.195703 -0.121267 0.973137
vn 0.195703 -0.121267 0.973137
vn 0.216486 0.683414 0.697194
vn 0.216486 0.683414 0.697194
vn 0.216486 0.683414 0.697194
vn 0.971646 0.236041 -0.013733
vn 0.971646 0.236041 -0.013733
vn 0.971646 0.236041 -0.013733
vn -0.135352 -0.618601 0.773959
vn -0.135352 -0.618601 0.773959
vn -0.135352 -0.618602 0.773959
vn 0.779675 -0.097587 0.618534
vn 0.779675 -0.097587 0.618534
vn 0.779675 -0.097587 0.618534
vn 0.918391 0.036337 0.394002
vn 0.918391 0.036337 0.394002
vn 0.918391 0.036337 0.394002
vn 0.272935 -0.161321 0.948410
vn 0.272935 -0.161321 0.948410
vn 0.272935 -0.161321 0.948410
vn 0.954836 0.272853 0.117639
vn 0.954836 0.272853 0.117639
vn 0.954836 0.272853 0.117639
vn 0.273903 -0.151596 0.949735
vn 0.273903 -0.151596 0.949735
vn 0.273903 -0.151596 0.949735
vn 0.223728 0.970194 0.093115
vn 0.223728 0.970194 0.093115
vn 0.223728 0.970194 0.093115
vn 0.290107 0.904124 -0.313683
vn 0.290107 0.904124 -0.313683
vn 0.290107 0.904124 -0.313683
vn -0.665318 0.716047 0.211253
vn -0.665318 0.716047 0.211253
vn -0.665318 0.716047 0.211253
vn -0.243440 0.478557 0.843635
vn -0.243440 0.478557 0.843635
vn -0.243440 0.478557 0.843635
vn -0.240965 0.489879 0.837827
vn -0.240965 0.489879 0.837827
vn -0.240965 0.489879 0.837827
vn -0.195719 0.464962 0.863426
vn -0.195719 0.464962 0.863426
vn -0.195719 0.464962 0.863426
vn -0.501516 0.334803 0.797740
vn -0.501516 0.334803 0.797740
vn -0.501516 0.334803 0.797740
vn 0.320686 0.938900 0.125012
vn 0.320686 0.938900 0.125012
vn 0.320686 0.938900 0.125012
vn 0.262150 0.946694 -0.187212
vn 0.262150 0.946694 -0.187212
vn 0.262150 0.946694 -0.187212
vn -0.660154 0.718253 0.219794
vn -0.660154 0.718253 0.219794
vn -0.660154 0.718253 0.219794
vn -0.683680 0.499351 -0.532194
vn -0.683680 0.499351 -0.532194
vn -0.683679 0.499351 -0.532194
vn -0.701013 0.395788 -0.593239
vn -0.701013 0.395788 -0.593239
vn -0.701013 0.395788 -0.593239
vn -0.244247 0.071897 -0.967044
vn -0.244247 0.071897 -0.967044
vn -0.244247 0.071897 -0.967044
vn -0.141064 0.985302 0.096338
vn -0.141064 0.985302 0.096338
vn -0.141064 0.985302 0.096338
vn -0.650092 0.322868 0.687850
vn -0.650091 0.322869 0.687849
vn -0.650091 0.322869 0.687849
vn -0.316584 0.779513 0.540494
vn -0.316584 0.779513 0.540494
vn -0.316584 0.779513 0.540494
vn -0.352762 0.776540 0.522057
vn -0.352762 0.776540 0.522057
vn -0.352762 0.776541 0.522057
vn -0.437718 0.887018 0.146975
vn -0.437718 0.887018 0.146975
vn -0.437718 0.887018 0.146975
vn -0.553657 0.489779 -0.673484
vn -0.553657 0.489779 -0.673484
vn -0.553657 0.489779 -0.673484
vn -0.483945 0.156608 -0.860971
vn -0.483945 0.156608 -0.860971
vn -0.483945 0.156608 -0.860971
vn -0.520656 0.450907 -0.724983
vn -0.520656 0.450907 -0.724983
vn -0.520656 0.450907 -0.724983
vn -0.476313 0.288088 -0.830741
vn -0.476313 0.288088 -0.830741
vn -0.476313 0.288088 -0.830741
vn -0.510398 0.568848 -0.644907
vn -0.510398 0.568848 -0.644907
vn -0.510398 0.568848 -0.644907
vn -0.038395 -0.370354 -0.928097
vn -0.038395 -0.370354 -0.928097
vn -0.038395 -0.370354 -0.928097
vn 0.300907 -0.927577 -0.221485
vn 0.300907 -0.927577 -0.221485
vn 0.300907 -0.927577 -0.221485
vn 0.409496 -0.911731 -0.032557
vn 0.409496 -0.911731 -0.032557
vn 0.409496 -0.911731 -0.032557
vn 0.334303 -0.853167 -0.400434
vn 0.334303 -0.853167 -0.400434
vn 0.334303 -0.853167 -0.400434
vn -0.213908 -0.124248 0.968920
vn -0.213908 -0.124248 0.968920
vn -0.213908 -0.124248 0.968920
vn 0.250715 -0.751626 0.610083
vn 0.250715 -0.751626 0.610083
vn 0.250715 -0.751626 0.610083
vn -0.203902 -0.115392 0.972167
vn -0.203901 -0.115392 0.972167
vn -0.203901 -0.115392 0.972167
vn -0.185191 -0.347389 0.919253
vn -0.185191 -0.347389 0.919253
vn -0.185191 -0.347389 0.919253
vn -0.112990 0.660805 0.742004
vn -0.112990 0.660805 0.742004
vn -0.112990 0.660805 0.742004
vn -0.316718 0.423909 0.848523
vn -0.316718 0.423909 0.848523
vn -0.316718 0.423909 0.848523
vn -0.274567 0.459709 0.844560
vn -0.274567 0.459709 0.844560
vn -0.274567 0.459709 0.844560
vn -0.194215 0.685952 0.701249
vn -0.194215 0.685952 0.701249
vn -0.194215 0.685952 0.701249
vn -0.344462 0.463886 0.816183
vn -0.344462 0.463886 0.816183
vn -0.344462 0.463886 0.816183
vn 0.297052 -0.170164 0.939577
vn 0.297053 -0.170164 0.939576
vn 0.297052 -0.170164 0.939577
vn 0.236964 0.114240 0.964778
vn 0.236964 0.114240 0.964778
vn 0.236964 0.114240 0.964778
vn 0.341163 0.045961 0.938880
vn 0.341163 0.045961 0.938880
vn 0.341163 0.045961 0.938880
vn 0.227676 -0.152393 0.961738
vn 0.227676 -0.152393 0.961738
vn 0.227676 -0.152393 0.961738
vn 0.462085 -0.580245 0.670666
vn 0.462085 -0.580245 0.670666
vn 0.462085 -0.580245 0.670666
vn -0.005945 -0.555589 -0.831436
vn -0.005945 -0.555589 -0.831436
vn -0.005945 -0.555589 -0.831436
vn 0.365535 -0.846522 -0.387021
vn 0.365535 -0.846522 -0.387021
vn 0.365535 -0.846522 -0.387021
vn 0.476772 -0.878820 0.019059
vn 0.476772 -0.878820 0.019059
vn 0.476772 -0.878821 0.019059
vn 0.583461 -0.810726 -0.047922
vn 0.583461 -0.810726 -0.047922
vn 0.583461 -0.810726 -0.047922
vn 0.373824 -0.852360 -0.365703
vn 0.373824 -0.852360 -0.365703
vn 0.373824 -0.852360 -0.365703
vn -0.081754 -0.496667 -0.864082
vn -0.081754 -0.496668 -0.864082
vn -0.081754 -0.496667 -0.864082
vn 0.010820 0.200879 -0.979556
vn 0.010820 0.200879 -0.979556
vn 0.010820 0.200879 -0.979556
vn -0.595105 0.613816 -0.518729
vn -0.595105 0.613816 -0.518729
vn -0.595105 0.613816 -0.518729
vn -0.532720 0.282193 -0.797857
vn -0.532720 0.282193 -0.797857
vn -0.532720 0.282193 -0.797857
vn -0.590317 0.252193 -0.766762
vn -0.590317 0.252193 -0.766762
vn -0.590317 0.252193 -0.766762
vn -0.645950 0.537595 -0.541978
vn -0.645950 0.537595 -0.541978
vn -0.645950 0.537595 -0.541978
vn -0.237959 -0.281282 -0.929654
vn -0.237959 -0.281282 -0.929654
vn -0.237959 -0.281282 -0.929654
vn -0.683701 0.414512 -0.600610
vn -0.683701 0.414512 -0.600610
vn -0.683701 0.414512 -0.600610
vn 0.603602 -0.721365 0.339553
vn 0.603602 -0.721365 0.339553
vn 0.603602 -0.721365 0.339553
vn 0.280947 -0.713579 -0.641774
vn 0.280947 -0.713579 -0.641774
vn 0.280947 -0.713579 -0.641774
vn -0.625291 0.734080 -0.264836
vn -0.625291 0.734080 -0.264836
vn -0.625291 0.734080 -0.264836
vn -0.225355 -0.314361 -0.922167
vn -0.225355 -0.314361 -0.922167
vn -0.225355 -0.314361 -0.922167
vn 0.425087 0.425340 0.798991
vn 0.425087 0.425340 0.798991
vn 0.425087 0.425340 0.798991
vn 0.164958 0.268673 0.949001
vn 0.164958 0.268673 0.949001
vn 0.164958 0.268673 0.949001
vn -0.379829 0.843092 0.380692
vn -0.379829 0.843092 0.380692
vn -0.379829 0.843092 0.380692
vn -0.394744 0.850344 0.347984
vn -0.394744 0.850344 0.347984
vn -0.394744 0.850344 0.347984
vn 0.603492 -0.199351 0.772047
vn 0.603492 -0.199351 0.772047
vn 0.603492 -0.199351 0.772047
vn 0.774019 -0.564031 0.287686
vn 0.774019 -0.564031 0.287685
vn 0.774019 -0.564031 0.287685
vn 0.493465 0.266126 0.828052
vn 0.493465 0.266126 0.828052
vn 0.493465 0.266126 0.828052
vn 0.288035 0.162304 0.943766
vn 0.288035 0.162304 0.943766
vn 0.288035 0.162304 0.943766
vn 0.587994 -0.439291 0.679180
vn 0.587994 -0.439291 0.679180
vn 0.587994 -0.439291 0.679180
vn 0.633976 -0.314286 0.706611
vn 0.633976 -0.314286 0.706611
vn 0.633976 -0.314286 0.706611
vn 0.339095 -0.043016 0.939768
vn 0.339095 -0.043016 0.939768
vn 0.339095 -0.043016 0.939768
vn 0.276397 0.152092 0.948932
vn 0.276397 0.152092 0.948932
vn 0.276397 0.152092 0.948932
vn 0.545565 -0.166469 0.821369
vn 0.545565 -0.166469 0.821369
vn 0.545565 -0.166469 0.821369
vn 0.586296 -0.082244 0.805911
vn 0.586296 -0.082244 0.805911
vn 0.586296 -0.082244 0.805911
vn 0.527215 -0.067616 0.847037
vn 0.527215 -0.067616 0.847037
vn 0.527215 -0.067616 0.847037
vn -0.676362 0.722515 -0.143199
vn -0.676362 0.722515 -0.143199
vn -0.676362 0.722515 -0.143199
vn -0.737894 0.669257 -0.087226
vn -0.737894 0.669257 -0.087226
vn -0.737894 0.669257 -0.087226
vn 0.312997 0.075836 0.946722
vn 0.312997 0.075836 0.946722
vn 0.312997 0.075836 0.946722
vn 0.526021 -0.110764 0.843228
vn 0.526021 -0.110764 0.843228
vn 0.526021 -0.110764 0.843228
vn 0.560744 -0.107454 0.820987
vn 0.560744 -0.107454 0.820987
vn 0.560744 -0.107454 0.820987
vn -0.205654 0.599212 0.773726
vn -0.205654 0.599212 0.773726
vn -0.205654 0.599212 0.773726
vn -0.157413 0.556361 0.815895
vn -0.157413 0.556361 0.815895
vn -0.157413 0.556361 0.815895
vn -0.150634 0.568533 0.808752
vn -0.150634 0.568533 0.808752
vn -0.150634 0.568533 0.808752
vn -0.452619 0.819124 0.352381
vn -0.452619 0.819124 0.352381
vn -0.452619 0.819124 0.352381
vn -0.194016 0.595508 0.779569
vn -0.194016 0.595508 0.779569
vn -0.194016 0.595508 0.779569
vn -0.216194 0.603197 0.767733
vn -0.216194 0.603197 0.767733
vn -0.216194 0.603197 0.767733
vn 0.323181 0.161535 0.932449
vn 0.323180 0.161535 0.932449
vn 0.323180 0.161535 0.932449
vn -0.238508 0.569101 0.786917
vn -0.238508 0.569101 0.786917
vn -0.238508 0.569101 0.786917
vn -0.612699 0.779118 0.132571
vn -0.612699 0.779118 0.132571
vn -0.612699 0.779118 0.132571
vn -0.723600 0.650588 -0.230517
vn -0.723600 0.650588 -0.230517
vn -0.723600 0.650588 -0.230517
vn -0.728377 0.671604 -0.135704
vn -0.728377 0.671604 -0.135704
vn -0.728377 0.671604 -0.135704
vn -0.196898 -0.350228 -0.915735
vn -0.196898 -0.350228 -0.915735
vn -0.196898 -0.350228 -0.915735
vn -0.667236 0.550377 -0.501878
vn -0.667236 0.550377 -0.501878
vn -0.667236 0.550377 -0.501878
vn -0.187727 -0.342863 -0.920437
vn -0.187727 -0.342863 -0.920437
vn -0.187727 -0.342863 -0.920437
vn -0.261102 -0.269446 -0.926944
vn -0.261102 -0.269446 -0.926944
vn -0.261102 -0.269446 -0.926944
vn -0.661757 0.706479 -0.250927
vn -0.661757 0.706479 -0.250927
vn -0.661757 0.706479 -0.250927
vn -0.714482 0.515703 -0.472828
vn -0.714482 0.515703 -0.472828
vn -0.714482 0.515703 -0.472828
vn -0.473330 0.091902 -0.876078
vn -0.473330 0.091902 -0.876078
vn -0.473330 0.091902 -0.876078
vn -0.667113 0.328359 -0.668686
vn -0.667113 0.328359 -0.668686
vn -0.667113 0.328359 -0.668686
vn -0.728841 0.396622 -0.558105
vn -0.728841 0.396622 -0.558105
vn -0.728841 0.396622 -0.558105
vn -0.597755 0.293010 -0.746213
vn -0.597755 0.293010 -0.746213
vn -0.597755 0.293010 -0.746213
vn -0.658442 0.379759 -0.649797
vn -0.658442 0.379760 -0.649797
vn -0.658442 0.379760 -0.649797
vn -0.728864 0.396911 -0.557870
vn -0.728864 0.396911 -0.557870
vn -0.728864 0.396911 -0.557870
vn -0.522995 0.034233 -0.851648
vn -0.522995 0.034233 -0.851648
vn -0.522995 0.034233 -0.851648
vn -0.171773 -0.361291 -0.916495
vn -0.171773 -0.361291 -0.916495
vn -0.171773 -0.361291 -0.916495
vn -0.171578 -0.361599 -0.916410
vn -0.171578 -0.361599 -0.916410
vn -0.171578 -0.361599 -0.916410
vn -0.202671 -0.345863 -0.916135
vn -0.202671 -0.345863 -0.916135
vn -0.202671 -0.345863 -0.916135
vn 0.681596 -0.727459 0.078935
vn 0.681596 -0.727459 0.078935
vn 0.681596 -0.727459 0.078935
vn 0.701860 -0.707999 0.078292
vn 0.701860 -0.707999 0.078292
vn 0.701860 -0.707999 0.078292
vn 0.673017 -0.705556 0.221896
vn 0.673017 -0.705556 0.221896
vn 0.673018 -0.705556 0.221896
vn 0.326799 -0.730840 -0.599229
vn 0.326799 -0.730840 -0.599229
vn 0.326799 -0.730840 -0.599229
vn 0.680591 -0.732501 0.015426
vn 0.680591 -0.732501 0.015426
vn 0.680591 -0.732501 0.015426
vn 0.671547 -0.520655 0.527203
vn 0.671547 -0.520655 0.527203
vn 0.671547 -0.520655 0.527203
vn 0.329717 -0.751809 -0.571025
vn 0.329717 -0.751809 -0.571025
vn 0.329717 -0.751809 -0.571025
vn 0.119256 -0.688438 -0.715423
vn 0.119256 -0.688438 -0.715423
vn 0.119256 -0.688438 -0.715423
vn 0.697975 -0.706074 0.119544
vn 0.697975 -0.706074 0.119544
vn 0.697975 -0.706074 0.119544
vn 0.600144 -0.796405 -0.074613
vn 0.600144 -0.796405 -0.074613
vn 0.600144 -0.796405 -0.074613
vn 0.307166 -0.709135 -0.634647
vn 0.307166 -0.709135 -0.634647
vn 0.307166 -0.709135 -0.634647
vn 0.309265 -0.694601 -0.649526
vn 0.309265 -0.694601 -0.649526
vn 0.309265 -0.694601 -0.649526
vn 0.449540 -0.737027 -0.504684
vn 0.449540 -0.737027 -0.504684
vn 0.449540 -0.737027 -0.504684
vn 0.308179 -0.693846 -0.650848
vn 0.308179 -0.693846 -0.650848
vn 0.308179 -0.693846 -0.650848
vn 0.367303 -0.758482 -0.538324
vn 0.367303 -0.758482 -0.538324
vn 0.367303 -0.758482 -0.538324
s off
g R_Ulna:Mesh
usemtl R_Ulna:initialShadingGroup
f 6//1 1//2 11//3
f 25//4 4//5 28//6
f 28//7 4//8 27//9
f 2//10 3//11 12//12
f 12//13 3//14 18//15
f 29//16 3//17 2//18
f 4//19 29//20 27//21
f 18//22 5//23 21//24
f 3//25 5//26 18//27
f 25//28 5//29 4//30
f 21//31 5//32 25//33
f 3//34 29//35 5//36
f 4//37 5//38 29//39
f 52//40 10//41 51//42
f 1//43 10//44 11//45
f 51//46 1//47 50//48
f 1//49 51//50 10//51
f 15//52 16//53 7//54
f 16//55 6//56 7//57
f 6//58 16//59 1//60
f 15//61 7//62 8//63
f 8//64 7//65 9//66
f 11//67 7//68 6//69
f 7//70 11//71 9//72
f 52//73 11//74 10//75
f 9//76 11//77 52//78
f 29//79 2//80 37//81
f 37//82 2//83 13//84
f 17//85 12//86 18//87
f 14//88 12//89 17//90
f 2//91 14//92 13//93
f 2//94 12//95 14//96
f 1//97 16//98 50//99
f 24//100 19//101 22//102
f 23//103 19//104 24//105
f 20//106 38//107 23//108
f 21//109 22//110 18//111
f 19//112 23//113 17//114
f 38//115 20//116 39//117
f 19//118 18//119 22//120
f 17//121 23//122 38//123
f 18//124 19//125 17//126
f 30//127 26//128 31//129
f 20//130 23//131 30//132
f 26//133 25//134 28//135
f 24//136 25//137 26//138
f 24//139 26//140 23//141
f 22//142 25//143 24//144
f 25//145 22//146 21//147
f 26//148 30//149 23//150
f 26//151 35//152 31//153
f 28//154 35//155 26//156
f 27//157 35//158 28//159
f 35//160 27//161 37//162
f 37//163 27//164 29//165
f 30//166 33//167 20//168
f 41//169 33//170 32//171
f 36//172 32//173 31//174
f 31//175 32//176 30//177
f 32//178 33//179 30//180
f 35//181 37//182 34//183
f 35//184 36//185 31//186
f 35//187 34//188 36//189
f 48//190 37//191 45//192
f 34//193 37//194 48//195
f 37//196 13//197 45//198
f 43//199 17//200 38//201
f 14//202 17//203 43//204
f 14//205 44//206 13//207
f 33//208 39//209 20//210
f 38//211 39//212 43//213
f 41//214 39//215 33//216
f 43//217 39//218 41//219
f 66//220 62//221 47//222
f 47//223 32//224 36//225
f 41//226 32//227 40//228
f 62//229 40//230 47//231
f 40//232 32//233 47//234
f 43//235 40//236 57//237
f 57//238 62//239 42//240
f 41//241 40//242 43//243
f 62//244 57//245 40//246
f 57//247 83//248 43//249
f 45//250 13//251 82//252
f 13//253 44//254 82//255
f 14//256 43//257 44//258
f 43//259 83//260 44//261
f 82//262 44//263 83//264
f 82//265 71//266 45//267
f 46//268 71//269 82//270
f 48//271 47//272 34//273
f 71//274 48//275 45//276
f 36//277 34//278 47//279
f 71//280 47//281 48//282
f 15//283 8//284 78//285
f 9//286 49//287 8//288
f 50//289 16//290 75//291
f 16//292 15//293 78//294
f 67//295 49//296 9//297
f 78//298 8//299 69//300
f 53//301 59//302 52//303
f 61//304 59//305 53//306
f 9//307 59//308 67//309
f 52//310 59//311 9//312
f 75//313 53//314 50//315
f 50//316 53//317 51//318
f 51//319 53//320 52//321
f 61//322 53//323 54//324
f 53//325 75//326 54//327
f 76//328 42//329 56//330
f 57//331 42//332 76//333
f 61//334 54//335 58//336
f 63//337 58//338 56//339
f 54//340 55//341 58//342
f 58//343 55//344 56//345
f 68//346 64//347 66//348
f 70//349 60//350 64//351
f 42//352 62//353 56//354
f 62//355 65//356 56//357
f 65//358 63//359 56//360
f 65//361 64//362 63//363
f 63//364 60//365 58//366
f 58//367 60//368 61//369
f 61//370 67//371 59//372
f 60//373 63//374 64//375
f 67//376 61//377 60//378
f 62//379 66//380 65//381
f 65//382 66//383 64//384
f 60//385 70//386 67//387
f 64//388 68//389 70//390
f 66//391 47//392 68//393
f 80//394 72//395 74//396
f 71//397 68//398 47//399
f 69//400 72//401 80//402
f 74//403 71//404 46//405
f 67//406 73//407 49//408
f 70//409 73//410 67//411
f 8//412 73//413 69//414
f 74//415 68//416 71//417
f 68//418 74//419 70//420
f 49//421 73//422 8//423
f 70//424 72//425 73//426
f 70//427 74//428 72//429
f 73//430 72//431 69//432
f 69//433 79//434 78//435
f 80//436 79//437 69//438
f 74//439 46//440 80//441
f 55//442 77//443 56//444
f 56//445 81//446 76//447
f 76//448 83//449 57//450
f 16//451 78//452 75//453
f 77//454 81//455 56//456
f 75//457 55//458 54//459
f 79//460 75//461 78//462
f 82//463 81//464 46//465
f 55//466 75//467 77//468
f 76//469 81//470 83//471
f 80//472 77//473 79//474
f 46//475 81//476 80//477
f 82//478 83//479 81//480
f 77//481 80//482 81//483
f 77//484 75//485 79//486
