v  -280.749   1325.05 -0.129104
v -259.55  1329.8 13.9389
v -276.522  1310.31  17.1951
v -250.053  1337.94 -9.71428
v -239.766  1336.91 -3.42976
v -237.345  1353.19 -3.59934
v -200.405  1314.57  2.28262
v -214.879  1321.24  11.1935
v -202.896  1334.65  4.73246
v -211.511  1301.14 -15.0297
v -210.567  1299.33 -7.71156
v -227.373  1345.63 0.991412
v -236.675  1324.88  14.8532
v -232.613  1340.37  8.53945
v -200.611  1318.63 -10.7633
v -202.295  1327.68  -11.786
v -212.312  1321.09 -15.9301
v -228.598  1355.85  3.76832
v -228.057  1349.72 -3.62095
v -247.351  1338.35  12.3949
v -242.854  1347.46 -2.43015
v -264.986  1275.69  -17.493
v -246.312  1286.31 -24.5664
v -272.543  1294.06 -10.2292
v -234.537  1331.56  4.13462
v -224.458  1324.43 -10.4726
v -208.499  1337.55 -8.86264
v -297.981  1307.39 0.596412
v -294.612  1294.28  13.0552
v -231.738  1326.29  7.86237
v -233.093  1321.02  14.8687
v -233.376  1320.71 -4.68637
v  -301.82  1249.76 -3.52319
v -292.632  1258.34   -9.587
v -326.108  1246.33 -5.16349
v -195.742  1349.02   -6.001
v -192.448  1346.12 -2.42288
v  -249.755   1317.03 -0.371965
v -252.516  1325.55 -10.7915
v -266.738  1305.45 -9.72628
v -231.87 1291.27 5.64038
v  -227.55  1291.68 -12.8734
v  -251.818   1266.81 -0.551292
v -244.242  1290.21  18.2336
v -221.728  1305.37  13.4642
v -246.53 1304.69 21.6874
v -290.445  1277.76  16.5782
v -280.156  1283.58  19.6744
v -275.931  1261.26  11.0951
v -285.161  1259.72  10.9356
v -291.549  1316.44 -10.1442
v -285.319  1321.58 -11.3798
v -248.767  1342.11  1.74746
v -263.795  1264.25 -16.2193
v -243.43 1283.55 -25.379
v   -243.3  1278.21 -20.7318
v -265.701  1298.76  20.3557
v -207.484  1343.05  2.41955
v -229.336  1303.84 -25.3447
v -216.911  1304.28 -21.6997
v -236.833  1305.37 -20.5255
v -307.814  1263.19  4.95681
v -307.692  1275.14  7.22014
v -265.432  1301.33 -9.00984
v -248.337  1300.91  -15.189
v -246.807  1309.89  -5.6288
v  -210.6 1306.07 5.95694
v -260.201  1329.52 -10.6014
v -309.678  1264.09 -6.31168
v -290.376  1279.05 -10.7128
v  -306.21  1296.24 -6.31183
v -311.941  1280.21  2.14803
v -250.879  1267.23 -12.5566
v -282.654  1250.72 -5.93867
v -272.955  1253.45  2.14535
v -254.673  1307.68  20.9136
v -323.155  1248.61 -8.79878
vn -0.555337   0.73341  0.392059
vn -0.331599  0.483574  0.810061
vn -0.398073  0.376602  0.836486
vn -0.183484  0.443004 -0.877543
vn  0.433847 -0.173923 -0.884041
vn -0.339419  0.765234 -0.547003
vn  0.851324 -0.322552  0.413772
vn  0.366418 0.0424625  0.929481
vn 0.356185 0.171474 0.918547
vn  0.691002 -0.619104 -0.373131
vn   0.56386 -0.794201  0.226507
vn  0.962181 -0.232815  0.141438
vn 0.763994 -0.39137 0.512974
vn 0.0573253  0.520002  0.852239
vn  0.826802 -0.202944 -0.524606
vn 0.364636 0.153203 -0.91846
vn 0.0786152  0.377394  -0.92271
vn 0.248309  0.72076 0.647185
vn  0.511088 -0.110931  -0.85234
vn -0.163486  0.611884  0.773867
vn -0.396007  0.827169   0.39871
vn -0.313109 0.0979111 -0.944657
vn -0.383729  0.251478 -0.888544
vn   -0.1815  0.203773 -0.962047
vn  0.699203 -0.513256 -0.497677
vn -0.389302  0.587589 -0.709354
vn -0.427638  0.667787 -0.609251
vn -0.691397  0.535956  0.484481
vn -0.534524  0.264697  0.802633
vn -0.626365  0.765317 -0.148177
vn -0.403672  0.802962  0.438521
vn -0.594287  0.716487 -0.365336
vn -0.058497 -0.968378  0.242532
vn -0.111277 -0.187893 -0.975866
vn -0.535939 -0.702752  0.467876
vn -0.336376  0.751969 -0.566915
vn  0.974177 0.0189469   0.22499
vn  0.664788 -0.670958 -0.328439
vn  0.368238 -0.216078 -0.904274
vn  0.388782 -0.337862 -0.857145
vn  0.606296 -0.712409  0.353382
vn   0.633617  -0.772481 -0.0424541
vn 0.655944 -0.70412 0.271943
vn  0.351145 -0.486983  0.799716
vn 0.480306 -0.42831 0.765412
vn  0.134668 0.0206266  0.990676
vn -0.297818 -0.189291  0.935667
vn -0.0642307   -0.14112   0.987907
vn  0.128503 -0.520124  0.844369
vn -0.191746 -0.519787  0.832499
vn -0.290821  0.160802 -0.943168
vn  -0.23154  0.465373 -0.854294
vn  -0.473823   0.875634 -0.0935813
vn -0.0832884  -0.369981  -0.925298
vn  0.389112 -0.529399 -0.753876
vn  0.633148 -0.696132 -0.338413
vn -0.37437 0.586508  0.71823
vn -0.135293  0.689519  0.711519
vn -0.180853  0.420091 -0.889278
vn  0.457807 -0.141683 -0.877689
vn -0.463656  0.586701 -0.663932
vn -0.439063 -0.298471  0.847431
vn -0.669855 -0.025315  0.742061
vn -0.341304  0.891763 -0.297105
vn -0.362216  0.547769 -0.754154
vn -0.471887  0.799568 -0.371502
vn  0.560683 -0.474865  0.678334
vn -0.124966  0.547239 -0.827595
vn -0.536255  0.141285 -0.832147
vn -0.174742 0.0253908 -0.984287
vn -0.822866  0.299309 -0.483018
vn -0.894899  0.266599  0.357884
vn  0.491247 -0.833575 -0.252644
vn  0.231528 -0.884649  -0.40471
vn  0.386565 -0.812926  0.435567
vn  0.573833 -0.416005  0.705447
vn -0.160372  0.084824 -0.983405
# mm_gid 0
g mmGroup0
f 1//1 2//2 3//3
f 4//4 5//5 6//6
f 7//7 8//8 9//9
f 7//7 10//10 11//11
f 12//12 13//13 14//14
f 15//15 16//16 17//17
f 18//18 19//19 12//12
f 14//14 20//20 21//21
f 22//22 23//23 24//24
f 20//20 14//14 13//13
f 19//19 5//5 25//25
f 26//26 17//17 27//27
f 28//28 3//3 29//29
f 30//30 31//31 32//32
f 33//33 34//34 35//35
f 36//36 16//16 37//37
f 38//38 39//39 40//40
f 41//41 42//42 43//43
f 41//41 44//44 45//45
f 31//31 8//8 46//46
f 47//47 48//48 49//49
f 50//50 47//47 49//49
f 1//1 28//28 51//51
f 1//1 52//52 53//53
f 23//23 22//22 54//54
f 55//55 56//56 42//42
f 57//57 48//48 3//3
f 58//58 37//37 9//9
f 59//59 55//55 60//60
f 59//59 23//23 55//55
f 23//23 59//59 61//61
f 47//47 62//62 63//63
f 30//30 27//27 36//36
f 64//64 65//65 66//66
f 7//7 67//67 8//8
f 53//53 52//52 68//68
f 69//69 70//70 51//51
f 69//69 71//71 72//72
f 25//25 5//5 39//39
f 25//25 39//39 38//38
f 56//56 54//54 73//73
f 15//15 10//10 7//7
f 74//74 75//75 73//73
f 29//29 72//72 28//28
f 72//72 71//71 28//28
f 71//71 51//51 28//28
f 6//6 5//5 19//19
f 21//21 4//4 6//6
f 40//40 39//39 52//52
f 54//54 74//74 73//73
f 65//65 23//23 61//61
f 24//24 70//70 22//22
f 28//28 1//1 3//3
f 25//25 13//13 12//12
f 14//14 6//6 18//18
f 8//8 31//31 9//9
f 21//21 6//6 14//14
f 31//31 57//57 64//64
f 12//12 14//14 18//18
f 10//10 15//15 60//60
f 24//24 40//40 51//51
f 62//62 50//50 33//33
f 69//69 34//34 70//70
f 22//22 70//70 54//54
f 2//2 76//76 3//3
f 54//54 70//70 34//34
f 58//58 30//30 36//36
f 16//16 36//36 27//27
f 37//37 15//15 7//7
f 16//16 15//15 37//37
f 52//52 39//39 68//68
f 19//19 25//25 12//12
f 58//58 31//31 30//30
f 66//66 32//32 31//31
f 42//42 11//11 10//10
f 21//21 20//20 53//53
f 75//75 74//74 33//33
f 67//67 45//45 8//8
f 32//32 66//66 61//61
f 27//27 30//30 32//32
f 9//9 37//37 7//7
f 65//65 61//61 66//66
f 2//2 1//1 20//20
f 52//52 1//1 51//51
f 15//15 17//17 60//60
f 72//72 63//63 69//69
f 11//11 67//67 7//7
f 2//2 20//20 76//76
f 29//29 47//47 63//63
f 57//57 3//3 76//76
f 53//53 20//20 1//1
f 34//34 33//33 54//54
f 40//40 64//64 76//76
f 65//65 64//64 24//24
f 44//44 46//46 45//45
f 27//27 32//32 26//26
f 67//67 11//11 45//45
f 48//48 29//29 3//3
f 61//61 59//59 32//32
f 27//27 17//17 16//16
f 76//76 13//13 38//38
f 46//46 57//57 31//31
f 54//54 55//55 23//23
f 45//45 46//46 8//8
f 76//76 64//64 57//57
f 55//55 42//42 10//10
f 70//70 24//24 51//51
f 17//17 26//26 59//59
f 11//11 42//42 41//41
f 33//33 50//50 49//49
f 76//76 20//20 13//13
f 62//62 35//35 69//69
f 4//4 21//21 53//53
f 4//4 68//68 5//5
f 38//38 13//13 25//25
f 43//43 44//44 41//41
f 48//48 47//47 29//29
f 31//31 64//64 66//66
f 47//47 50//50 62//62
f 6//6 19//19 18//18
f 24//24 64//64 40//40
f 44//44 75//75 49//49
f 33//33 49//49 75//75
f 48//48 57//57 46//46
f 39//39 5//5 68//68
f 45//45 11//11 41//41
f 10//10 60//60 55//55
f 38//38 40//40 76//76
f 63//63 72//72 29//29
f 43//43 56//56 73//73
f 24//24 23//23 65//65
f 54//54 33//33 74//74
f 35//35 77//77 69//69
f 34//34 69//69 77//77
f 55//55 54//54 56//56
f 58//58 9//9 31//31
f 56//56 43//43 42//42
f 69//69 63//63 62//62
f 40//40 52//52 51//51
f 59//59 60//60 17//17
f 77//77 35//35 34//34
f 44//44 43//43 75//75
f 73//73 75//75 43//43
f 51//51 71//71 69//69
f 46//46 44//44 48//48
f 58//58 36//36 37//37
f 49//49 48//48 44//44
f 26//26 32//32 59//59
f 62//62 33//33 35//35
f 68//68 4//4 53//53
f 1//1 2//2 3//3
f 4//4 5//5 6//6
f 7//7 8//8 9//9
f 7//7 10//10 11//11
f 12//12 13//13 14//14
f 15//15 16//16 17//17
f 18//18 19//19 12//12
f 14//14 20//20 21//21
f 22//22 23//23 24//24
f 20//20 14//14 13//13
f 19//19 5//5 25//25
f 26//26 17//17 27//27
f 28//28 3//3 29//29
f 30//30 31//31 32//32
f 33//33 34//34 35//35
f 36//36 16//16 37//37
f 38//38 39//39 40//40
f 41//41 42//42 43//43
f 41//41 44//44 45//45
f 31//31 8//8 46//46
f 47//47 48//48 49//49
f 50//50 47//47 49//49
f 1//1 28//28 51//51
f 1//1 52//52 53//53
f 23//23 22//22 54//54
f 55//55 56//56 42//42
f 57//57 48//48 3//3
f 58//58 37//37 9//9
f 59//59 55//55 60//60
f 59//59 23//23 55//55
f 23//23 59//59 61//61
f 47//47 62//62 63//63
f 30//30 27//27 36//36
f 64//64 65//65 66//66
f 7//7 67//67 8//8
f 53//53 52//52 68//68
f 69//69 70//70 51//51
f 69//69 71//71 72//72
f 25//25 5//5 39//39
f 25//25 39//39 38//38
f 56//56 54//54 73//73
f 15//15 10//10 7//7
f 74//74 75//75 73//73
f 29//29 72//72 28//28
f 72//72 71//71 28//28
f 71//71 51//51 28//28
f 6//6 5//5 19//19
f 21//21 4//4 6//6
f 40//40 39//39 52//52
f 54//54 74//74 73//73
f 65//65 23//23 61//61
f 24//24 70//70 22//22
f 28//28 1//1 3//3
f 25//25 13//13 12//12
f 14//14 6//6 18//18
f 8//8 31//31 9//9
f 21//21 6//6 14//14
f 31//31 57//57 64//64
f 12//12 14//14 18//18
f 10//10 15//15 60//60
f 24//24 40//40 51//51
f 62//62 50//50 33//33
f 69//69 34//34 70//70
f 22//22 70//70 54//54
f 2//2 76//76 3//3
f 54//54 70//70 34//34
f 58//58 30//30 36//36
f 16//16 36//36 27//27
f 37//37 15//15 7//7
f 16//16 15//15 37//37
f 52//52 39//39 68//68
f 19//19 25//25 12//12
f 58//58 31//31 30//30
f 66//66 32//32 31//31
f 42//42 11//11 10//10
f 21//21 20//20 53//53
f 75//75 74//74 33//33
f 67//67 45//45 8//8
f 32//32 66//66 61//61
f 27//27 30//30 32//32
f 9//9 37//37 7//7
f 65//65 61//61 66//66
f 2//2 1//1 20//20
f 52//52 1//1 51//51
f 15//15 17//17 60//60
f 72//72 63//63 69//69
f 11//11 67//67 7//7
f 2//2 20//20 76//76
f 29//29 47//47 63//63
f 57//57 3//3 76//76
f 53//53 20//20 1//1
f 34//34 33//33 54//54
f 40//40 64//64 76//76
f 65//65 64//64 24//24
f 44//44 46//46 45//45
f 27//27 32//32 26//26
f 67//67 11//11 45//45
f 48//48 29//29 3//3
f 61//61 59//59 32//32
f 27//27 17//17 16//16
f 76//76 13//13 38//38
f 46//46 57//57 31//31
f 54//54 55//55 23//23
f 45//45 46//46 8//8
f 76//76 64//64 57//57
f 55//55 42//42 10//10
f 70//70 24//24 51//51
f 17//17 26//26 59//59
f 11//11 42//42 41//41
f 33//33 50//50 49//49
f 76//76 20//20 13//13
f 62//62 35//35 69//69
f 4//4 21//21 53//53
f 4//4 68//68 5//5
f 38//38 13//13 25//25
f 43//43 44//44 41//41
f 48//48 47//47 29//29
f 31//31 64//64 66//66
f 47//47 50//50 62//62
f 6//6 19//19 18//18
f 24//24 64//64 40//40
f 44//44 75//75 49//49
f 33//33 49//49 75//75
f 48//48 57//57 46//46
f 39//39 5//5 68//68
f 45//45 11//11 41//41
f 10//10 60//60 55//55
f 38//38 40//40 76//76
f 63//63 72//72 29//29
f 43//43 56//56 73//73
f 24//24 23//23 65//65
f 54//54 33//33 74//74
f 35//35 77//77 69//69
f 34//34 69//69 77//77
f 55//55 54//54 56//56
f 58//58 9//9 31//31
f 56//56 43//43 42//42
f 69//69 63//63 62//62
f 40//40 52//52 51//51
f 59//59 60//60 17//17
f 77//77 35//35 34//34
f 44//44 43//43 75//75
f 73//73 75//75 43//43
f 51//51 71//71 69//69
f 46//46 44//44 48//48
f 58//58 36//36 37//37
f 49//49 48//48 44//44
f 26//26 32//32 59//59
f 62//62 33//33 35//35
f 68//68 4//4 53//53
f 1//1 2//2 3//3
f 4//4 5//5 6//6
f 7//7 8//8 9//9
f 7//7 10//10 11//11
f 12//12 13//13 14//14
f 15//15 16//16 17//17
f 18//18 19//19 12//12
f 14//14 20//20 21//21
f 22//22 23//23 24//24
f 20//20 14//14 13//13
f 19//19 5//5 25//25
f 26//26 17//17 27//27
f 28//28 3//3 29//29
f 30//30 31//31 32//32
f 33//33 34//34 35//35
f 36//36 16//16 37//37
f 38//38 39//39 40//40
f 41//41 42//42 43//43
f 41//41 44//44 45//45
f 31//31 8//8 46//46
f 47//47 48//48 49//49
f 50//50 47//47 49//49
f 1//1 28//28 51//51
f 1//1 52//52 53//53
f 23//23 22//22 54//54
f 55//55 56//56 42//42
f 57//57 48//48 3//3
f 58//58 37//37 9//9
f 59//59 55//55 60//60
f 59//59 23//23 55//55
f 23//23 59//59 61//61
f 47//47 62//62 63//63
f 30//30 27//27 36//36
f 64//64 65//65 66//66
f 7//7 67//67 8//8
f 53//53 52//52 68//68
f 69//69 70//70 51//51
f 69//69 71//71 72//72
f 25//25 5//5 39//39
f 25//25 39//39 38//38
f 56//56 54//54 73//73
f 15//15 10//10 7//7
f 74//74 75//75 73//73
f 29//29 72//72 28//28
f 72//72 71//71 28//28
f 71//71 51//51 28//28
f 6//6 5//5 19//19
f 21//21 4//4 6//6
f 40//40 39//39 52//52
f 54//54 74//74 73//73
f 65//65 23//23 61//61
f 24//24 70//70 22//22
f 28//28 1//1 3//3
f 25//25 13//13 12//12
f 14//14 6//6 18//18
f 8//8 31//31 9//9
f 21//21 6//6 14//14
f 31//31 57//57 64//64
f 12//12 14//14 18//18
f 10//10 15//15 60//60
f 24//24 40//40 51//51
f 62//62 50//50 33//33
f 69//69 34//34 70//70
f 22//22 70//70 54//54
f 2//2 76//76 3//3
f 54//54 70//70 34//34
f 58//58 30//30 36//36
f 16//16 36//36 27//27
f 37//37 15//15 7//7
f 16//16 15//15 37//37
f 52//52 39//39 68//68
f 19//19 25//25 12//12
f 58//58 31//31 30//30
f 66//66 32//32 31//31
f 42//42 11//11 10//10
f 21//21 20//20 53//53
f 75//75 74//74 33//33
f 67//67 45//45 8//8
f 32//32 66//66 61//61
f 27//27 30//30 32//32
f 9//9 37//37 7//7
f 65//65 61//61 66//66
f 2//2 1//1 20//20
f 52//52 1//1 51//51
f 15//15 17//17 60//60
f 72//72 63//63 69//69
f 11//11 67//67 7//7
f 2//2 20//20 76//76
f 29//29 47//47 63//63
f 57//57 3//3 76//76
f 53//53 20//20 1//1
f 34//34 33//33 54//54
f 40//40 64//64 76//76
f 65//65 64//64 24//24
f 44//44 46//46 45//45
f 27//27 32//32 26//26
f 67//67 11//11 45//45
f 48//48 29//29 3//3
f 61//61 59//59 32//32
f 27//27 17//17 16//16
f 76//76 13//13 38//38
f 46//46 57//57 31//31
f 54//54 55//55 23//23
f 45//45 46//46 8//8
f 76//76 64//64 57//57
f 55//55 42//42 10//10
f 70//70 24//24 51//51
f 17//17 26//26 59//59
f 11//11 42//42 41//41
f 33//33 50//50 49//49
f 76//76 20//20 13//13
f 62//62 35//35 69//69
f 4//4 21//21 53//53
f 4//4 68//68 5//5
f 38//38 13//13 25//25
f 43//43 44//44 41//41
f 48//48 47//47 29//29
f 31//31 64//64 66//66
f 47//47 50//50 62//62
f 6//6 19//19 18//18
f 24//24 64//64 40//40
f 44//44 75//75 49//49
f 33//33 49//49 75//75
f 48//48 57//57 46//46
f 39//39 5//5 68//68
f 45//45 11//11 41//41
f 10//10 60//60 55//55
f 38//38 40//40 76//76
f 63//63 72//72 29//29
f 43//43 56//56 73//73
f 24//24 23//23 65//65
f 54//54 33//33 74//74
f 35//35 77//77 69//69
f 34//34 69//69 77//77
f 55//55 54//54 56//56
f 58//58 9//9 31//31
f 56//56 43//43 42//42
f 69//69 63//63 62//62
f 40//40 52//52 51//51
f 59//59 60//60 17//17
f 77//77 35//35 34//34
f 44//44 43//43 75//75
f 73//73 75//75 43//43
f 51//51 71//71 69//69
f 46//46 44//44 48//48
f 58//58 36//36 37//37
f 49//49 48//48 44//44
f 26//26 32//32 59//59
f 62//62 33//33 35//35
f 68//68 4//4 53//53
f 1//1 2//2 3//3
f 4//4 5//5 6//6
f 7//7 8//8 9//9
f 7//7 10//10 11//11
f 12//12 13//13 14//14
f 15//15 16//16 17//17
f 18//18 19//19 12//12
f 14//14 20//20 21//21
f 22//22 23//23 24//24
f 20//20 14//14 13//13
f 19//19 5//5 25//25
f 26//26 17//17 27//27
f 28//28 3//3 29//29
f 30//30 31//31 32//32
f 33//33 34//34 35//35
f 36//36 16//16 37//37
f 38//38 39//39 40//40
f 41//41 42//42 43//43
f 41//41 44//44 45//45
f 31//31 8//8 46//46
f 47//47 48//48 49//49
f 50//50 47//47 49//49
f 1//1 28//28 51//51
f 1//1 52//52 53//53
f 23//23 22//22 54//54
f 55//55 56//56 42//42
f 57//57 48//48 3//3
f 58//58 37//37 9//9
f 59//59 55//55 60//60
f 59//59 23//23 55//55
f 23//23 59//59 61//61
f 47//47 62//62 63//63
f 30//30 27//27 36//36
f 64//64 65//65 66//66
f 7//7 67//67 8//8
f 53//53 52//52 68//68
f 69//69 70//70 51//51
f 69//69 71//71 72//72
f 25//25 5//5 39//39
f 25//25 39//39 38//38
f 56//56 54//54 73//73
f 15//15 10//10 7//7
f 74//74 75//75 73//73
f 29//29 72//72 28//28
f 72//72 71//71 28//28
f 71//71 51//51 28//28
f 6//6 5//5 19//19
f 21//21 4//4 6//6
f 40//40 39//39 52//52
f 54//54 74//74 73//73
f 65//65 23//23 61//61
f 24//24 70//70 22//22
f 28//28 1//1 3//3
f 25//25 13//13 12//12
f 14//14 6//6 18//18
f 8//8 31//31 9//9
f 21//21 6//6 14//14
f 31//31 57//57 64//64
f 12//12 14//14 18//18
f 10//10 15//15 60//60
f 24//24 40//40 51//51
f 62//62 50//50 33//33
f 69//69 34//34 70//70
f 22//22 70//70 54//54
f 2//2 76//76 3//3
f 54//54 70//70 34//34
f 58//58 30//30 36//36
f 16//16 36//36 27//27
f 37//37 15//15 7//7
f 16//16 15//15 37//37
f 52//52 39//39 68//68
f 19//19 25//25 12//12
f 58//58 31//31 30//30
f 66//66 32//32 31//31
f 42//42 11//11 10//10
f 21//21 20//20 53//53
f 75//75 74//74 33//33
f 67//67 45//45 8//8
f 32//32 66//66 61//61
f 27//27 30//30 32//32
f 9//9 37//37 7//7
f 65//65 61//61 66//66
f 2//2 1//1 20//20
f 52//52 1//1 51//51
f 15//15 17//17 60//60
f 72//72 63//63 69//69
f 11//11 67//67 7//7
f 2//2 20//20 76//76
f 29//29 47//47 63//63
f 57//57 3//3 76//76
f 53//53 20//20 1//1
f 34//34 33//33 54//54
f 40//40 64//64 76//76
f 65//65 64//64 24//24
f 44//44 46//46 45//45
f 27//27 32//32 26//26
f 67//67 11//11 45//45
f 48//48 29//29 3//3
f 61//61 59//59 32//32
f 27//27 17//17 16//16
f 76//76 13//13 38//38
f 46//46 57//57 31//31
f 54//54 55//55 23//23
f 45//45 46//46 8//8
f 76//76 64//64 57//57
f 55//55 42//42 10//10
f 70//70 24//24 51//51
f 17//17 26//26 59//59
f 11//11 42//42 41//41
f 33//33 50//50 49//49
f 76//76 20//20 13//13
f 62//62 35//35 69//69
f 4//4 21//21 53//53
f 4//4 68//68 5//5
f 38//38 13//13 25//25
f 43//43 44//44 41//41
f 48//48 47//47 29//29
f 31//31 64//64 66//66
f 47//47 50//50 62//62
f 6//6 19//19 18//18
f 24//24 64//64 40//40
f 44//44 75//75 49//49
f 33//33 49//49 75//75
f 48//48 57//57 46//46
f 39//39 5//5 68//68
f 45//45 11//11 41//41
f 10//10 60//60 55//55
f 38//38 40//40 76//76
f 63//63 72//72 29//29
f 43//43 56//56 73//73
f 24//24 23//23 65//65
f 54//54 33//33 74//74
f 35//35 77//77 69//69
f 34//34 69//69 77//77
f 55//55 54//54 56//56
f 58//58 9//9 31//31
f 56//56 43//43 42//42
f 69//69 63//63 62//62
f 40//40 52//52 51//51
f 59//59 60//60 17//17
f 77//77 35//35 34//34
f 44//44 43//43 75//75
f 73//73 75//75 43//43
f 51//51 71//71 69//69
f 46//46 44//44 48//48
f 58//58 36//36 37//37
f 49//49 48//48 44//44
f 26//26 32//32 59//59
f 62//62 33//33 35//35
f 68//68 4//4 53//53
f 1//1 2//2 3//3
f 4//4 5//5 6//6
f 7//7 8//8 9//9
f 7//7 10//10 11//11
f 12//12 13//13 14//14
f 15//15 16//16 17//17
f 18//18 19//19 12//12
f 14//14 20//20 21//21
f 22//22 23//23 24//24
f 20//20 14//14 13//13
f 19//19 5//5 25//25
f 26//26 17//17 27//27
f 28//28 3//3 29//29
f 30//30 31//31 32//32
f 33//33 34//34 35//35
f 36//36 16//16 37//37
f 38//38 39//39 40//40
f 41//41 42//42 43//43
f 41//41 44//44 45//45
f 31//31 8//8 46//46
f 47//47 48//48 49//49
f 50//50 47//47 49//49
f 1//1 28//28 51//51
f 1//1 52//52 53//53
f 23//23 22//22 54//54
f 55//55 56//56 42//42
f 57//57 48//48 3//3
f 58//58 37//37 9//9
f 59//59 55//55 60//60
f 59//59 23//23 55//55
f 23//23 59//59 61//61
f 47//47 62//62 63//63
f 30//30 27//27 36//36
f 64//64 65//65 66//66
f 7//7 67//67 8//8
f 53//53 52//52 68//68
f 69//69 70//70 51//51
f 69//69 71//71 72//72
f 25//25 5//5 39//39
f 25//25 39//39 38//38
f 56//56 54//54 73//73
f 15//15 10//10 7//7
f 74//74 75//75 73//73
f 29//29 72//72 28//28
f 72//72 71//71 28//28
f 71//71 51//51 28//28
f 6//6 5//5 19//19
f 21//21 4//4 6//6
f 40//40 39//39 52//52
f 54//54 74//74 73//73
f 65//65 23//23 61//61
f 24//24 70//70 22//22
f 28//28 1//1 3//3
f 25//25 13//13 12//12
f 14//14 6//6 18//18
f 8//8 31//31 9//9
f 21//21 6//6 14//14
f 31//31 57//57 64//64
f 12//12 14//14 18//18
f 10//10 15//15 60//60
f 24//24 40//40 51//51
f 62//62 50//50 33//33
f 69//69 34//34 70//70
f 22//22 70//70 54//54
f 2//2 76//76 3//3
f 54//54 70//70 34//34
f 58//58 30//30 36//36
f 16//16 36//36 27//27
f 37//37 15//15 7//7
f 16//16 15//15 37//37
f 52//52 39//39 68//68
f 19//19 25//25 12//12
f 58//58 31//31 30//30
f 66//66 32//32 31//31
f 42//42 11//11 10//10
f 21//21 20//20 53//53
f 75//75 74//74 33//33
f 67//67 45//45 8//8
f 32//32 66//66 61//61
f 27//27 30//30 32//32
f 9//9 37//37 7//7
f 65//65 61//61 66//66
f 2//2 1//1 20//20
f 52//52 1//1 51//51
f 15//15 17//17 60//60
f 72//72 63//63 69//69
f 11//11 67//67 7//7
f 2//2 20//20 76//76
f 29//29 47//47 63//63
f 57//57 3//3 76//76
f 53//53 20//20 1//1
f 34//34 33//33 54//54
f 40//40 64//64 76//76
f 65//65 64//64 24//24
f 44//44 46//46 45//45
f 27//27 32//32 26//26
f 67//67 11//11 45//45
f 48//48 29//29 3//3
f 61//61 59//59 32//32
f 27//27 17//17 16//16
f 76//76 13//13 38//38
f 46//46 57//57 31//31
f 54//54 55//55 23//23
f 45//45 46//46 8//8
f 76//76 64//64 57//57
f 55//55 42//42 10//10
f 70//70 24//24 51//51
f 17//17 26//26 59//59
f 11//11 42//42 41//41
f 33//33 50//50 49//49
f 76//76 20//20 13//13
f 62//62 35//35 69//69
f 4//4 21//21 53//53
f 4//4 68//68 5//5
f 38//38 13//13 25//25
f 43//43 44//44 41//41
f 48//48 47//47 29//29
f 31//31 64//64 66//66
f 47//47 50//50 62//62
f 6//6 19//19 18//18
f 24//24 64//64 40//40
f 44//44 75//75 49//49
f 33//33 49//49 75//75
f 48//48 57//57 46//46
f 39//39 5//5 68//68
f 45//45 11//11 41//41
f 10//10 60//60 55//55
f 38//38 40//40 76//76
f 63//63 72//72 29//29
f 43//43 56//56 73//73
f 24//24 23//23 65//65
f 54//54 33//33 74//74
f 35//35 77//77 69//69
f 34//34 69//69 77//77
f 55//55 54//54 56//56
f 58//58 9//9 31//31
f 56//56 43//43 42//42
f 69//69 63//63 62//62
f 40//40 52//52 51//51
f 59//59 60//60 17//17
f 77//77 35//35 34//34
f 44//44 43//43 75//75
f 73//73 75//75 43//43
f 51//51 71//71 69//69
f 46//46 44//44 48//48
f 58//58 36//36 37//37
f 49//49 48//48 44//44
f 26//26 32//32 59//59
f 62//62 33//33 35//35
f 68//68 4//4 53//53
f 1//1 2//2 3//3
f 4//4 5//5 6//6
f 7//7 8//8 9//9
f 7//7 10//10 11//11
f 12//12 13//13 14//14
f 15//15 16//16 17//17
f 18//18 19//19 12//12
f 14//14 20//20 21//21
f 22//22 23//23 24//24
f 20//20 14//14 13//13
f 19//19 5//5 25//25
f 26//26 17//17 27//27
f 28//28 3//3 29//29
f 30//30 31//31 32//32
f 33//33 34//34 35//35
f 36//36 16//16 37//37
f 38//38 39//39 40//40
f 41//41 42//42 43//43
f 41//41 44//44 45//45
f 31//31 8//8 46//46
f 47//47 48//48 49//49
f 50//50 47//47 49//49
f 1//1 28//28 51//51
f 1//1 52//52 53//53
f 23//23 22//22 54//54
f 55//55 56//56 42//42
f 57//57 48//48 3//3
f 58//58 37//37 9//9
f 59//59 55//55 60//60
f 59//59 23//23 55//55
f 23//23 59//59 61//61
f 47//47 62//62 63//63
f 30//30 27//27 36//36
f 64//64 65//65 66//66
f 7//7 67//67 8//8
f 53//53 52//52 68//68
f 69//69 70//70 51//51
f 69//69 71//71 72//72
f 25//25 5//5 39//39
f 25//25 39//39 38//38
f 56//56 54//54 73//73
f 15//15 10//10 7//7
f 74//74 75//75 73//73
f 29//29 72//72 28//28
f 72//72 71//71 28//28
f 71//71 51//51 28//28
f 6//6 5//5 19//19
f 21//21 4//4 6//6
f 40//40 39//39 52//52
f 54//54 74//74 73//73
f 65//65 23//23 61//61
f 24//24 70//70 22//22
f 28//28 1//1 3//3
f 25//25 13//13 12//12
f 14//14 6//6 18//18
f 8//8 31//31 9//9
f 21//21 6//6 14//14
f 31//31 57//57 64//64
f 12//12 14//14 18//18
f 10//10 15//15 60//60
f 24//24 40//40 51//51
f 62//62 50//50 33//33
f 69//69 34//34 70//70
f 22//22 70//70 54//54
f 2//2 76//76 3//3
f 54//54 70//70 34//34
f 58//58 30//30 36//36
f 16//16 36//36 27//27
f 37//37 15//15 7//7
f 16//16 15//15 37//37
f 52//52 39//39 68//68
f 19//19 25//25 12//12
f 58//58 31//31 30//30
f 66//66 32//32 31//31
f 42//42 11//11 10//10
f 21//21 20//20 53//53
f 75//75 74//74 33//33
f 67//67 45//45 8//8
f 32//32 66//66 61//61
f 27//27 30//30 32//32
f 9//9 37//37 7//7
f 65//65 61//61 66//66
f 2//2 1//1 20//20
f 52//52 1//1 51//51
f 15//15 17//17 60//60
f 72//72 63//63 69//69
f 11//11 67//67 7//7
f 2//2 20//20 76//76
f 29//29 47//47 63//63
f 57//57 3//3 76//76
f 53//53 20//20 1//1
f 34//34 33//33 54//54
f 40//40 64//64 76//76
f 65//65 64//64 24//24
f 44//44 46//46 45//45
f 27//27 32//32 26//26
f 67//67 11//11 45//45
f 48//48 29//29 3//3
f 61//61 59//59 32//32
f 27//27 17//17 16//16
f 76//76 13//13 38//38
f 46//46 57//57 31//31
f 54//54 55//55 23//23
f 45//45 46//46 8//8
f 76//76 64//64 57//57
f 55//55 42//42 10//10
f 70//70 24//24 51//51
f 17//17 26//26 59//59
f 11//11 42//42 41//41
f 33//33 50//50 49//49
f 76//76 20//20 13//13
f 62//62 35//35 69//69
f 4//4 21//21 53//53
f 4//4 68//68 5//5
f 38//38 13//13 25//25
f 43//43 44//44 41//41
f 48//48 47//47 29//29
f 31//31 64//64 66//66
f 47//47 50//50 62//62
f 6//6 19//19 18//18
f 24//24 64//64 40//40
f 44//44 75//75 49//49
f 33//33 49//49 75//75
f 48//48 57//57 46//46
f 39//39 5//5 68//68
f 45//45 11//11 41//41
f 10//10 60//60 55//55
f 38//38 40//40 76//76
f 63//63 72//72 29//29
f 43//43 56//56 73//73
f 24//24 23//23 65//65
f 54//54 33//33 74//74
f 35//35 77//77 69//69
f 34//34 69//69 77//77
f 55//55 54//54 56//56
f 58//58 9//9 31//31
f 56//56 43//43 42//42
f 69//69 63//63 62//62
f 40//40 52//52 51//51
f 59//59 60//60 17//17
f 77//77 35//35 34//34
f 44//44 43//43 75//75
f 73//73 75//75 43//43
f 51//51 71//71 69//69
f 46//46 44//44 48//48
f 58//58 36//36 37//37
f 49//49 48//48 44//44
f 26//26 32//32 59//59
f 62//62 33//33 35//35
f 68//68 4//4 53//53
f 1//1 2//2 3//3
f 4//4 5//5 6//6
f 7//7 8//8 9//9
f 7//7 10//10 11//11
f 12//12 13//13 14//14
f 15//15 16//16 17//17
f 18//18 19//19 12//12
f 14//14 20//20 21//21
f 22//22 23//23 24//24
f 20//20 14//14 13//13
f 19//19 5//5 25//25
f 26//26 17//17 27//27
f 28//28 3//3 29//29
f 30//30 31//31 32//32
f 33//33 34//34 35//35
f 36//36 16//16 37//37
f 38//38 39//39 40//40
f 41//41 42//42 43//43
f 41//41 44//44 45//45
f 31//31 8//8 46//46
f 47//47 48//48 49//49
f 50//50 47//47 49//49
f 1//1 28//28 51//51
f 1//1 52//52 53//53
f 23//23 22//22 54//54
f 55//55 56//56 42//42
f 57//57 48//48 3//3
f 58//58 37//37 9//9
f 59//59 55//55 60//60
f 59//59 23//23 55//55
f 23//23 59//59 61//61
f 47//47 62//62 63//63
f 30//30 27//27 36//36
f 64//64 65//65 66//66
f 7//7 67//67 8//8
f 53//53 52//52 68//68
f 69//69 70//70 51//51
f 69//69 71//71 72//72
f 25//25 5//5 39//39
f 25//25 39//39 38//38
f 56//56 54//54 73//73
f 15//15 10//10 7//7
f 74//74 75//75 73//73
f 29//29 72//72 28//28
f 72//72 71//71 28//28
f 71//71 51//51 28//28
f 6//6 5//5 19//19
f 21//21 4//4 6//6
f 40//40 39//39 52//52
f 54//54 74//74 73//73
f 65//65 23//23 61//61
f 24//24 70//70 22//22
f 28//28 1//1 3//3
f 25//25 13//13 12//12
f 14//14 6//6 18//18
f 8//8 31//31 9//9
f 21//21 6//6 14//14
f 31//31 57//57 64//64
f 12//12 14//14 18//18
f 10//10 15//15 60//60
f 24//24 40//40 51//51
f 62//62 50//50 33//33
f 69//69 34//34 70//70
f 22//22 70//70 54//54
f 2//2 76//76 3//3
f 54//54 70//70 34//34
f 58//58 30//30 36//36
f 16//16 36//36 27//27
f 37//37 15//15 7//7
f 16//16 15//15 37//37
f 52//52 39//39 68//68
f 19//19 25//25 12//12
f 58//58 31//31 30//30
f 66//66 32//32 31//31
f 42//42 11//11 10//10
f 21//21 20//20 53//53
f 75//75 74//74 33//33
f 67//67 45//45 8//8
f 32//32 66//66 61//61
f 27//27 30//30 32//32
f 9//9 37//37 7//7
f 65//65 61//61 66//66
f 2//2 1//1 20//20
f 52//52 1//1 51//51
f 15//15 17//17 60//60
f 72//72 63//63 69//69
f 11//11 67//67 7//7
f 2//2 20//20 76//76
f 29//29 47//47 63//63
f 57//57 3//3 76//76
f 53//53 20//20 1//1
f 34//34 33//33 54//54
f 40//40 64//64 76//76
f 65//65 64//64 24//24
f 44//44 46//46 45//45
f 27//27 32//32 26//26
f 67//67 11//11 45//45
f 48//48 29//29 3//3
f 61//61 59//59 32//32
f 27//27 17//17 16//16
f 76//76 13//13 38//38
f 46//46 57//57 31//31
f 54//54 55//55 23//23
f 45//45 46//46 8//8
f 76//76 64//64 57//57
f 55//55 42//42 10//10
f 70//70 24//24 51//51
f 17//17 26//26 59//59
f 11//11 42//42 41//41
f 33//33 50//50 49//49
f 76//76 20//20 13//13
f 62//62 35//35 69//69
f 4//4 21//21 53//53
f 4//4 68//68 5//5
f 38//38 13//13 25//25
f 43//43 44//44 41//41
f 48//48 47//47 29//29
f 31//31 64//64 66//66
f 47//47 50//50 62//62
f 6//6 19//19 18//18
f 24//24 64//64 40//40
f 44//44 75//75 49//49
f 33//33 49//49 75//75
f 48//48 57//57 46//46
f 39//39 5//5 68//68
f 45//45 11//11 41//41
f 10//10 60//60 55//55
f 38//38 40//40 76//76
f 63//63 72//72 29//29
f 43//43 56//56 73//73
f 24//24 23//23 65//65
f 54//54 33//33 74//74
f 35//35 77//77 69//69
f 34//34 69//69 77//77
f 55//55 54//54 56//56
f 58//58 9//9 31//31
f 56//56 43//43 42//42
f 69//69 63//63 62//62
f 40//40 52//52 51//51
f 59//59 60//60 17//17
f 77//77 35//35 34//34
f 44//44 43//43 75//75
f 73//73 75//75 43//43
f 51//51 71//71 69//69
f 46//46 44//44 48//48
f 58//58 36//36 37//37
f 49//49 48//48 44//44
f 26//26 32//32 59//59
f 62//62 33//33 35//35
f 68//68 4//4 53//53
f 1//1 2//2 3//3
f 4//4 5//5 6//6
f 7//7 8//8 9//9
f 7//7 10//10 11//11
f 12//12 13//13 14//14
f 15//15 16//16 17//17
f 18//18 19//19 12//12
f 14//14 20//20 21//21
f 22//22 23//23 24//24
f 20//20 14//14 13//13
f 19//19 5//5 25//25
f 26//26 17//17 27//27
f 28//28 3//3 29//29
f 30//30 31//31 32//32
f 33//33 34//34 35//35
f 36//36 16//16 37//37
f 38//38 39//39 40//40
f 41//41 42//42 43//43
f 41//41 44//44 45//45
f 31//31 8//8 46//46
f 47//47 48//48 49//49
f 50//50 47//47 49//49
f 1//1 28//28 51//51
f 1//1 52//52 53//53
f 23//23 22//22 54//54
f 55//55 56//56 42//42
f 57//57 48//48 3//3
f 58//58 37//37 9//9
f 59//59 55//55 60//60
f 59//59 23//23 55//55
f 23//23 59//59 61//61
f 47//47 62//62 63//63
f 30//30 27//27 36//36
f 64//64 65//65 66//66
f 7//7 67//67 8//8
f 53//53 52//52 68//68
f 69//69 70//70 51//51
f 69//69 71//71 72//72
f 25//25 5//5 39//39
f 25//25 39//39 38//38
f 56//56 54//54 73//73
f 15//15 10//10 7//7
f 74//74 75//75 73//73
f 29//29 72//72 28//28
f 72//72 71//71 28//28
f 71//71 51//51 28//28
f 6//6 5//5 19//19
f 21//21 4//4 6//6
f 40//40 39//39 52//52
f 54//54 74//74 73//73
f 65//65 23//23 61//61
f 24//24 70//70 22//22
f 28//28 1//1 3//3
f 25//25 13//13 12//12
f 14//14 6//6 18//18
f 8//8 31//31 9//9
f 21//21 6//6 14//14
f 31//31 57//57 64//64
f 12//12 14//14 18//18
f 10//10 15//15 60//60
f 24//24 40//40 51//51
f 62//62 50//50 33//33
f 69//69 34//34 70//70
f 22//22 70//70 54//54
f 2//2 76//76 3//3
f 54//54 70//70 34//34
f 58//58 30//30 36//36
f 16//16 36//36 27//27
f 37//37 15//15 7//7
f 16//16 15//15 37//37
f 52//52 39//39 68//68
f 19//19 25//25 12//12
f 58//58 31//31 30//30
f 66//66 32//32 31//31
f 42//42 11//11 10//10
f 21//21 20//20 53//53
f 75//75 74//74 33//33
f 67//67 45//45 8//8
f 32//32 66//66 61//61
f 27//27 30//30 32//32
f 9//9 37//37 7//7
f 65//65 61//61 66//66
f 2//2 1//1 20//20
f 52//52 1//1 51//51
f 15//15 17//17 60//60
f 72//72 63//63 69//69
f 11//11 67//67 7//7
f 2//2 20//20 76//76
f 29//29 47//47 63//63
f 57//57 3//3 76//76
f 53//53 20//20 1//1
f 34//34 33//33 54//54
f 40//40 64//64 76//76
f 65//65 64//64 24//24
f 44//44 46//46 45//45
f 27//27 32//32 26//26
f 67//67 11//11 45//45
f 48//48 29//29 3//3
f 61//61 59//59 32//32
f 27//27 17//17 16//16
f 76//76 13//13 38//38
f 46//46 57//57 31//31
f 54//54 55//55 23//23
f 45//45 46//46 8//8
f 76//76 64//64 57//57
f 55//55 42//42 10//10
f 70//70 24//24 51//51
f 17//17 26//26 59//59
f 11//11 42//42 41//41
f 33//33 50//50 49//49
f 76//76 20//20 13//13
f 62//62 35//35 69//69
f 4//4 21//21 53//53
f 4//4 68//68 5//5
f 38//38 13//13 25//25
f 43//43 44//44 41//41
f 48//48 47//47 29//29
f 31//31 64//64 66//66
f 47//47 50//50 62//62
f 6//6 19//19 18//18
f 24//24 64//64 40//40
f 44//44 75//75 49//49
f 33//33 49//49 75//75
f 48//48 57//57 46//46
f 39//39 5//5 68//68
f 45//45 11//11 41//41
f 10//10 60//60 55//55
f 38//38 40//40 76//76
f 63//63 72//72 29//29
f 43//43 56//56 73//73
f 24//24 23//23 65//65
f 54//54 33//33 74//74
f 35//35 77//77 69//69
f 34//34 69//69 77//77
f 55//55 54//54 56//56
f 58//58 9//9 31//31
f 56//56 43//43 42//42
f 69//69 63//63 62//62
f 40//40 52//52 51//51
f 59//59 60//60 17//17
f 77//77 35//35 34//34
f 44//44 43//43 75//75
f 73//73 75//75 43//43
f 51//51 71//71 69//69
f 46//46 44//44 48//48
f 58//58 36//36 37//37
f 49//49 48//48 44//44
f 26//26 32//32 59//59
f 62//62 33//33 35//35
f 68//68 4//4 53//53
f 1//1 2//2 3//3
f 4//4 5//5 6//6
f 7//7 8//8 9//9
f 7//7 10//10 11//11
f 12//12 13//13 14//14
f 15//15 16//16 17//17
f 18//18 19//19 12//12
f 14//14 20//20 21//21
f 22//22 23//23 24//24
f 20//20 14//14 13//13
f 19//19 5//5 25//25
f 26//26 17//17 27//27
f 28//28 3//3 29//29
f 30//30 31//31 32//32
f 33//33 34//34 35//35
f 36//36 16//16 37//37
f 38//38 39//39 40//40
f 41//41 42//42 43//43
f 41//41 44//44 45//45
f 31//31 8//8 46//46
f 47//47 48//48 49//49
f 50//50 47//47 49//49
f 1//1 28//28 51//51
f 1//1 52//52 53//53
f 23//23 22//22 54//54
f 55//55 56//56 42//42
f 57//57 48//48 3//3
f 58//58 37//37 9//9
f 59//59 55//55 60//60
f 59//59 23//23 55//55
f 23//23 59//59 61//61
f 47//47 62//62 63//63
f 30//30 27//27 36//36
f 64//64 65//65 66//66
f 7//7 67//67 8//8
f 53//53 52//52 68//68
f 69//69 70//70 51//51
f 69//69 71//71 72//72
f 25//25 5//5 39//39
f 25//25 39//39 38//38
f 56//56 54//54 73//73
f 15//15 10//10 7//7
f 74//74 75//75 73//73
f 29//29 72//72 28//28
f 72//72 71//71 28//28
f 71//71 51//51 28//28
f 6//6 5//5 19//19
f 21//21 4//4 6//6
f 40//40 39//39 52//52
f 54//54 74//74 73//73
f 65//65 23//23 61//61
f 24//24 70//70 22//22
f 28//28 1//1 3//3
f 25//25 13//13 12//12
f 14//14 6//6 18//18
f 8//8 31//31 9//9
f 21//21 6//6 14//14
f 31//31 57//57 64//64
f 12//12 14//14 18//18
f 10//10 15//15 60//60
f 24//24 40//40 51//51
f 62//62 50//50 33//33
f 69//69 34//34 70//70
f 22//22 70//70 54//54
f 2//2 76//76 3//3
f 54//54 70//70 34//34
f 58//58 30//30 36//36
f 16//16 36//36 27//27
f 37//37 15//15 7//7
f 16//16 15//15 37//37
f 52//52 39//39 68//68
f 19//19 25//25 12//12
f 58//58 31//31 30//30
f 66//66 32//32 31//31
f 42//42 11//11 10//10
f 21//21 20//20 53//53
f 75//75 74//74 33//33
f 67//67 45//45 8//8
f 32//32 66//66 61//61
f 27//27 30//30 32//32
f 9//9 37//37 7//7
f 65//65 61//61 66//66
f 2//2 1//1 20//20
f 52//52 1//1 51//51
f 15//15 17//17 60//60
f 72//72 63//63 69//69
f 11//11 67//67 7//7
f 2//2 20//20 76//76
f 29//29 47//47 63//63
f 57//57 3//3 76//76
f 53//53 20//20 1//1
f 34//34 33//33 54//54
f 40//40 64//64 76//76
f 65//65 64//64 24//24
f 44//44 46//46 45//45
f 27//27 32//32 26//26
f 67//67 11//11 45//45
f 48//48 29//29 3//3
f 61//61 59//59 32//32
f 27//27 17//17 16//16
f 76//76 13//13 38//38
f 46//46 57//57 31//31
f 54//54 55//55 23//23
f 45//45 46//46 8//8
f 76//76 64//64 57//57
f 55//55 42//42 10//10
f 70//70 24//24 51//51
f 17//17 26//26 59//59
f 11//11 42//42 41//41
f 33//33 50//50 49//49
f 76//76 20//20 13//13
f 62//62 35//35 69//69
f 4//4 21//21 53//53
f 4//4 68//68 5//5
f 38//38 13//13 25//25
f 43//43 44//44 41//41
f 48//48 47//47 29//29
f 31//31 64//64 66//66
f 47//47 50//50 62//62
f 6//6 19//19 18//18
f 24//24 64//64 40//40
f 44//44 75//75 49//49
f 33//33 49//49 75//75
f 48//48 57//57 46//46
f 39//39 5//5 68//68
f 45//45 11//11 41//41
f 10//10 60//60 55//55
f 38//38 40//40 76//76
f 63//63 72//72 29//29
f 43//43 56//56 73//73
f 24//24 23//23 65//65
f 54//54 33//33 74//74
f 35//35 77//77 69//69
f 34//34 69//69 77//77
f 55//55 54//54 56//56
f 58//58 9//9 31//31
f 56//56 43//43 42//42
f 69//69 63//63 62//62
f 40//40 52//52 51//51
f 59//59 60//60 17//17
f 77//77 35//35 34//34
f 44//44 43//43 75//75
f 73//73 75//75 43//43
f 51//51 71//71 69//69
f 46//46 44//44 48//48
f 58//58 36//36 37//37
f 49//49 48//48 44//44
f 26//26 32//32 59//59
f 62//62 33//33 35//35
f 68//68 4//4 53//53
f 1//1 2//2 3//3
f 4//4 5//5 6//6
f 7//7 8//8 9//9
f 7//7 10//10 11//11
f 12//12 13//13 14//14
f 15//15 16//16 17//17
f 18//18 19//19 12//12
f 14//14 20//20 21//21
f 22//22 23//23 24//24
f 20//20 14//14 13//13
f 19//19 5//5 25//25
f 26//26 17//17 27//27
f 28//28 3//3 29//29
f 30//30 31//31 32//32
f 33//33 34//34 35//35
f 36//36 16//16 37//37
f 38//38 39//39 40//40
f 41//41 42//42 43//43
f 41//41 44//44 45//45
f 31//31 8//8 46//46
f 47//47 48//48 49//49
f 50//50 47//47 49//49
f 1//1 28//28 51//51
f 1//1 52//52 53//53
f 23//23 22//22 54//54
f 55//55 56//56 42//42
f 57//57 48//48 3//3
f 58//58 37//37 9//9
f 59//59 55//55 60//60
f 59//59 23//23 55//55
f 23//23 59//59 61//61
f 47//47 62//62 63//63
f 30//30 27//27 36//36
f 64//64 65//65 66//66
f 7//7 67//67 8//8
f 53//53 52//52 68//68
f 69//69 70//70 51//51
f 69//69 71//71 72//72
f 25//25 5//5 39//39
f 25//25 39//39 38//38
f 56//56 54//54 73//73
f 15//15 10//10 7//7
f 74//74 75//75 73//73
f 29//29 72//72 28//28
f 72//72 71//71 28//28
f 71//71 51//51 28//28
f 6//6 5//5 19//19
f 21//21 4//4 6//6
f 40//40 39//39 52//52
f 54//54 74//74 73//73
f 65//65 23//23 61//61
f 24//24 70//70 22//22
f 28//28 1//1 3//3
f 25//25 13//13 12//12
f 14//14 6//6 18//18
f 8//8 31//31 9//9
f 21//21 6//6 14//14
f 31//31 57//57 64//64
f 12//12 14//14 18//18
f 10//10 15//15 60//60
f 24//24 40//40 51//51
f 62//62 50//50 33//33
f 69//69 34//34 70//70
f 22//22 70//70 54//54
f 2//2 76//76 3//3
f 54//54 70//70 34//34
f 58//58 30//30 36//36
f 16//16 36//36 27//27
f 37//37 15//15 7//7
f 16//16 15//15 37//37
f 52//52 39//39 68//68
f 19//19 25//25 12//12
f 58//58 31//31 30//30
f 66//66 32//32 31//31
f 42//42 11//11 10//10
f 21//21 20//20 53//53
f 75//75 74//74 33//33
f 67//67 45//45 8//8
f 32//32 66//66 61//61
f 27//27 30//30 32//32
f 9//9 37//37 7//7
f 65//65 61//61 66//66
f 2//2 1//1 20//20
f 52//52 1//1 51//51
f 15//15 17//17 60//60
f 72//72 63//63 69//69
f 11//11 67//67 7//7
f 2//2 20//20 76//76
f 29//29 47//47 63//63
f 57//57 3//3 76//76
f 53//53 20//20 1//1
f 34//34 33//33 54//54
f 40//40 64//64 76//76
f 65//65 64//64 24//24
f 44//44 46//46 45//45
f 27//27 32//32 26//26
f 67//67 11//11 45//45
f 48//48 29//29 3//3
f 61//61 59//59 32//32
f 27//27 17//17 16//16
f 76//76 13//13 38//38
f 46//46 57//57 31//31
f 54//54 55//55 23//23
f 45//45 46//46 8//8
f 76//76 64//64 57//57
f 55//55 42//42 10//10
f 70//70 24//24 51//51
f 17//17 26//26 59//59
f 11//11 42//42 41//41
f 33//33 50//50 49//49
f 76//76 20//20 13//13
f 62//62 35//35 69//69
f 4//4 21//21 53//53
f 4//4 68//68 5//5
f 38//38 13//13 25//25
f 43//43 44//44 41//41
f 48//48 47//47 29//29
f 31//31 64//64 66//66
f 47//47 50//50 62//62
f 6//6 19//19 18//18
f 24//24 64//64 40//40
f 44//44 75//75 49//49
f 33//33 49//49 75//75
f 48//48 57//57 46//46
f 39//39 5//5 68//68
f 45//45 11//11 41//41
f 10//10 60//60 55//55
f 38//38 40//40 76//76
f 63//63 72//72 29//29
f 43//43 56//56 73//73
f 24//24 23//23 65//65
f 54//54 33//33 74//74
f 35//35 77//77 69//69
f 34//34 69//69 77//77
f 55//55 54//54 56//56
f 58//58 9//9 31//31
f 56//56 43//43 42//42
f 69//69 63//63 62//62
f 40//40 52//52 51//51
f 59//59 60//60 17//17
f 77//77 35//35 34//34
f 44//44 43//43 75//75
f 73//73 75//75 43//43
f 51//51 71//71 69//69
f 46//46 44//44 48//48
f 58//58 36//36 37//37
f 49//49 48//48 44//44
f 26//26 32//32 59//59
f 62//62 33//33 35//35
f 68//68 4//4 53//53
f 1//1 2//2 3//3
f 4//4 5//5 6//6
f 7//7 8//8 9//9
f 7//7 10//10 11//11
f 12//12 13//13 14//14
f 15//15 16//16 17//17
f 18//18 19//19 12//12
f 14//14 20//20 21//21
f 22//22 23//23 24//24
f 20//20 14//14 13//13
f 19//19 5//5 25//25
f 26//26 17//17 27//27
f 28//28 3//3 29//29
f 30//30 31//31 32//32
f 33//33 34//34 35//35
f 36//36 16//16 37//37
f 38//38 39//39 40//40
f 41//41 42//42 43//43
f 41//41 44//44 45//45
f 31//31 8//8 46//46
f 47//47 48//48 49//49
f 50//50 47//47 49//49
f 1//1 28//28 51//51
f 1//1 52//52 53//53
f 23//23 22//22 54//54
f 55//55 56//56 42//42
f 57//57 48//48 3//3
f 58//58 37//37 9//9
f 59//59 55//55 60//60
f 59//59 23//23 55//55
f 23//23 59//59 61//61
f 47//47 62//62 63//63
f 30//30 27//27 36//36
f 64//64 65//65 66//66
f 7//7 67//67 8//8
f 53//53 52//52 68//68
f 69//69 70//70 51//51
f 69//69 71//71 72//72
f 25//25 5//5 39//39
f 25//25 39//39 38//38
f 56//56 54//54 73//73
f 15//15 10//10 7//7
f 74//74 75//75 73//73
f 29//29 72//72 28//28
f 72//72 71//71 28//28
f 71//71 51//51 28//28
f 6//6 5//5 19//19
f 21//21 4//4 6//6
f 40//40 39//39 52//52
f 54//54 74//74 73//73
f 65//65 23//23 61//61
f 24//24 70//70 22//22
f 28//28 1//1 3//3
f 25//25 13//13 12//12
f 14//14 6//6 18//18
f 8//8 31//31 9//9
f 21//21 6//6 14//14
f 31//31 57//57 64//64
f 12//12 14//14 18//18
f 10//10 15//15 60//60
f 24//24 40//40 51//51
f 62//62 50//50 33//33
f 69//69 34//34 70//70
f 22//22 70//70 54//54
f 2//2 76//76 3//3
f 54//54 70//70 34//34
f 58//58 30//30 36//36
f 16//16 36//36 27//27
f 37//37 15//15 7//7
f 16//16 15//15 37//37
f 52//52 39//39 68//68
f 19//19 25//25 12//12
f 58//58 31//31 30//30
f 66//66 32//32 31//31
f 42//42 11//11 10//10
f 21//21 20//20 53//53
f 75//75 74//74 33//33
f 67//67 45//45 8//8
f 32//32 66//66 61//61
f 27//27 30//30 32//32
f 9//9 37//37 7//7
f 65//65 61//61 66//66
f 2//2 1//1 20//20
f 52//52 1//1 51//51
f 15//15 17//17 60//60
f 72//72 63//63 69//69
f 11//11 67//67 7//7
f 2//2 20//20 76//76
f 29//29 47//47 63//63
f 57//57 3//3 76//76
f 53//53 20//20 1//1
f 34//34 33//33 54//54
f 40//40 64//64 76//76
f 65//65 64//64 24//24
f 44//44 46//46 45//45
f 27//27 32//32 26//26
f 67//67 11//11 45//45
f 48//48 29//29 3//3
f 61//61 59//59 32//32
f 27//27 17//17 16//16
f 76//76 13//13 38//38
f 46//46 57//57 31//31
f 54//54 55//55 23//23
f 45//45 46//46 8//8
f 76//76 64//64 57//57
f 55//55 42//42 10//10
f 70//70 24//24 51//51
f 17//17 26//26 59//59
f 11//11 42//42 41//41
f 33//33 50//50 49//49
f 76//76 20//20 13//13
f 62//62 35//35 69//69
f 4//4 21//21 53//53
f 4//4 68//68 5//5
f 38//38 13//13 25//25
f 43//43 44//44 41//41
f 48//48 47//47 29//29
f 31//31 64//64 66//66
f 47//47 50//50 62//62
f 6//6 19//19 18//18
f 24//24 64//64 40//40
f 44//44 75//75 49//49
f 33//33 49//49 75//75
f 48//48 57//57 46//46
f 39//39 5//5 68//68
f 45//45 11//11 41//41
f 10//10 60//60 55//55
f 38//38 40//40 76//76
f 63//63 72//72 29//29
f 43//43 56//56 73//73
f 24//24 23//23 65//65
f 54//54 33//33 74//74
f 35//35 77//77 69//69
f 34//34 69//69 77//77
f 55//55 54//54 56//56
f 58//58 9//9 31//31
f 56//56 43//43 42//42
f 69//69 63//63 62//62
f 40//40 52//52 51//51
f 59//59 60//60 17//17
f 77//77 35//35 34//34
f 44//44 43//43 75//75
f 73//73 75//75 43//43
f 51//51 71//71 69//69
f 46//46 44//44 48//48
f 58//58 36//36 37//37
f 49//49 48//48 44//44
f 26//26 32//32 59//59
f 62//62 33//33 35//35
f 68//68 4//4 53//53
f 1//1 2//2 3//3
f 4//4 5//5 6//6
f 7//7 8//8 9//9
f 7//7 10//10 11//11
f 12//12 13//13 14//14
f 15//15 16//16 17//17
f 18//18 19//19 12//12
f 14//14 20//20 21//21
f 22//22 23//23 24//24
f 20//20 14//14 13//13
f 19//19 5//5 25//25
f 26//26 17//17 27//27
f 28//28 3//3 29//29
f 30//30 31//31 32//32
f 33//33 34//34 35//35
f 36//36 16//16 37//37
f 38//38 39//39 40//40
f 41//41 42//42 43//43
f 41//41 44//44 45//45
f 31//31 8//8 46//46
f 47//47 48//48 49//49
f 50//50 47//47 49//49
f 1//1 28//28 51//51
f 1//1 52//52 53//53
f 23//23 22//22 54//54
f 55//55 56//56 42//42
f 57//57 48//48 3//3
f 58//58 37//37 9//9
f 59//59 55//55 60//60
f 59//59 23//23 55//55
f 23//23 59//59 61//61
f 47//47 62//62 63//63
f 30//30 27//27 36//36
f 64//64 65//65 66//66
f 7//7 67//67 8//8
f 53//53 52//52 68//68
f 69//69 70//70 51//51
f 69//69 71//71 72//72
f 25//25 5//5 39//39
f 25//25 39//39 38//38
f 56//56 54//54 73//73
f 15//15 10//10 7//7
f 74//74 75//75 73//73
f 29//29 72//72 28//28
f 72//72 71//71 28//28
f 71//71 51//51 28//28
f 6//6 5//5 19//19
f 21//21 4//4 6//6
f 40//40 39//39 52//52
f 54//54 74//74 73//73
f 65//65 23//23 61//61
f 24//24 70//70 22//22
f 28//28 1//1 3//3
f 25//25 13//13 12//12
f 14//14 6//6 18//18
f 8//8 31//31 9//9
f 21//21 6//6 14//14
f 31//31 57//57 64//64
f 12//12 14//14 18//18
f 10//10 15//15 60//60
f 24//24 40//40 51//51
f 62//62 50//50 33//33
f 69//69 34//34 70//70
f 22//22 70//70 54//54
f 2//2 76//76 3//3
f 54//54 70//70 34//34
f 58//58 30//30 36//36
f 16//16 36//36 27//27
f 37//37 15//15 7//7
f 16//16 15//15 37//37
f 52//52 39//39 68//68
f 19//19 25//25 12//12
f 58//58 31//31 30//30
f 66//66 32//32 31//31
f 42//42 11//11 10//10
f 21//21 20//20 53//53
f 75//75 74//74 33//33
f 67//67 45//45 8//8
f 32//32 66//66 61//61
f 27//27 30//30 32//32
f 9//9 37//37 7//7
f 65//65 61//61 66//66
f 2//2 1//1 20//20
f 52//52 1//1 51//51
f 15//15 17//17 60//60
f 72//72 63//63 69//69
f 11//11 67//67 7//7
f 2//2 20//20 76//76
f 29//29 47//47 63//63
f 57//57 3//3 76//76
f 53//53 20//20 1//1
f 34//34 33//33 54//54
f 40//40 64//64 76//76
f 65//65 64//64 24//24
f 44//44 46//46 45//45
f 27//27 32//32 26//26
f 67//67 11//11 45//45
f 48//48 29//29 3//3
f 61//61 59//59 32//32
f 27//27 17//17 16//16
f 76//76 13//13 38//38
f 46//46 57//57 31//31
f 54//54 55//55 23//23
f 45//45 46//46 8//8
f 76//76 64//64 57//57
f 55//55 42//42 10//10
f 70//70 24//24 51//51
f 17//17 26//26 59//59
f 11//11 42//42 41//41
f 33//33 50//50 49//49
f 76//76 20//20 13//13
f 62//62 35//35 69//69
f 4//4 21//21 53//53
f 4//4 68//68 5//5
f 38//38 13//13 25//25
f 43//43 44//44 41//41
f 48//48 47//47 29//29
f 31//31 64//64 66//66
f 47//47 50//50 62//62
f 6//6 19//19 18//18
f 24//24 64//64 40//40
f 44//44 75//75 49//49
f 33//33 49//49 75//75
f 48//48 57//57 46//46
f 39//39 5//5 68//68
f 45//45 11//11 41//41
f 10//10 60//60 55//55
f 38//38 40//40 76//76
f 63//63 72//72 29//29
f 43//43 56//56 73//73
f 24//24 23//23 65//65
f 54//54 33//33 74//74
f 35//35 77//77 69//69
f 34//34 69//69 77//77
f 55//55 54//54 56//56
f 58//58 9//9 31//31
f 56//56 43//43 42//42
f 69//69 63//63 62//62
f 40//40 52//52 51//51
f 59//59 60//60 17//17
f 77//77 35//35 34//34
f 44//44 43//43 75//75
f 73//73 75//75 43//43
f 51//51 71//71 69//69
f 46//46 44//44 48//48
f 58//58 36//36 37//37
f 49//49 48//48 44//44
f 26//26 32//32 59//59
f 62//62 33//33 35//35
f 68//68 4//4 53//53
f 1//1 2//2 3//3
f 4//4 5//5 6//6
f 7//7 8//8 9//9
f 7//7 10//10 11//11
f 12//12 13//13 14//14
f 15//15 16//16 17//17
f 18//18 19//19 12//12
f 14//14 20//20 21//21
f 22//22 23//23 24//24
f 20//20 14//14 13//13
f 19//19 5//5 25//25
f 26//26 17//17 27//27
f 28//28 3//3 29//29
f 30//30 31//31 32//32
f 33//33 34//34 35//35
f 36//36 16//16 37//37
f 38//38 39//39 40//40
f 41//41 42//42 43//43
f 41//41 44//44 45//45
f 31//31 8//8 46//46
f 47//47 48//48 49//49
f 50//50 47//47 49//49
f 1//1 28//28 51//51
f 1//1 52//52 53//53
f 23//23 22//22 54//54
f 55//55 56//56 42//42
f 57//57 48//48 3//3
f 58//58 37//37 9//9
f 59//59 55//55 60//60
f 59//59 23//23 55//55
f 23//23 59//59 61//61
f 47//47 62//62 63//63
f 30//30 27//27 36//36
f 64//64 65//65 66//66
f 7//7 67//67 8//8
f 53//53 52//52 68//68
f 69//69 70//70 51//51
f 69//69 71//71 72//72
f 25//25 5//5 39//39
f 25//25 39//39 38//38
f 56//56 54//54 73//73
f 15//15 10//10 7//7
f 74//74 75//75 73//73
f 29//29 72//72 28//28
f 72//72 71//71 28//28
f 71//71 51//51 28//28
f 6//6 5//5 19//19
f 21//21 4//4 6//6
f 40//40 39//39 52//52
f 54//54 74//74 73//73
f 65//65 23//23 61//61
f 24//24 70//70 22//22
f 28//28 1//1 3//3
f 25//25 13//13 12//12
f 14//14 6//6 18//18
f 8//8 31//31 9//9
f 21//21 6//6 14//14
f 31//31 57//57 64//64
f 12//12 14//14 18//18
f 10//10 15//15 60//60
f 24//24 40//40 51//51
f 62//62 50//50 33//33
f 69//69 34//34 70//70
f 22//22 70//70 54//54
f 2//2 76//76 3//3
f 54//54 70//70 34//34
f 58//58 30//30 36//36
f 16//16 36//36 27//27
f 37//37 15//15 7//7
f 16//16 15//15 37//37
f 52//52 39//39 68//68
f 19//19 25//25 12//12
f 58//58 31//31 30//30
f 66//66 32//32 31//31
f 42//42 11//11 10//10
f 21//21 20//20 53//53
f 75//75 74//74 33//33
f 67//67 45//45 8//8
f 32//32 66//66 61//61
f 27//27 30//30 32//32
f 9//9 37//37 7//7
f 65//65 61//61 66//66
f 2//2 1//1 20//20
f 52//52 1//1 51//51
f 15//15 17//17 60//60
f 72//72 63//63 69//69
f 11//11 67//67 7//7
f 2//2 20//20 76//76
f 29//29 47//47 63//63
f 57//57 3//3 76//76
f 53//53 20//20 1//1
f 34//34 33//33 54//54
f 40//40 64//64 76//76
f 65//65 64//64 24//24
f 44//44 46//46 45//45
f 27//27 32//32 26//26
f 67//67 11//11 45//45
f 48//48 29//29 3//3
f 61//61 59//59 32//32
f 27//27 17//17 16//16
f 76//76 13//13 38//38
f 46//46 57//57 31//31
f 54//54 55//55 23//23
f 45//45 46//46 8//8
f 76//76 64//64 57//57
f 55//55 42//42 10//10
f 70//70 24//24 51//51
f 17//17 26//26 59//59
f 11//11 42//42 41//41
f 33//33 50//50 49//49
f 76//76 20//20 13//13
f 62//62 35//35 69//69
f 4//4 21//21 53//53
f 4//4 68//68 5//5
f 38//38 13//13 25//25
f 43//43 44//44 41//41
f 48//48 47//47 29//29
f 31//31 64//64 66//66
f 47//47 50//50 62//62
f 6//6 19//19 18//18
f 24//24 64//64 40//40
f 44//44 75//75 49//49
f 33//33 49//49 75//75
f 48//48 57//57 46//46
f 39//39 5//5 68//68
f 45//45 11//11 41//41
f 10//10 60//60 55//55
f 38//38 40//40 76//76
f 63//63 72//72 29//29
f 43//43 56//56 73//73
f 24//24 23//23 65//65
f 54//54 33//33 74//74
f 35//35 77//77 69//69
f 34//34 69//69 77//77
f 55//55 54//54 56//56
f 58//58 9//9 31//31
f 56//56 43//43 42//42
f 69//69 63//63 62//62
f 40//40 52//52 51//51
f 59//59 60//60 17//17
f 77//77 35//35 34//34
f 44//44 43//43 75//75
f 73//73 75//75 43//43
f 51//51 71//71 69//69
f 46//46 44//44 48//48
f 58//58 36//36 37//37
f 49//49 48//48 44//44
f 26//26 32//32 59//59
f 62//62 33//33 35//35
f 68//68 4//4 53//53
f 1//1 2//2 3//3
f 4//4 5//5 6//6
f 7//7 8//8 9//9
f 7//7 10//10 11//11
f 12//12 13//13 14//14
f 15//15 16//16 17//17
f 18//18 19//19 12//12
f 14//14 20//20 21//21
f 22//22 23//23 24//24
f 20//20 14//14 13//13
f 19//19 5//5 25//25
f 26//26 17//17 27//27
f 28//28 3//3 29//29
f 30//30 31//31 32//32
f 33//33 34//34 35//35
f 36//36 16//16 37//37
f 38//38 39//39 40//40
f 41//41 42//42 43//43
f 41//41 44//44 45//45
f 31//31 8//8 46//46
f 47//47 48//48 49//49
f 50//50 47//47 49//49
f 1//1 28//28 51//51
f 1//1 52//52 53//53
f 23//23 22//22 54//54
f 55//55 56//56 42//42
f 57//57 48//48 3//3
f 58//58 37//37 9//9
f 59//59 55//55 60//60
f 59//59 23//23 55//55
f 23//23 59//59 61//61
f 47//47 62//62 63//63
f 30//30 27//27 36//36
f 64//64 65//65 66//66
f 7//7 67//67 8//8
f 53//53 52//52 68//68
f 69//69 70//70 51//51
f 69//69 71//71 72//72
f 25//25 5//5 39//39
f 25//25 39//39 38//38
f 56//56 54//54 73//73
f 15//15 10//10 7//7
f 74//74 75//75 73//73
f 29//29 72//72 28//28
f 72//72 71//71 28//28
f 71//71 51//51 28//28
f 6//6 5//5 19//19
f 21//21 4//4 6//6
f 40//40 39//39 52//52
f 54//54 74//74 73//73
f 65//65 23//23 61//61
f 24//24 70//70 22//22
f 28//28 1//1 3//3
f 25//25 13//13 12//12
f 14//14 6//6 18//18
f 8//8 31//31 9//9
f 21//21 6//6 14//14
f 31//31 57//57 64//64
f 12//12 14//14 18//18
f 10//10 15//15 60//60
f 24//24 40//40 51//51
f 62//62 50//50 33//33
f 69//69 34//34 70//70
f 22//22 70//70 54//54
f 2//2 76//76 3//3
f 54//54 70//70 34//34
f 58//58 30//30 36//36
f 16//16 36//36 27//27
f 37//37 15//15 7//7
f 16//16 15//15 37//37
f 52//52 39//39 68//68
f 19//19 25//25 12//12
f 58//58 31//31 30//30
f 66//66 32//32 31//31
f 42//42 11//11 10//10
f 21//21 20//20 53//53
f 75//75 74//74 33//33
f 67//67 45//45 8//8
f 32//32 66//66 61//61
f 27//27 30//30 32//32
f 9//9 37//37 7//7
f 65//65 61//61 66//66
f 2//2 1//1 20//20
f 52//52 1//1 51//51
f 15//15 17//17 60//60
f 72//72 63//63 69//69
f 11//11 67//67 7//7
f 2//2 20//20 76//76
f 29//29 47//47 63//63
f 57//57 3//3 76//76
f 53//53 20//20 1//1
f 34//34 33//33 54//54
f 40//40 64//64 76//76
f 65//65 64//64 24//24
f 44//44 46//46 45//45
f 27//27 32//32 26//26
f 67//67 11//11 45//45
f 48//48 29//29 3//3
f 61//61 59//59 32//32
f 27//27 17//17 16//16
f 76//76 13//13 38//38
f 46//46 57//57 31//31
f 54//54 55//55 23//23
f 45//45 46//46 8//8
f 76//76 64//64 57//57
f 55//55 42//42 10//10
f 70//70 24//24 51//51
f 17//17 26//26 59//59
f 11//11 42//42 41//41
f 33//33 50//50 49//49
f 76//76 20//20 13//13
f 62//62 35//35 69//69
f 4//4 21//21 53//53
f 4//4 68//68 5//5
f 38//38 13//13 25//25
f 43//43 44//44 41//41
f 48//48 47//47 29//29
f 31//31 64//64 66//66
f 47//47 50//50 62//62
f 6//6 19//19 18//18
f 24//24 64//64 40//40
f 44//44 75//75 49//49
f 33//33 49//49 75//75
f 48//48 57//57 46//46
f 39//39 5//5 68//68
f 45//45 11//11 41//41
f 10//10 60//60 55//55
f 38//38 40//40 76//76
f 63//63 72//72 29//29
f 43//43 56//56 73//73
f 24//24 23//23 65//65
f 54//54 33//33 74//74
f 35//35 77//77 69//69
f 34//34 69//69 77//77
f 55//55 54//54 56//56
f 58//58 9//9 31//31
f 56//56 43//43 42//42
f 69//69 63//63 62//62
f 40//40 52//52 51//51
f 59//59 60//60 17//17
f 77//77 35//35 34//34
f 44//44 43//43 75//75
f 73//73 75//75 43//43
f 51//51 71//71 69//69
f 46//46 44//44 48//48
f 58//58 36//36 37//37
f 49//49 48//48 44//44
f 26//26 32//32 59//59
f 62//62 33//33 35//35
f 68//68 4//4 53//53
f 1//1 2//2 3//3
f 4//4 5//5 6//6
f 7//7 8//8 9//9
f 7//7 10//10 11//11
f 12//12 13//13 14//14
f 15//15 16//16 17//17
f 18//18 19//19 12//12
f 14//14 20//20 21//21
f 22//22 23//23 24//24
f 20//20 14//14 13//13
f 19//19 5//5 25//25
f 26//26 17//17 27//27
f 28//28 3//3 29//29
f 30//30 31//31 32//32
f 33//33 34//34 35//35
f 36//36 16//16 37//37
f 38//38 39//39 40//40
f 41//41 42//42 43//43
f 41//41 44//44 45//45
f 31//31 8//8 46//46
f 47//47 48//48 49//49
f 50//50 47//47 49//49
f 1//1 28//28 51//51
f 1//1 52//52 53//53
f 23//23 22//22 54//54
f 55//55 56//56 42//42
f 57//57 48//48 3//3
f 58//58 37//37 9//9
f 59//59 55//55 60//60
f 59//59 23//23 55//55
f 23//23 59//59 61//61
f 47//47 62//62 63//63
f 30//30 27//27 36//36
f 64//64 65//65 66//66
f 7//7 67//67 8//8
f 53//53 52//52 68//68
f 69//69 70//70 51//51
f 69//69 71//71 72//72
f 25//25 5//5 39//39
f 25//25 39//39 38//38
f 56//56 54//54 73//73
f 15//15 10//10 7//7
f 74//74 75//75 73//73
f 29//29 72//72 28//28
f 72//72 71//71 28//28
f 71//71 51//51 28//28
f 6//6 5//5 19//19
f 21//21 4//4 6//6
f 40//40 39//39 52//52
f 54//54 74//74 73//73
f 65//65 23//23 61//61
f 24//24 70//70 22//22
f 28//28 1//1 3//3
f 25//25 13//13 12//12
f 14//14 6//6 18//18
f 8//8 31//31 9//9
f 21//21 6//6 14//14
f 31//31 57//57 64//64
f 12//12 14//14 18//18
f 10//10 15//15 60//60
f 24//24 40//40 51//51
f 62//62 50//50 33//33
f 69//69 34//34 70//70
f 22//22 70//70 54//54
f 2//2 76//76 3//3
f 54//54 70//70 34//34
f 58//58 30//30 36//36
f 16//16 36//36 27//27
f 37//37 15//15 7//7
f 16//16 15//15 37//37
f 52//52 39//39 68//68
f 19//19 25//25 12//12
f 58//58 31//31 30//30
f 66//66 32//32 31//31
f 42//42 11//11 10//10
f 21//21 20//20 53//53
f 75//75 74//74 33//33
f 67//67 45//45 8//8
f 32//32 66//66 61//61
f 27//27 30//30 32//32
f 9//9 37//37 7//7
f 65//65 61//61 66//66
f 2//2 1//1 20//20
f 52//52 1//1 51//51
f 15//15 17//17 60//60
f 72//72 63//63 69//69
f 11//11 67//67 7//7
f 2//2 20//20 76//76
f 29//29 47//47 63//63
f 57//57 3//3 76//76
f 53//53 20//20 1//1
f 34//34 33//33 54//54
f 40//40 64//64 76//76
f 65//65 64//64 24//24
f 44//44 46//46 45//45
f 27//27 32//32 26//26
f 67//67 11//11 45//45
f 48//48 29//29 3//3
f 61//61 59//59 32//32
f 27//27 17//17 16//16
f 76//76 13//13 38//38
f 46//46 57//57 31//31
f 54//54 55//55 23//23
f 45//45 46//46 8//8
f 76//76 64//64 57//57
f 55//55 42//42 10//10
f 70//70 24//24 51//51
f 17//17 26//26 59//59
f 11//11 42//42 41//41
f 33//33 50//50 49//49
f 76//76 20//20 13//13
f 62//62 35//35 69//69
f 4//4 21//21 53//53
f 4//4 68//68 5//5
f 38//38 13//13 25//25
f 43//43 44//44 41//41
f 48//48 47//47 29//29
f 31//31 64//64 66//66
f 47//47 50//50 62//62
f 6//6 19//19 18//18
f 24//24 64//64 40//40
f 44//44 75//75 49//49
f 33//33 49//49 75//75
f 48//48 57//57 46//46
f 39//39 5//5 68//68
f 45//45 11//11 41//41
f 10//10 60//60 55//55
f 38//38 40//40 76//76
f 63//63 72//72 29//29
f 43//43 56//56 73//73
f 24//24 23//23 65//65
f 54//54 33//33 74//74
f 35//35 77//77 69//69
f 34//34 69//69 77//77
f 55//55 54//54 56//56
f 58//58 9//9 31//31
f 56//56 43//43 42//42
f 69//69 63//63 62//62
f 40//40 52//52 51//51
f 59//59 60//60 17//17
f 77//77 35//35 34//34
f 44//44 43//43 75//75
f 73//73 75//75 43//43
f 51//51 71//71 69//69
f 46//46 44//44 48//48
f 58//58 36//36 37//37
f 49//49 48//48 44//44
f 26//26 32//32 59//59
f 62//62 33//33 35//35
f 68//68 4//4 53//53
f 1//1 2//2 3//3
f 4//4 5//5 6//6
f 7//7 8//8 9//9
f 7//7 10//10 11//11
f 12//12 13//13 14//14
f 15//15 16//16 17//17
f 18//18 19//19 12//12
f 14//14 20//20 21//21
f 22//22 23//23 24//24
f 20//20 14//14 13//13
f 19//19 5//5 25//25
f 26//26 17//17 27//27
f 28//28 3//3 29//29
f 30//30 31//31 32//32
f 33//33 34//34 35//35
f 36//36 16//16 37//37
f 38//38 39//39 40//40
f 41//41 42//42 43//43
f 41//41 44//44 45//45
f 31//31 8//8 46//46
f 47//47 48//48 49//49
f 50//50 47//47 49//49
f 1//1 28//28 51//51
f 1//1 52//52 53//53
f 23//23 22//22 54//54
f 55//55 56//56 42//42
f 57//57 48//48 3//3
f 58//58 37//37 9//9
f 59//59 55//55 60//60
f 59//59 23//23 55//55
f 23//23 59//59 61//61
f 47//47 62//62 63//63
f 30//30 27//27 36//36
f 64//64 65//65 66//66
f 7//7 67//67 8//8
f 53//53 52//52 68//68
f 69//69 70//70 51//51
f 69//69 71//71 72//72
f 25//25 5//5 39//39
f 25//25 39//39 38//38
f 56//56 54//54 73//73
f 15//15 10//10 7//7
f 74//74 75//75 73//73
f 29//29 72//72 28//28
f 72//72 71//71 28//28
f 71//71 51//51 28//28
f 6//6 5//5 19//19
f 21//21 4//4 6//6
f 40//40 39//39 52//52
f 54//54 74//74 73//73
f 65//65 23//23 61//61
f 24//24 70//70 22//22
f 28//28 1//1 3//3
f 25//25 13//13 12//12
f 14//14 6//6 18//18
f 8//8 31//31 9//9
f 21//21 6//6 14//14
f 31//31 57//57 64//64
f 12//12 14//14 18//18
f 10//10 15//15 60//60
f 24//24 40//40 51//51
f 62//62 50//50 33//33
f 69//69 34//34 70//70
f 22//22 70//70 54//54
f 2//2 76//76 3//3
f 54//54 70//70 34//34
f 58//58 30//30 36//36
f 16//16 36//36 27//27
f 37//37 15//15 7//7
f 16//16 15//15 37//37
f 52//52 39//39 68//68
f 19//19 25//25 12//12
f 58//58 31//31 30//30
f 66//66 32//32 31//31
f 42//42 11//11 10//10
f 21//21 20//20 53//53
f 75//75 74//74 33//33
f 67//67 45//45 8//8
f 32//32 66//66 61//61
f 27//27 30//30 32//32
f 9//9 37//37 7//7
f 65//65 61//61 66//66
f 2//2 1//1 20//20
f 52//52 1//1 51//51
f 15//15 17//17 60//60
f 72//72 63//63 69//69
f 11//11 67//67 7//7
f 2//2 20//20 76//76
f 29//29 47//47 63//63
f 57//57 3//3 76//76
f 53//53 20//20 1//1
f 34//34 33//33 54//54
f 40//40 64//64 76//76
f 65//65 64//64 24//24
f 44//44 46//46 45//45
f 27//27 32//32 26//26
f 67//67 11//11 45//45
f 48//48 29//29 3//3
f 61//61 59//59 32//32
f 27//27 17//17 16//16
f 76//76 13//13 38//38
f 46//46 57//57 31//31
f 54//54 55//55 23//23
f 45//45 46//46 8//8
f 76//76 64//64 57//57
f 55//55 42//42 10//10
f 70//70 24//24 51//51
f 17//17 26//26 59//59
f 11//11 42//42 41//41
f 33//33 50//50 49//49
f 76//76 20//20 13//13
f 62//62 35//35 69//69
f 4//4 21//21 53//53
f 4//4 68//68 5//5
f 38//38 13//13 25//25
f 43//43 44//44 41//41
f 48//48 47//47 29//29
f 31//31 64//64 66//66
f 47//47 50//50 62//62
f 6//6 19//19 18//18
f 24//24 64//64 40//40
f 44//44 75//75 49//49
f 33//33 49//49 75//75
f 48//48 57//57 46//46
f 39//39 5//5 68//68
f 45//45 11//11 41//41
f 10//10 60//60 55//55
f 38//38 40//40 76//76
f 63//63 72//72 29//29
f 43//43 56//56 73//73
f 24//24 23//23 65//65
f 54//54 33//33 74//74
f 35//35 77//77 69//69
f 34//34 69//69 77//77
f 55//55 54//54 56//56
f 58//58 9//9 31//31
f 56//56 43//43 42//42
f 69//69 63//63 62//62
f 40//40 52//52 51//51
f 59//59 60//60 17//17
f 77//77 35//35 34//34
f 44//44 43//43 75//75
f 73//73 75//75 43//43
f 51//51 71//71 69//69
f 46//46 44//44 48//48
f 58//58 36//36 37//37
f 49//49 48//48 44//44
f 26//26 32//32 59//59
f 62//62 33//33 35//35
f 68//68 4//4 53//53
f 1//1 2//2 3//3
f 4//4 5//5 6//6
f 7//7 8//8 9//9
f 7//7 10//10 11//11
f 12//12 13//13 14//14
f 15//15 16//16 17//17
f 18//18 19//19 12//12
f 14//14 20//20 21//21
f 22//22 23//23 24//24
f 20//20 14//14 13//13
f 19//19 5//5 25//25
f 26//26 17//17 27//27
f 28//28 3//3 29//29
f 30//30 31//31 32//32
f 33//33 34//34 35//35
f 36//36 16//16 37//37
f 38//38 39//39 40//40
f 41//41 42//42 43//43
f 41//41 44//44 45//45
f 31//31 8//8 46//46
f 47//47 48//48 49//49
f 50//50 47//47 49//49
f 1//1 28//28 51//51
f 1//1 52//52 53//53
f 23//23 22//22 54//54
f 55//55 56//56 42//42
f 57//57 48//48 3//3
f 58//58 37//37 9//9
f 59//59 55//55 60//60
f 59//59 23//23 55//55
f 23//23 59//59 61//61
f 47//47 62//62 63//63
f 30//30 27//27 36//36
f 64//64 65//65 66//66
f 7//7 67//67 8//8
f 53//53 52//52 68//68
f 69//69 70//70 51//51
f 69//69 71//71 72//72
f 25//25 5//5 39//39
f 25//25 39//39 38//38
f 56//56 54//54 73//73
f 15//15 10//10 7//7
f 74//74 75//75 73//73
f 29//29 72//72 28//28
f 72//72 71//71 28//28
f 71//71 51//51 28//28
f 6//6 5//5 19//19
f 21//21 4//4 6//6
f 40//40 39//39 52//52
f 54//54 74//74 73//73
f 65//65 23//23 61//61
f 24//24 70//70 22//22
f 28//28 1//1 3//3
f 25//25 13//13 12//12
f 14//14 6//6 18//18
f 8//8 31//31 9//9
f 21//21 6//6 14//14
f 31//31 57//57 64//64
f 12//12 14//14 18//18
f 10//10 15//15 60//60
f 24//24 40//40 51//51
f 62//62 50//50 33//33
f 69//69 34//34 70//70
f 22//22 70//70 54//54
f 2//2 76//76 3//3
f 54//54 70//70 34//34
f 58//58 30//30 36//36
f 16//16 36//36 27//27
f 37//37 15//15 7//7
f 16//16 15//15 37//37
f 52//52 39//39 68//68
f 19//19 25//25 12//12
f 58//58 31//31 30//30
f 66//66 32//32 31//31
f 42//42 11//11 10//10
f 21//21 20//20 53//53
f 75//75 74//74 33//33
f 67//67 45//45 8//8
f 32//32 66//66 61//61
f 27//27 30//30 32//32
f 9//9 37//37 7//7
f 65//65 61//61 66//66
f 2//2 1//1 20//20
f 52//52 1//1 51//51
f 15//15 17//17 60//60
f 72//72 63//63 69//69
f 11//11 67//67 7//7
f 2//2 20//20 76//76
f 29//29 47//47 63//63
f 57//57 3//3 76//76
f 53//53 20//20 1//1
f 34//34 33//33 54//54
f 40//40 64//64 76//76
f 65//65 64//64 24//24
f 44//44 46//46 45//45
f 27//27 32//32 26//26
f 67//67 11//11 45//45
f 48//48 29//29 3//3
f 61//61 59//59 32//32
f 27//27 17//17 16//16
f 76//76 13//13 38//38
f 46//46 57//57 31//31
f 54//54 55//55 23//23
f 45//45 46//46 8//8
f 76//76 64//64 57//57
f 55//55 42//42 10//10
f 70//70 24//24 51//51
f 17//17 26//26 59//59
f 11//11 42//42 41//41
f 33//33 50//50 49//49
f 76//76 20//20 13//13
f 62//62 35//35 69//69
f 4//4 21//21 53//53
f 4//4 68//68 5//5
f 38//38 13//13 25//25
f 43//43 44//44 41//41
f 48//48 47//47 29//29
f 31//31 64//64 66//66
f 47//47 50//50 62//62
f 6//6 19//19 18//18
f 24//24 64//64 40//40
f 44//44 75//75 49//49
f 33//33 49//49 75//75
f 48//48 57//57 46//46
f 39//39 5//5 68//68
f 45//45 11//11 41//41
f 10//10 60//60 55//55
f 38//38 40//40 76//76
f 63//63 72//72 29//29
f 43//43 56//56 73//73
f 24//24 23//23 65//65
f 54//54 33//33 74//74
f 35//35 77//77 69//69
f 34//34 69//69 77//77
f 55//55 54//54 56//56
f 58//58 9//9 31//31
f 56//56 43//43 42//42
f 69//69 63//63 62//62
f 40//40 52//52 51//51
f 59//59 60//60 17//17
f 77//77 35//35 34//34
f 44//44 43//43 75//75
f 73//73 75//75 43//43
f 51//51 71//71 69//69
f 46//46 44//44 48//48
f 58//58 36//36 37//37
f 49//49 48//48 44//44
f 26//26 32//32 59//59
f 62//62 33//33 35//35
f 68//68 4//4 53//53
f 1//1 2//2 3//3
f 4//4 5//5 6//6
f 7//7 8//8 9//9
f 7//7 10//10 11//11
f 12//12 13//13 14//14
f 15//15 16//16 17//17
f 18//18 19//19 12//12
f 14//14 20//20 21//21
f 22//22 23//23 24//24
f 20//20 14//14 13//13
f 19//19 5//5 25//25
f 26//26 17//17 27//27
f 28//28 3//3 29//29
f 30//30 31//31 32//32
f 33//33 34//34 35//35
f 36//36 16//16 37//37
f 38//38 39//39 40//40
f 41//41 42//42 43//43
f 41//41 44//44 45//45
f 31//31 8//8 46//46
f 47//47 48//48 49//49
f 50//50 47//47 49//49
f 1//1 28//28 51//51
f 1//1 52//52 53//53
f 23//23 22//22 54//54
f 55//55 56//56 42//42
f 57//57 48//48 3//3
f 58//58 37//37 9//9
f 59//59 55//55 60//60
f 59//59 23//23 55//55
f 23//23 59//59 61//61
f 47//47 62//62 63//63
f 30//30 27//27 36//36
f 64//64 65//65 66//66
f 7//7 67//67 8//8
f 53//53 52//52 68//68
f 69//69 70//70 51//51
f 69//69 71//71 72//72
f 25//25 5//5 39//39
f 25//25 39//39 38//38
f 56//56 54//54 73//73
f 15//15 10//10 7//7
f 74//74 75//75 73//73
f 29//29 72//72 28//28
f 72//72 71//71 28//28
f 71//71 51//51 28//28
f 6//6 5//5 19//19
f 21//21 4//4 6//6
f 40//40 39//39 52//52
f 54//54 74//74 73//73
f 65//65 23//23 61//61
f 24//24 70//70 22//22
f 28//28 1//1 3//3
f 25//25 13//13 12//12
f 14//14 6//6 18//18
f 8//8 31//31 9//9
f 21//21 6//6 14//14
f 31//31 57//57 64//64
f 12//12 14//14 18//18
f 10//10 15//15 60//60
f 24//24 40//40 51//51
f 62//62 50//50 33//33
f 69//69 34//34 70//70
f 22//22 70//70 54//54
f 2//2 76//76 3//3
f 54//54 70//70 34//34
f 58//58 30//30 36//36
f 16//16 36//36 27//27
f 37//37 15//15 7//7
f 16//16 15//15 37//37
f 52//52 39//39 68//68
f 19//19 25//25 12//12
f 58//58 31//31 30//30
f 66//66 32//32 31//31
f 42//42 11//11 10//10
f 21//21 20//20 53//53
f 75//75 74//74 33//33
f 67//67 45//45 8//8
f 32//32 66//66 61//61
f 27//27 30//30 32//32
f 9//9 37//37 7//7
f 65//65 61//61 66//66
f 2//2 1//1 20//20
f 52//52 1//1 51//51
f 15//15 17//17 60//60
f 72//72 63//63 69//69
f 11//11 67//67 7//7
f 2//2 20//20 76//76
f 29//29 47//47 63//63
f 57//57 3//3 76//76
f 53//53 20//20 1//1
f 34//34 33//33 54//54
f 40//40 64//64 76//76
f 65//65 64//64 24//24
f 44//44 46//46 45//45
f 27//27 32//32 26//26
f 67//67 11//11 45//45
f 48//48 29//29 3//3
f 61//61 59//59 32//32
f 27//27 17//17 16//16
f 76//76 13//13 38//38
f 46//46 57//57 31//31
f 54//54 55//55 23//23
f 45//45 46//46 8//8
f 76//76 64//64 57//57
f 55//55 42//42 10//10
f 70//70 24//24 51//51
f 17//17 26//26 59//59
f 11//11 42//42 41//41
f 33//33 50//50 49//49
f 76//76 20//20 13//13
f 62//62 35//35 69//69
f 4//4 21//21 53//53
f 4//4 68//68 5//5
f 38//38 13//13 25//25
f 43//43 44//44 41//41
f 48//48 47//47 29//29
f 31//31 64//64 66//66
f 47//47 50//50 62//62
f 6//6 19//19 18//18
f 24//24 64//64 40//40
f 44//44 75//75 49//49
f 33//33 49//49 75//75
f 48//48 57//57 46//46
f 39//39 5//5 68//68
f 45//45 11//11 41//41
f 10//10 60//60 55//55
f 38//38 40//40 76//76
f 63//63 72//72 29//29
f 43//43 56//56 73//73
f 24//24 23//23 65//65
f 54//54 33//33 74//74
f 35//35 77//77 69//69
f 34//34 69//69 77//77
f 55//55 54//54 56//56
f 58//58 9//9 31//31
f 56//56 43//43 42//42
f 69//69 63//63 62//62
f 40//40 52//52 51//51
f 59//59 60//60 17//17
f 77//77 35//35 34//34
f 44//44 43//43 75//75
f 73//73 75//75 43//43
f 51//51 71//71 69//69
f 46//46 44//44 48//48
f 58//58 36//36 37//37
f 49//49 48//48 44//44
f 26//26 32//32 59//59
f 62//62 33//33 35//35
f 68//68 4//4 53//53
f 1//1 2//2 3//3
f 4//4 5//5 6//6
f 7//7 8//8 9//9
f 7//7 10//10 11//11
f 12//12 13//13 14//14
f 15//15 16//16 17//17
f 18//18 19//19 12//12
f 14//14 20//20 21//21
f 22//22 23//23 24//24
f 20//20 14//14 13//13
f 19//19 5//5 25//25
f 26//26 17//17 27//27
f 28//28 3//3 29//29
f 30//30 31//31 32//32
f 33//33 34//34 35//35
f 36//36 16//16 37//37
f 38//38 39//39 40//40
f 41//41 42//42 43//43
f 41//41 44//44 45//45
f 31//31 8//8 46//46
f 47//47 48//48 49//49
f 50//50 47//47 49//49
f 1//1 28//28 51//51
f 1//1 52//52 53//53
f 23//23 22//22 54//54
f 55//55 56//56 42//42
f 57//57 48//48 3//3
f 58//58 37//37 9//9
f 59//59 55//55 60//60
f 59//59 23//23 55//55
f 23//23 59//59 61//61
f 47//47 62//62 63//63
f 30//30 27//27 36//36
f 64//64 65//65 66//66
f 7//7 67//67 8//8
f 53//53 52//52 68//68
f 69//69 70//70 51//51
f 69//69 71//71 72//72
f 25//25 5//5 39//39
f 25//25 39//39 38//38
f 56//56 54//54 73//73
f 15//15 10//10 7//7
f 74//74 75//75 73//73
f 29//29 72//72 28//28
f 72//72 71//71 28//28
f 71//71 51//51 28//28
f 6//6 5//5 19//19
f 21//21 4//4 6//6
f 40//40 39//39 52//52
f 54//54 74//74 73//73
f 65//65 23//23 61//61
f 24//24 70//70 22//22
f 28//28 1//1 3//3
f 25//25 13//13 12//12
f 14//14 6//6 18//18
f 8//8 31//31 9//9
f 21//21 6//6 14//14
f 31//31 57//57 64//64
f 12//12 14//14 18//18
f 10//10 15//15 60//60
f 24//24 40//40 51//51
f 62//62 50//50 33//33
f 69//69 34//34 70//70
f 22//22 70//70 54//54
f 2//2 76//76 3//3
f 54//54 70//70 34//34
f 58//58 30//30 36//36
f 16//16 36//36 27//27
f 37//37 15//15 7//7
f 16//16 15//15 37//37
f 52//52 39//39 68//68
f 19//19 25//25 12//12
f 58//58 31//31 30//30
f 66//66 32//32 31//31
f 42//42 11//11 10//10
f 21//21 20//20 53//53
f 75//75 74//74 33//33
f 67//67 45//45 8//8
f 32//32 66//66 61//61
f 27//27 30//30 32//32
f 9//9 37//37 7//7
f 65//65 61//61 66//66
f 2//2 1//1 20//20
f 52//52 1//1 51//51
f 15//15 17//17 60//60
f 72//72 63//63 69//69
f 11//11 67//67 7//7
f 2//2 20//20 76//76
f 29//29 47//47 63//63
f 57//57 3//3 76//76
f 53//53 20//20 1//1
f 34//34 33//33 54//54
f 40//40 64//64 76//76
f 65//65 64//64 24//24
f 44//44 46//46 45//45
f 27//27 32//32 26//26
f 67//67 11//11 45//45
f 48//48 29//29 3//3
f 61//61 59//59 32//32
f 27//27 17//17 16//16
f 76//76 13//13 38//38
f 46//46 57//57 31//31
f 54//54 55//55 23//23
f 45//45 46//46 8//8
f 76//76 64//64 57//57
f 55//55 42//42 10//10
f 70//70 24//24 51//51
f 17//17 26//26 59//59
f 11//11 42//42 41//41
f 33//33 50//50 49//49
f 76//76 20//20 13//13
f 62//62 35//35 69//69
f 4//4 21//21 53//53
f 4//4 68//68 5//5
f 38//38 13//13 25//25
f 43//43 44//44 41//41
f 48//48 47//47 29//29
f 31//31 64//64 66//66
f 47//47 50//50 62//62
f 6//6 19//19 18//18
f 24//24 64//64 40//40
f 44//44 75//75 49//49
f 33//33 49//49 75//75
f 48//48 57//57 46//46
f 39//39 5//5 68//68
f 45//45 11//11 41//41
f 10//10 60//60 55//55
f 38//38 40//40 76//76
f 63//63 72//72 29//29
f 43//43 56//56 73//73
f 24//24 23//23 65//65
f 54//54 33//33 74//74
f 35//35 77//77 69//69
f 34//34 69//69 77//77
f 55//55 54//54 56//56
f 58//58 9//9 31//31
f 56//56 43//43 42//42
f 69//69 63//63 62//62
f 40//40 52//52 51//51
f 59//59 60//60 17//17
f 77//77 35//35 34//34
f 44//44 43//43 75//75
f 73//73 75//75 43//43
f 51//51 71//71 69//69
f 46//46 44//44 48//48
f 58//58 36//36 37//37
f 49//49 48//48 44//44
f 26//26 32//32 59//59
f 62//62 33//33 35//35
f 68//68 4//4 53//53
f 1//1 2//2 3//3
f 4//4 5//5 6//6
f 7//7 8//8 9//9
f 7//7 10//10 11//11
f 12//12 13//13 14//14
f 15//15 16//16 17//17
f 18//18 19//19 12//12
f 14//14 20//20 21//21
f 22//22 23//23 24//24
f 20//20 14//14 13//13
f 19//19 5//5 25//25
f 26//26 17//17 27//27
f 28//28 3//3 29//29
f 30//30 31//31 32//32
f 33//33 34//34 35//35
f 36//36 16//16 37//37
f 38//38 39//39 40//40
f 41//41 42//42 43//43
f 41//41 44//44 45//45
f 31//31 8//8 46//46
f 47//47 48//48 49//49
f 50//50 47//47 49//49
f 1//1 28//28 51//51
f 1//1 52//52 53//53
f 23//23 22//22 54//54
f 55//55 56//56 42//42
f 57//57 48//48 3//3
f 58//58 37//37 9//9
f 59//59 55//55 60//60
f 59//59 23//23 55//55
f 23//23 59//59 61//61
f 47//47 62//62 63//63
f 30//30 27//27 36//36
f 64//64 65//65 66//66
f 7//7 67//67 8//8
f 53//53 52//52 68//68
f 69//69 70//70 51//51
f 69//69 71//71 72//72
f 25//25 5//5 39//39
f 25//25 39//39 38//38
f 56//56 54//54 73//73
f 15//15 10//10 7//7
f 74//74 75//75 73//73
f 29//29 72//72 28//28
f 72//72 71//71 28//28
f 71//71 51//51 28//28
f 6//6 5//5 19//19
f 21//21 4//4 6//6
f 40//40 39//39 52//52
f 54//54 74//74 73//73
f 65//65 23//23 61//61
f 24//24 70//70 22//22
f 28//28 1//1 3//3
f 25//25 13//13 12//12
f 14//14 6//6 18//18
f 8//8 31//31 9//9
f 21//21 6//6 14//14
f 31//31 57//57 64//64
f 12//12 14//14 18//18
f 10//10 15//15 60//60
f 24//24 40//40 51//51
f 62//62 50//50 33//33
f 69//69 34//34 70//70
f 22//22 70//70 54//54
f 2//2 76//76 3//3
f 54//54 70//70 34//34
f 58//58 30//30 36//36
f 16//16 36//36 27//27
f 37//37 15//15 7//7
f 16//16 15//15 37//37
f 52//52 39//39 68//68
f 19//19 25//25 12//12
f 58//58 31//31 30//30
f 66//66 32//32 31//31
f 42//42 11//11 10//10
f 21//21 20//20 53//53
f 75//75 74//74 33//33
f 67//67 45//45 8//8
f 32//32 66//66 61//61
f 27//27 30//30 32//32
f 9//9 37//37 7//7
f 65//65 61//61 66//66
f 2//2 1//1 20//20
f 52//52 1//1 51//51
f 15//15 17//17 60//60
f 72//72 63//63 69//69
f 11//11 67//67 7//7
f 2//2 20//20 76//76
f 29//29 47//47 63//63
f 57//57 3//3 76//76
f 53//53 20//20 1//1
f 34//34 33//33 54//54
f 40//40 64//64 76//76
f 65//65 64//64 24//24
f 44//44 46//46 45//45
f 27//27 32//32 26//26
f 67//67 11//11 45//45
f 48//48 29//29 3//3
f 61//61 59//59 32//32
f 27//27 17//17 16//16
f 76//76 13//13 38//38
f 46//46 57//57 31//31
f 54//54 55//55 23//23
f 45//45 46//46 8//8
f 76//76 64//64 57//57
f 55//55 42//42 10//10
f 70//70 24//24 51//51
f 17//17 26//26 59//59
f 11//11 42//42 41//41
f 33//33 50//50 49//49
f 76//76 20//20 13//13
f 62//62 35//35 69//69
f 4//4 21//21 53//53
f 4//4 68//68 5//5
f 38//38 13//13 25//25
f 43//43 44//44 41//41
f 48//48 47//47 29//29
f 31//31 64//64 66//66
f 47//47 50//50 62//62
f 6//6 19//19 18//18
f 24//24 64//64 40//40
f 44//44 75//75 49//49
f 33//33 49//49 75//75
f 48//48 57//57 46//46
f 39//39 5//5 68//68
f 45//45 11//11 41//41
f 10//10 60//60 55//55
f 38//38 40//40 76//76
f 63//63 72//72 29//29
f 43//43 56//56 73//73
f 24//24 23//23 65//65
f 54//54 33//33 74//74
f 35//35 77//77 69//69
f 34//34 69//69 77//77
f 55//55 54//54 56//56
f 58//58 9//9 31//31
f 56//56 43//43 42//42
f 69//69 63//63 62//62
f 40//40 52//52 51//51
f 59//59 60//60 17//17
f 77//77 35//35 34//34
f 44//44 43//43 75//75
f 73//73 75//75 43//43
f 51//51 71//71 69//69
f 46//46 44//44 48//48
f 58//58 36//36 37//37
f 49//49 48//48 44//44
f 26//26 32//32 59//59
f 62//62 33//33 35//35
f 68//68 4//4 53//53
f 1//1 2//2 3//3
f 4//4 5//5 6//6
f 7//7 8//8 9//9
f 7//7 10//10 11//11
f 12//12 13//13 14//14
f 15//15 16//16 17//17
f 18//18 19//19 12//12
f 14//14 20//20 21//21
f 22//22 23//23 24//24
f 20//20 14//14 13//13
f 19//19 5//5 25//25
f 26//26 17//17 27//27
f 28//28 3//3 29//29
f 30//30 31//31 32//32
f 33//33 34//34 35//35
f 36//36 16//16 37//37
f 38//38 39//39 40//40
f 41//41 42//42 43//43
f 41//41 44//44 45//45
f 31//31 8//8 46//46
f 47//47 48//48 49//49
f 50//50 47//47 49//49
f 1//1 28//28 51//51
f 1//1 52//52 53//53
f 23//23 22//22 54//54
f 55//55 56//56 42//42
f 57//57 48//48 3//3
f 58//58 37//37 9//9
f 59//59 55//55 60//60
f 59//59 23//23 55//55
f 23//23 59//59 61//61
f 47//47 62//62 63//63
f 30//30 27//27 36//36
f 64//64 65//65 66//66
f 7//7 67//67 8//8
f 53//53 52//52 68//68
f 69//69 70//70 51//51
f 69//69 71//71 72//72
f 25//25 5//5 39//39
f 25//25 39//39 38//38
f 56//56 54//54 73//73
f 15//15 10//10 7//7
f 74//74 75//75 73//73
f 29//29 72//72 28//28
f 72//72 71//71 28//28
f 71//71 51//51 28//28
f 6//6 5//5 19//19
f 21//21 4//4 6//6
f 40//40 39//39 52//52
f 54//54 74//74 73//73
f 65//65 23//23 61//61
f 24//24 70//70 22//22
f 28//28 1//1 3//3
f 25//25 13//13 12//12
f 14//14 6//6 18//18
f 8//8 31//31 9//9
f 21//21 6//6 14//14
f 31//31 57//57 64//64
f 12//12 14//14 18//18
f 10//10 15//15 60//60
f 24//24 40//40 51//51
f 62//62 50//50 33//33
f 69//69 34//34 70//70
f 22//22 70//70 54//54
f 2//2 76//76 3//3
f 54//54 70//70 34//34
f 58//58 30//30 36//36
f 16//16 36//36 27//27
f 37//37 15//15 7//7
f 16//16 15//15 37//37
f 52//52 39//39 68//68
f 19//19 25//25 12//12
f 58//58 31//31 30//30
f 66//66 32//32 31//31
f 42//42 11//11 10//10
f 21//21 20//20 53//53
f 75//75 74//74 33//33
f 67//67 45//45 8//8
f 32//32 66//66 61//61
f 27//27 30//30 32//32
f 9//9 37//37 7//7
f 65//65 61//61 66//66
f 2//2 1//1 20//20
f 52//52 1//1 51//51
f 15//15 17//17 60//60
f 72//72 63//63 69//69
f 11//11 67//67 7//7
f 2//2 20//20 76//76
f 29//29 47//47 63//63
f 57//57 3//3 76//76
f 53//53 20//20 1//1
f 34//34 33//33 54//54
f 40//40 64//64 76//76
f 65//65 64//64 24//24
f 44//44 46//46 45//45
f 27//27 32//32 26//26
f 67//67 11//11 45//45
f 48//48 29//29 3//3
f 61//61 59//59 32//32
f 27//27 17//17 16//16
f 76//76 13//13 38//38
f 46//46 57//57 31//31
f 54//54 55//55 23//23
f 45//45 46//46 8//8
f 76//76 64//64 57//57
f 55//55 42//42 10//10
f 70//70 24//24 51//51
f 17//17 26//26 59//59
f 11//11 42//42 41//41
f 33//33 50//50 49//49
f 76//76 20//20 13//13
f 62//62 35//35 69//69
f 4//4 21//21 53//53
f 4//4 68//68 5//5
f 38//38 13//13 25//25
f 43//43 44//44 41//41
f 48//48 47//47 29//29
f 31//31 64//64 66//66
f 47//47 50//50 62//62
f 6//6 19//19 18//18
f 24//24 64//64 40//40
f 44//44 75//75 49//49
f 33//33 49//49 75//75
f 48//48 57//57 46//46
f 39//39 5//5 68//68
f 45//45 11//11 41//41
f 10//10 60//60 55//55
f 38//38 40//40 76//76
f 63//63 72//72 29//29
f 43//43 56//56 73//73
f 24//24 23//23 65//65
f 54//54 33//33 74//74
f 35//35 77//77 69//69
f 34//34 69//69 77//77
f 55//55 54//54 56//56
f 58//58 9//9 31//31
f 56//56 43//43 42//42
f 69//69 63//63 62//62
f 40//40 52//52 51//51
f 59//59 60//60 17//17
f 77//77 35//35 34//34
f 44//44 43//43 75//75
f 73//73 75//75 43//43
f 51//51 71//71 69//69
f 46//46 44//44 48//48
f 58//58 36//36 37//37
f 49//49 48//48 44//44
f 26//26 32//32 59//59
f 62//62 33//33 35//35
f 68//68 4//4 53//53
