solid STL generated by MeshLab
  facet normal -4.948801e-01  6.770958e-01  5.446422e-01
    outer loop
      vertex  -2.436820e+02  1.340760e+03  1.364210e+01
      vertex  -2.548850e+02  1.341270e+03  2.828650e+00
      vertex  -2.857340e+02  1.311480e+03  1.183300e+01
    endloop
  endfacet
  facet normal -2.455209e-01  6.359937e-01  7.315952e-01
    outer loop
      vertex  -2.611710e+02  1.301690e+03  1.977580e+01
      vertex  -2.719530e+02  1.295170e+03  2.182530e+01
      vertex  -2.609950e+02  1.298190e+03  2.287750e+01
    endloop
  endfacet
  facet normal  2.292656e-01 -6.946737e-02  9.708818e-01
    outer loop
      vertex  -2.062030e+02  1.334510e+03  1.617770e+01
      vertex  -1.976570e+02  1.326880e+03  1.361370e+01
      vertex  -1.811870e+02  1.349870e+03  1.136940e+01
    endloop
  endfacet
  facet normal  2.964935e-01  1.186846e-01  9.476315e-01
    outer loop
      vertex  -1.430894e+02  1.418865e+03 -6.573941e+00
      vertex  -1.663610e+02  1.377380e+03  5.902960e+00
      vertex  -1.558560e+02  1.387600e+03  1.336190e+00
    endloop
  endfacet
  facet normal  3.142908e-01 -2.533974e-01 -9.148831e-01
    outer loop
      vertex  -2.078350e+02  1.358410e+03 -5.054210e+00
      vertex  -2.236090e+02  1.354070e+03 -9.270980e+00
      vertex  -2.006150e+02  1.380990e+03 -8.827940e+00
    endloop
  endfacet
  facet normal  4.291123e-01 -7.300841e-02  9.002958e-01
    outer loop
      vertex  -2.179140e+02  1.336060e+03  1.716700e+01
      vertex  -2.067580e+02  1.345150e+03  1.258680e+01
      vertex  -2.020980e+02  1.354950e+03  1.116040e+01
    endloop
  endfacet
  facet normal  7.933665e-01 -2.936851e-01  5.332155e-01
    outer loop
      vertex  -1.671010e+02  1.344180e+03  3.582770e+00
      vertex  -1.595870e+02  1.354640e+03 -1.836080e+00
      vertex  -1.639580e+02  1.353140e+03  3.841300e+00
    endloop
  endfacet
  facet normal  4.060632e-01 -3.740466e-02  9.130791e-01
    outer loop
      vertex  -1.811870e+02  1.349870e+03  1.136940e+01
      vertex  -1.639580e+02  1.353140e+03  3.841300e+00
      vertex  -1.663610e+02  1.377380e+03  5.902960e+00
    endloop
  endfacet
  facet normal  8.387343e-01 -5.193709e-01 -1.636415e-01
    outer loop
      vertex  -1.786660e+02  1.327330e+03 -1.294670e+01
      vertex  -1.595870e+02  1.354640e+03 -1.836080e+00
      vertex  -1.815510e+02  1.321286e+03 -8.552870e+00
    endloop
  endfacet
  facet normal  4.086761e-02  2.372730e-01  9.705830e-01
    outer loop
      vertex  -2.062030e+02  1.334510e+03  1.617770e+01
      vertex  -1.811870e+02  1.349870e+03  1.136940e+01
      vertex  -1.939540e+02  1.356670e+03  1.024460e+01
    endloop
  endfacet
  facet normal -2.232703e-01  5.123195e-01  8.292642e-01
    outer loop
      vertex  -2.138470e+02  1.352730e+03  1.427980e+01
      vertex  -2.204120e+02  1.357940e+03  9.293530e+00
      vertex  -2.436820e+02  1.340760e+03  1.364210e+01
    endloop
  endfacet
  facet normal  8.410213e-01 -2.203353e-01  4.941007e-01
    outer loop
      vertex  -2.067580e+02  1.345150e+03  1.258680e+01
      vertex  -1.879410e+02  1.379150e+03 -4.280410e+00
      vertex  -1.965350e+02  1.366590e+03  4.746740e+00
    endloop
  endfacet
  facet normal  2.197530e-01  2.601117e-02 -9.752088e-01
    outer loop
      vertex  -1.614340e+02  1.370870e+03 -1.204290e+01
      vertex  -1.731210e+02  1.343150e+03 -1.541580e+01
      vertex  -1.761620e+02  1.353140e+03 -1.583460e+01
    endloop
  endfacet
  facet normal  9.469661e-01 -1.896142e-01  2.594256e-01
    outer loop
      vertex  -1.829960e+02  1.398650e+03 -8.078270e+00
      vertex  -1.793600e+02  1.419680e+03 -5.979700e+00
      vertex  -1.879410e+02  1.379150e+03 -4.280410e+00
    endloop
  endfacet
  facet normal -1.598591e-01  7.675487e-01  6.207367e-01
    outer loop
      vertex  -2.204120e+02  1.357940e+03  9.293530e+00
      vertex  -1.965350e+02  1.366590e+03  4.746740e+00
      vertex  -2.080930e+02  1.372660e+03 -5.735520e+00
    endloop
  endfacet
  facet normal -3.515665e-01  2.125761e-01 -9.117084e-01
    outer loop
      vertex  -2.453630e+02  1.287100e+03 -2.376260e+01
      vertex  -2.800170e+02  1.263180e+03 -1.597680e+01
      vertex  -2.681460e+02  1.284530e+03 -1.557640e+01
    endloop
  endfacet
  facet normal  9.033877e-01 -4.287913e-01  5.365552e-03
    outer loop
      vertex  -1.965350e+02  1.366590e+03  4.746740e+00
      vertex  -2.020980e+02  1.354950e+03  1.116040e+01
      vertex  -2.067580e+02  1.345150e+03  1.258680e+01
    endloop
  endfacet
  facet normal  5.206651e-01 -4.713636e-01 -7.118456e-01
    outer loop
      vertex  -2.078350e+02  1.358410e+03 -5.054210e+00
      vertex  -1.884520e+02  1.385480e+03 -8.801830e+00
      vertex  -2.025120e+02  1.352690e+03  2.626880e+00
    endloop
  endfacet
  facet normal -3.325677e-01  2.736795e-01 -9.024956e-01
    outer loop
      vertex  -1.761620e+02  1.353140e+03 -1.583460e+01
      vertex  -1.912040e+02  1.351990e+03 -1.064040e+01
      vertex  -1.663800e+02  1.385260e+03 -9.698940e+00
    endloop
  endfacet
  facet normal -5.481969e-01  5.778815e-01  6.045933e-01
    outer loop
      vertex  -2.857340e+02  1.311480e+03  1.183300e+01
      vertex  -3.155190e+02  1.293410e+03  2.097930e+00
      vertex  -3.119030e+02  1.287690e+03  1.084400e+01
    endloop
  endfacet
  facet normal  4.409354e-01 -4.769765e-01  7.603087e-01
    outer loop
      vertex  -2.434654e+02  1.288072e+03  1.611629e+01
      vertex  -2.004330e+02  1.319380e+03  1.080120e+01
      vertex  -2.374690e+02  1.299080e+03  1.954480e+01
    endloop
  endfacet
  facet normal -8.838562e-01  4.650844e-01 -4.994630e-02
    outer loop
      vertex  -2.086070e+02  1.338970e+03  1.462950e+01
      vertex  -2.046490e+02  1.345720e+03  7.442240e+00
      vertex  -2.066100e+02  1.340600e+03 -5.531470e+00
    endloop
  endfacet
  facet normal  7.316485e-02 -3.330293e-01  9.400735e-01
    outer loop
      vertex  -3.935930e+02  1.185120e+03 -1.199370e+01
      vertex  -3.483980e+02  1.208990e+03 -7.055020e+00
      vertex  -3.788520e+02  1.200160e+03 -7.812910e+00
    endloop
  endfacet
  facet normal -6.933301e-02  2.935898e-01  9.534138e-01
    outer loop
      vertex  -2.086070e+02  1.338970e+03  1.462950e+01
      vertex  -2.062030e+02  1.334510e+03  1.617770e+01
      vertex  -1.939540e+02  1.356670e+03  1.024460e+01
    endloop
  endfacet
  facet normal  4.679913e-01 -8.157683e-01 -3.398621e-01
    outer loop
      vertex  -3.610190e+02  1.203870e+03 -1.214470e+01
      vertex  -3.483980e+02  1.208990e+03 -7.055020e+00
      vertex  -3.935930e+02  1.185120e+03 -1.199370e+01
    endloop
  endfacet
  facet normal  6.947042e-01 -2.024573e-01 -6.902153e-01
    outer loop
      vertex  -1.614340e+02  1.370870e+03 -1.204290e+01
      vertex  -1.463110e+02  1.422080e+03 -1.184270e+01
      vertex  -1.530390e+02  1.385620e+03 -7.919840e+00
    endloop
  endfacet
  facet normal  5.088004e-01 -5.319578e-01 -6.768627e-01
    outer loop
      vertex  -2.353150e+02  1.338070e+03 -9.892500e+00
      vertex  -2.517530e+02  1.316320e+03 -5.155320e+00
      vertex  -2.698500e+02  1.303270e+03 -8.502750e+00
    endloop
  endfacet
  facet normal  6.877099e-01 -7.063975e-01  1.675040e-01
    outer loop
      vertex  -2.128650e+02  1.303120e+03 -1.326820e+01
      vertex  -2.223380e+02  1.298420e+03  5.803800e+00
      vertex  -2.638570e+02  1.256830e+03  8.719230e-01
    endloop
  endfacet
  facet normal  5.605543e-01 -6.936738e-01  4.523224e-01
    outer loop
      vertex  -2.434654e+02  1.288072e+03  1.611629e+01
      vertex  -2.223380e+02  1.298420e+03  5.803800e+00
      vertex  -2.004330e+02  1.319380e+03  1.080120e+01
    endloop
  endfacet
  facet normal -3.122854e-02  3.127126e-01  9.493343e-01
    outer loop
      vertex  -2.062030e+02  1.334510e+03  1.617770e+01
      vertex  -2.086070e+02  1.338970e+03  1.462950e+01
      vertex  -2.312050e+02  1.316330e+03  2.134380e+01
    endloop
  endfacet
  facet normal  5.164282e-01 -8.551938e-01 -4.410706e-02
    outer loop
      vertex  -3.174680e+02  1.220490e+03 -5.483450e+00
      vertex  -2.910600e+02  1.236020e+03  2.602510e+00
      vertex  -3.089810e+02  1.225210e+03  2.371000e+00
    endloop
  endfacet
  facet normal  1.468660e-01 -1.586385e-01  9.763525e-01
    outer loop
      vertex  -2.503000e+02  1.289910e+03  1.992340e+01
      vertex  -2.312050e+02  1.316330e+03  2.134380e+01
      vertex  -2.609950e+02  1.298190e+03  2.287750e+01
    endloop
  endfacet
  facet normal  4.897895e-01 -7.229518e-01 -4.872851e-01
    outer loop
      vertex  -3.338860e+02  1.221030e+03 -1.033140e+01
      vertex  -3.483980e+02  1.208990e+03 -7.055020e+00
      vertex  -3.610190e+02  1.203870e+03 -1.214470e+01
    endloop
  endfacet
  facet normal  3.037185e-02 -2.852307e-01  9.579775e-01
    outer loop
      vertex  -3.005770e+02  1.266890e+03  2.130390e+01
      vertex  -3.193380e+02  1.253730e+03  1.798040e+01
      vertex  -3.029870e+02  1.240840e+03  1.362410e+01
    endloop
  endfacet
  facet normal  7.133756e-01 -6.396548e-01 -2.862464e-01
    outer loop
      vertex  -2.181630e+02  1.334540e+03  7.872960e+00
      vertex  -2.067580e+02  1.345150e+03  1.258680e+01
      vertex  -2.162570e+02  1.334440e+03  1.284670e+01
    endloop
  endfacet
  facet normal  5.198424e-02 -2.599276e-01  9.642278e-01
    outer loop
      vertex  -3.193380e+02  1.253730e+03  1.798040e+01
      vertex  -3.193320e+02  1.230820e+03  1.180420e+01
      vertex  -3.029870e+02  1.240840e+03  1.362410e+01
    endloop
  endfacet
  facet normal -2.767859e-01  4.167920e-03  9.609226e-01
    outer loop
      vertex  -3.942020e+02  1.189980e+03 -1.219020e+01
      vertex  -3.935930e+02  1.185120e+03 -1.199370e+01
      vertex  -3.788520e+02  1.200160e+03 -7.812910e+00
    endloop
  endfacet
  facet normal -6.722378e-01  7.273178e-01  1.382220e-01
    outer loop
      vertex  -3.155190e+02  1.293410e+03  2.097930e+00
      vertex  -2.875290e+02  1.319270e+03  2.152360e+00
      vertex  -3.122730e+02  1.298250e+03 -7.582930e+00
    endloop
  endfacet
  facet normal -3.058661e-01  3.271305e-01 -8.941093e-01
    outer loop
      vertex  -2.959900e+02  1.313600e+03 -7.537050e+00
      vertex  -2.998140e+02  1.306220e+03 -8.929040e+00
      vertex  -3.122730e+02  1.298250e+03 -7.582930e+00
    endloop
  endfacet
  facet normal -4.861413e-01  8.695800e-01 -8.658699e-02
    outer loop
      vertex  -2.686700e+02  1.332790e+03 -4.938740e+00
      vertex  -2.548850e+02  1.341270e+03  2.828650e+00
      vertex  -2.186070e+02  1.361400e+03  1.308990e+00
    endloop
  endfacet
  facet normal -2.005821e-01 -2.815429e-02 -9.792723e-01
    outer loop
      vertex  -2.800170e+02  1.263180e+03 -1.597680e+01
      vertex  -2.453630e+02  1.287100e+03 -2.376260e+01
      vertex  -2.870660e+02  1.248510e+03 -1.411120e+01
    endloop
  endfacet
  facet normal  5.537164e-01 -6.392133e-01 -5.336707e-01
    outer loop
      vertex  -2.181630e+02  1.334540e+03  7.872960e+00
      vertex  -2.517530e+02  1.316320e+03 -5.155320e+00
      vertex  -2.319530e+02  1.334750e+03 -6.686510e+00
    endloop
  endfacet
  facet normal  5.858412e-01 -5.700351e-01 -5.760643e-01
    outer loop
      vertex  -2.441630e+02  1.277740e+03 -1.998300e+01
      vertex  -2.413700e+02  1.285520e+03 -2.484120e+01
      vertex  -2.128650e+02  1.303120e+03 -1.326820e+01
    endloop
  endfacet
  facet normal  3.490805e-01 -4.436072e-01 -8.254426e-01
    outer loop
      vertex  -2.517530e+02  1.316320e+03 -5.155320e+00
      vertex  -2.353150e+02  1.338070e+03 -9.892500e+00
      vertex  -2.319530e+02  1.334750e+03 -6.686510e+00
    endloop
  endfacet
  facet normal -1.320894e-01  1.155450e-01  9.844804e-01
    outer loop
      vertex  -3.005770e+02  1.266890e+03  2.130390e+01
      vertex  -2.719530e+02  1.295170e+03  2.182530e+01
      vertex  -2.818650e+02  1.301700e+03  1.972900e+01
    endloop
  endfacet
  facet normal -1.962190e-01  3.817198e-01  9.032099e-01
    outer loop
      vertex  -1.430894e+02  1.418865e+03 -6.573941e+00
      vertex  -1.540890e+02  1.408410e+03 -4.545090e+00
      vertex  -1.663610e+02  1.377380e+03  5.902960e+00
    endloop
  endfacet
  facet normal -2.452311e-01  4.145534e-02 -9.685779e-01
    outer loop
      vertex  -2.307820e+02  1.300320e+03 -2.688850e+01
      vertex  -2.413700e+02  1.285520e+03 -2.484120e+01
      vertex  -2.453630e+02  1.287100e+03 -2.376260e+01
    endloop
  endfacet
  facet normal  2.435483e-01 -2.691191e-01 -9.318043e-01
    outer loop
      vertex  -2.413700e+02  1.285520e+03 -2.484120e+01
      vertex  -2.105280e+02  1.318050e+03 -2.617510e+01
      vertex  -1.907030e+02  1.323840e+03 -2.266560e+01
    endloop
  endfacet
  facet normal  3.578074e-01 -3.743196e-01 -8.554873e-01
    outer loop
      vertex  -2.307820e+02  1.300320e+03 -2.688850e+01
      vertex  -2.105280e+02  1.318050e+03 -2.617510e+01
      vertex  -2.413700e+02  1.285520e+03 -2.484120e+01
    endloop
  endfacet
  facet normal -4.260961e-01  5.166331e-01 -7.426522e-01
    outer loop
      vertex  -2.105280e+02  1.318050e+03 -2.617510e+01
      vertex  -2.307820e+02  1.300320e+03 -2.688850e+01
      vertex  -2.236494e+02  1.317613e+03 -1.895046e+01
    endloop
  endfacet
  facet normal -5.507129e-01  4.396404e-01 -7.095290e-01
    outer loop
      vertex  -2.307820e+02  1.300320e+03 -2.688850e+01
      vertex  -2.453630e+02  1.287100e+03 -2.376260e+01
      vertex  -2.418890e+02  1.306290e+03 -1.456840e+01
    endloop
  endfacet
  facet normal -3.888051e-01  8.259173e-02  9.176106e-01
    outer loop
      vertex  -3.451262e+02  1.237234e+03  8.538374e+00
      vertex  -3.193380e+02  1.253730e+03  1.798040e+01
      vertex  -3.451544e+02  1.246131e+03  7.725567e+00
    endloop
  endfacet
  facet normal  3.302834e-01 -9.182026e-01  2.186707e-01
    outer loop
      vertex  -3.460060e+02  1.210590e+03 -3.949600e+00
      vertex  -3.483980e+02  1.208990e+03 -7.055020e+00
      vertex  -3.174680e+02  1.220490e+03 -5.483450e+00
    endloop
  endfacet
  facet normal -7.411377e-01  6.551663e-01 -1.465331e-01
    outer loop
      vertex  -2.066100e+02  1.340600e+03 -5.531470e+00
      vertex  -2.046490e+02  1.345720e+03  7.442240e+00
      vertex  -1.926310e+02  1.356390e+03 -5.635650e+00
    endloop
  endfacet
  facet normal -6.542592e-01  3.784400e-01 -6.547732e-01
    outer loop
      vertex  -1.663800e+02  1.385260e+03 -9.698940e+00
      vertex  -1.735998e+02  1.386141e+03 -1.975836e+00
      vertex  -1.542720e+02  1.408470e+03 -8.382750e+00
    endloop
  endfacet
  facet normal -3.574844e-01  6.883491e-01 -6.311738e-01
    outer loop
      vertex  -2.418890e+02  1.306290e+03 -1.456840e+01
      vertex  -2.702910e+02  1.297600e+03 -7.959340e+00
      vertex  -2.432400e+02  1.314110e+03 -5.274900e+00
    endloop
  endfacet
  facet normal  5.326809e-01 -8.444290e-01  5.648630e-02
    outer loop
      vertex  -2.128650e+02  1.303120e+03 -1.326820e+01
      vertex  -2.021520e+02  1.310570e+03 -2.923430e+00
      vertex  -2.223380e+02  1.298420e+03  5.803800e+00
    endloop
  endfacet
  facet normal  8.267829e-01 -5.583026e-01  6.876303e-02
    outer loop
      vertex  -1.595870e+02  1.354640e+03 -1.836080e+00
      vertex  -1.671010e+02  1.344180e+03  3.582770e+00
      vertex  -1.815510e+02  1.321286e+03 -8.552870e+00
    endloop
  endfacet
  facet normal  4.012877e-01 -2.225001e-01  8.885167e-01
    outer loop
      vertex  -1.783041e+02  1.331574e+03  5.485742e+00
      vertex  -1.671010e+02  1.344180e+03  3.582770e+00
      vertex  -1.811870e+02  1.349870e+03  1.136940e+01
    endloop
  endfacet
  facet normal  2.785352e-01 -2.115936e-01  9.368278e-01
    outer loop
      vertex  -2.416340e+02  1.321210e+03  2.086530e+01
      vertex  -2.327650e+02  1.322490e+03  1.851750e+01
      vertex  -2.179140e+02  1.336060e+03  1.716700e+01
    endloop
  endfacet
  facet normal -2.898165e-01  6.587521e-01 -6.942998e-01
    outer loop
      vertex  -2.686700e+02  1.332790e+03 -4.938740e+00
      vertex  -2.186070e+02  1.361400e+03  1.308990e+00
      vertex  -2.431990e+02  1.338950e+03 -9.726390e+00
    endloop
  endfacet
  facet normal  5.295686e-01 -8.193954e-01 -2.194269e-01
    outer loop
      vertex  -2.162570e+02  1.334440e+03  1.284670e+01
      vertex  -2.517530e+02  1.316320e+03 -5.155320e+00
      vertex  -2.181630e+02  1.334540e+03  7.872960e+00
    endloop
  endfacet
  facet normal -2.367768e-02  2.121940e-02 -9.994945e-01
    outer loop
      vertex  -3.212440e+02  1.252950e+03 -9.552300e+00
      vertex  -3.353870e+02  1.253760e+03 -9.200060e+00
      vertex  -2.998140e+02  1.306220e+03 -8.929040e+00
    endloop
  endfacet
  facet normal -4.804910e-01  6.124135e-01  6.277564e-01
    outer loop
      vertex  -1.850390e+02  1.417280e+03 -5.317120e+00
      vertex  -1.744177e+02  1.431072e+03 -1.064238e+01
      vertex  -1.811400e+02  1.424360e+03 -9.239700e+00
    endloop
  endfacet
  facet normal -8.130656e-01  4.627815e-01 -3.532104e-01
    outer loop
      vertex  -3.377950e+02  1.264960e+03 -6.428610e+00
      vertex  -3.568190e+02  1.229810e+03 -8.690640e+00
      vertex  -3.541790e+02  1.240890e+03 -2.506480e-01
    endloop
  endfacet
  facet normal  7.449531e-01  6.652743e-01 -4.954899e-02
    outer loop
      vertex  -1.463110e+02  1.422080e+03 -1.184270e+01
      vertex  -1.430894e+02  1.418865e+03 -6.573941e+00
      vertex  -1.423070e+02  1.417830e+03 -8.706930e+00
    endloop
  endfacet
  facet normal  5.156080e-01 -4.764580e-01 -7.121348e-01
    outer loop
      vertex  -2.078350e+02  1.358410e+03 -5.054210e+00
      vertex  -2.025120e+02  1.352690e+03  2.626880e+00
      vertex  -2.319530e+02  1.334750e+03 -6.686510e+00
    endloop
  endfacet
  facet normal -4.520885e-01  6.521091e-01  6.085801e-01
    outer loop
      vertex  -2.548850e+02  1.341270e+03  2.828650e+00
      vertex  -2.875290e+02  1.319270e+03  2.152360e+00
      vertex  -2.857340e+02  1.311480e+03  1.183300e+01
    endloop
  endfacet
  facet normal  5.689698e-01 -1.917743e-01 -7.996849e-01
    outer loop
      vertex  -1.829960e+02  1.398650e+03 -8.078270e+00
      vertex  -1.884520e+02  1.385480e+03 -8.801830e+00
      vertex  -1.851270e+02  1.406330e+03 -1.143620e+01
    endloop
  endfacet
  facet normal  5.564110e-01 -6.347759e-01 -5.361589e-01
    outer loop
      vertex  -2.319530e+02  1.334750e+03 -6.686510e+00
      vertex  -2.025120e+02  1.352690e+03  2.626880e+00
      vertex  -2.181630e+02  1.334540e+03  7.872960e+00
    endloop
  endfacet
  facet normal  6.570199e-01 -1.078214e-01  7.461229e-01
    outer loop
      vertex  -1.919680e+02  1.381660e+03 -3.715940e-01
      vertex  -1.879410e+02  1.379150e+03 -4.280410e+00
      vertex  -1.793600e+02  1.419680e+03 -5.979700e+00
    endloop
  endfacet
  facet normal  2.939719e-01 -4.685234e-01 -8.331065e-01
    outer loop
      vertex  -1.744177e+02  1.431072e+03 -1.064238e+01
      vertex  -1.793600e+02  1.419680e+03 -5.979700e+00
      vertex  -1.811400e+02  1.424360e+03 -9.239700e+00
    endloop
  endfacet
  facet normal  7.121857e-01 -6.685050e-01  2.142256e-01
    outer loop
      vertex  -1.670371e+02  1.436461e+03 -1.836285e+01
      vertex  -1.744177e+02  1.431072e+03 -1.064238e+01
      vertex  -1.811400e+02  1.424360e+03 -9.239700e+00
    endloop
  endfacet
  facet normal -6.299704e-02  4.013302e-01  9.137644e-01
    outer loop
      vertex  -1.744177e+02  1.431072e+03 -1.064238e+01
      vertex  -1.850390e+02  1.417280e+03 -5.317120e+00
      vertex  -1.793600e+02  1.419680e+03 -5.979700e+00
    endloop
  endfacet
  facet normal -3.827428e-01  2.295949e-01 -8.948710e-01
    outer loop
      vertex  -2.842040e+02  1.283940e+03 -8.859670e+00
      vertex  -2.681460e+02  1.284530e+03 -1.557640e+01
      vertex  -2.800170e+02  1.263180e+03 -1.597680e+01
    endloop
  endfacet
  facet normal  4.280773e-01 -6.520403e-01 -6.257741e-01
    outer loop
      vertex  -2.693140e+02  1.258050e+03 -1.667180e+01
      vertex  -2.441630e+02  1.277740e+03 -1.998300e+01
      vertex  -2.663340e+02  1.255430e+03 -1.190330e+01
    endloop
  endfacet
  facet normal  8.391727e-01 -5.143358e-01 -1.767705e-01
    outer loop
      vertex  -1.786660e+02  1.327330e+03 -1.294670e+01
      vertex  -1.605710e+02  1.355460e+03 -8.893070e+00
      vertex  -1.595870e+02  1.354640e+03 -1.836080e+00
    endloop
  endfacet
  facet normal  5.391891e-01 -8.224190e-01 -1.813895e-01
    outer loop
      vertex  -2.910600e+02  1.236020e+03  2.602510e+00
      vertex  -3.174680e+02  1.220490e+03 -5.483450e+00
      vertex  -2.663340e+02  1.255430e+03 -1.190330e+01
    endloop
  endfacet
  facet normal -6.270104e-01  5.074142e-01  5.910911e-01
    outer loop
      vertex  -3.394830e+02  1.263670e+03  2.207600e+00
      vertex  -3.119030e+02  1.287690e+03  1.084400e+01
      vertex  -3.155190e+02  1.293410e+03  2.097930e+00
    endloop
  endfacet
  facet normal -7.422101e-01  5.991676e-01  3.002036e-01
    outer loop
      vertex  -3.342070e+02  1.272970e+03 -3.309700e+00
      vertex  -3.394830e+02  1.263670e+03  2.207600e+00
      vertex  -3.155190e+02  1.293410e+03  2.097930e+00
    endloop
  endfacet
  facet normal -7.461326e-01  6.609421e-01  8.026037e-02
    outer loop
      vertex  -3.122730e+02  1.298250e+03 -7.582930e+00
      vertex  -3.342070e+02  1.272970e+03 -3.309700e+00
      vertex  -3.155190e+02  1.293410e+03  2.097930e+00
    endloop
  endfacet
  facet normal  7.093131e-02 -1.864488e-01 -9.799008e-01
    outer loop
      vertex  -2.078350e+02  1.358410e+03 -5.054210e+00
      vertex  -2.006150e+02  1.380990e+03 -8.827940e+00
      vertex  -1.884520e+02  1.385480e+03 -8.801830e+00
    endloop
  endfacet
  facet normal  8.012985e-01 -1.054498e-01 -5.888981e-01
    outer loop
      vertex  -1.811400e+02  1.424360e+03 -9.239700e+00
      vertex  -1.793600e+02  1.419680e+03 -5.979700e+00
      vertex  -1.851270e+02  1.406330e+03 -1.143620e+01
    endloop
  endfacet
  facet normal -7.569295e-01  6.479377e-01 -8.505457e-02
    outer loop
      vertex  -2.236090e+02  1.354070e+03 -9.270980e+00
      vertex  -2.080930e+02  1.372660e+03 -5.735520e+00
      vertex  -2.006150e+02  1.380990e+03 -8.827940e+00
    endloop
  endfacet
  facet normal  3.627573e-02 -7.579376e-02 -9.964635e-01
    outer loop
      vertex  -2.353150e+02  1.338070e+03 -9.892500e+00
      vertex  -2.698500e+02  1.303270e+03 -8.502750e+00
      vertex  -2.851720e+02  1.319180e+03 -1.027070e+01
    endloop
  endfacet
  facet normal  4.446921e-01 -7.427665e-01 -5.005466e-01
    outer loop
      vertex  -3.174680e+02  1.220490e+03 -5.483450e+00
      vertex  -2.946050e+02  1.238240e+03 -1.151110e+01
      vertex  -2.663340e+02  1.255430e+03 -1.190330e+01
    endloop
  endfacet
  facet normal -5.378442e-01  2.948558e-01  7.897997e-01
    outer loop
      vertex  -1.793600e+02  1.419680e+03 -5.979700e+00
      vertex  -1.959620e+02  1.392180e+03 -7.018900e+00
      vertex  -1.919680e+02  1.381660e+03 -3.715940e-01
    endloop
  endfacet
  facet normal -8.261963e-02  6.327616e-01  7.699265e-01
    outer loop
      vertex  -2.138470e+02  1.352730e+03  1.427980e+01
      vertex  -1.965350e+02  1.366590e+03  4.746740e+00
      vertex  -2.204120e+02  1.357940e+03  9.293530e+00
    endloop
  endfacet
  facet normal  4.363759e-01 -4.530380e-01  7.773884e-01
    outer loop
      vertex  -1.976570e+02  1.326880e+03  1.361370e+01
      vertex  -2.004330e+02  1.319380e+03  1.080120e+01
      vertex  -1.783041e+02  1.331574e+03  5.485742e+00
    endloop
  endfacet
  facet normal -4.917367e-01  5.225347e-01 -6.965289e-01
    outer loop
      vertex  -2.307820e+02  1.300320e+03 -2.688850e+01
      vertex  -2.418890e+02  1.306290e+03 -1.456840e+01
      vertex  -2.236494e+02  1.317613e+03 -1.895046e+01
    endloop
  endfacet
  facet normal -2.148176e-01  2.776826e-01 -9.363470e-01
    outer loop
      vertex  -3.212440e+02  1.252950e+03 -9.552300e+00
      vertex  -2.842040e+02  1.283940e+03 -8.859670e+00
      vertex  -2.800170e+02  1.263180e+03 -1.597680e+01
    endloop
  endfacet
  facet normal -5.522469e-01  5.965086e-01  5.824096e-01
    outer loop
      vertex  -2.875290e+02  1.319270e+03  2.152360e+00
      vertex  -3.155190e+02  1.293410e+03  2.097930e+00
      vertex  -2.857340e+02  1.311480e+03  1.183300e+01
    endloop
  endfacet
  facet normal  5.130919e-02 -1.332368e-01 -9.897552e-01
    outer loop
      vertex  -1.884520e+02  1.385480e+03 -8.801830e+00
      vertex  -2.006150e+02  1.380990e+03 -8.827940e+00
      vertex  -1.851270e+02  1.406330e+03 -1.143620e+01
    endloop
  endfacet
  facet normal  4.217957e-01 -1.736363e-01  8.899094e-01
    outer loop
      vertex  -1.671010e+02  1.344180e+03  3.582770e+00
      vertex  -1.639580e+02  1.353140e+03  3.841300e+00
      vertex  -1.811870e+02  1.349870e+03  1.136940e+01
    endloop
  endfacet
  facet normal  1.735510e-01 -1.416033e-01  9.745915e-01
    outer loop
      vertex  -1.959620e+02  1.392180e+03 -7.018900e+00
      vertex  -1.793600e+02  1.419680e+03 -5.979700e+00
      vertex  -1.850390e+02  1.417280e+03 -5.317120e+00
    endloop
  endfacet
  facet normal  4.265507e-01 -3.458465e-02  9.038023e-01
    outer loop
      vertex  -1.639580e+02  1.353140e+03  3.841300e+00
      vertex  -1.558560e+02  1.387600e+03  1.336190e+00
      vertex  -1.663610e+02  1.377380e+03  5.902960e+00
    endloop
  endfacet
  facet normal -4.978158e-01  7.642342e-01 -4.100311e-01
    outer loop
      vertex  -2.686700e+02  1.332790e+03 -4.938740e+00
      vertex  -2.851720e+02  1.319180e+03 -1.027070e+01
      vertex  -2.959900e+02  1.313600e+03 -7.537050e+00
    endloop
  endfacet
  facet normal  8.770529e-01 -4.802832e-01  1.030865e-02
    outer loop
      vertex  -2.067580e+02  1.345150e+03  1.258680e+01
      vertex  -2.025120e+02  1.352690e+03  2.626880e+00
      vertex  -1.879410e+02  1.379150e+03 -4.280410e+00
    endloop
  endfacet
  facet normal  3.330114e-01 -4.630060e-01  8.214189e-01
    outer loop
      vertex  -2.503000e+02  1.289910e+03  1.992340e+01
      vertex  -3.029870e+02  1.240840e+03  1.362410e+01
      vertex  -2.434654e+02  1.288072e+03  1.611629e+01
    endloop
  endfacet
  facet normal -3.613170e-01  3.961812e-01  8.440916e-01
    outer loop
      vertex  -1.959620e+02  1.392180e+03 -7.018900e+00
      vertex  -1.965350e+02  1.366590e+03  4.746740e+00
      vertex  -1.919680e+02  1.381660e+03 -3.715940e-01
    endloop
  endfacet
  facet normal  1.353279e-02  1.878578e-01  9.821030e-01
    outer loop
      vertex  -1.939540e+02  1.356670e+03  1.024460e+01
      vertex  -1.811870e+02  1.349870e+03  1.136940e+01
      vertex  -1.663610e+02  1.377380e+03  5.902960e+00
    endloop
  endfacet
  facet normal -5.108406e-01  3.685333e-01  7.766757e-01
    outer loop
      vertex  -1.959620e+02  1.392180e+03 -7.018900e+00
      vertex  -2.080930e+02  1.372660e+03 -5.735520e+00
      vertex  -1.965350e+02  1.366590e+03  4.746740e+00
    endloop
  endfacet
  facet normal -6.623638e-01  3.550878e-01 -6.596870e-01
    outer loop
      vertex  -1.735998e+02  1.386141e+03 -1.975836e+00
      vertex  -1.663800e+02  1.385260e+03 -9.698940e+00
      vertex  -2.046490e+02  1.345720e+03  7.442240e+00
    endloop
  endfacet
  facet normal  8.012382e-01 -3.036045e-01 -5.155984e-01
    outer loop
      vertex  -1.879410e+02  1.379150e+03 -4.280410e+00
      vertex  -1.884520e+02  1.385480e+03 -8.801830e+00
      vertex  -1.829960e+02  1.398650e+03 -8.078270e+00
    endloop
  endfacet
  facet normal -5.727421e-01  8.169216e-01  6.786421e-02
    outer loop
      vertex  -2.611710e+02  1.301690e+03  1.977580e+01
      vertex  -2.086070e+02  1.338970e+03  1.462950e+01
      vertex  -2.702910e+02  1.297600e+03 -7.959340e+00
    endloop
  endfacet
  facet normal  7.644326e-01 -6.819355e-02 -6.410869e-01
    outer loop
      vertex  -1.851270e+02  1.406330e+03 -1.143620e+01
      vertex  -1.793600e+02  1.419680e+03 -5.979700e+00
      vertex  -1.829960e+02  1.398650e+03 -8.078270e+00
    endloop
  endfacet
  facet normal  7.048925e-01  2.711388e-02  7.087958e-01
    outer loop
      vertex  -1.965350e+02  1.366590e+03  4.746740e+00
      vertex  -1.879410e+02  1.379150e+03 -4.280410e+00
      vertex  -1.919680e+02  1.381660e+03 -3.715940e-01
    endloop
  endfacet
  facet normal  6.488522e-01 -3.341225e-01 -6.836321e-01
    outer loop
      vertex  -1.731210e+02  1.343150e+03 -1.541580e+01
      vertex  -1.786660e+02  1.327330e+03 -1.294670e+01
      vertex  -1.907030e+02  1.323840e+03 -2.266560e+01
    endloop
  endfacet
  facet normal  1.494943e-02  7.360840e-03 -9.998612e-01
    outer loop
      vertex  -2.698500e+02  1.303270e+03 -8.502750e+00
      vertex  -2.842040e+02  1.283940e+03 -8.859670e+00
      vertex  -2.998140e+02  1.306220e+03 -8.929040e+00
    endloop
  endfacet
  facet normal -8.431547e-02 -5.406415e-01  8.370171e-01
    outer loop
      vertex  -3.193320e+02  1.230820e+03  1.180420e+01
      vertex  -3.469360e+02  1.222890e+03  3.901500e+00
      vertex  -3.460060e+02  1.210590e+03 -3.949600e+00
    endloop
  endfacet
  facet normal -3.519596e-02  7.566644e-02 -9.965119e-01
    outer loop
      vertex  -3.446410e+02  1.220940e+03 -1.115650e+01
      vertex  -3.561280e+02  1.220820e+03 -1.075990e+01
      vertex  -3.212440e+02  1.252950e+03 -9.552300e+00
    endloop
  endfacet
  facet normal -1.394750e-01 -5.868801e-02 -9.884849e-01
    outer loop
      vertex  -3.212440e+02  1.252950e+03 -9.552300e+00
      vertex  -2.800170e+02  1.263180e+03 -1.597680e+01
      vertex  -2.870660e+02  1.248510e+03 -1.411120e+01
    endloop
  endfacet
  facet normal -1.511672e-01  2.561104e-01  9.547544e-01
    outer loop
      vertex  -2.416340e+02  1.321210e+03  2.086530e+01
      vertex  -2.457730e+02  1.334130e+03  1.674420e+01
      vertex  -2.818650e+02  1.301700e+03  1.972900e+01
    endloop
  endfacet
  facet normal -8.566797e-01  5.135286e-01  4.887103e-02
    outer loop
      vertex  -1.540890e+02  1.408410e+03 -4.545090e+00
      vertex  -1.463110e+02  1.422080e+03 -1.184270e+01
      vertex  -1.542720e+02  1.408470e+03 -8.382750e+00
    endloop
  endfacet
  facet normal -1.225803e-01  7.270712e-02 -9.897917e-01
    outer loop
      vertex  -3.212440e+02  1.252950e+03 -9.552300e+00
      vertex  -2.870660e+02  1.248510e+03 -1.411120e+01
      vertex  -3.338860e+02  1.221030e+03 -1.033140e+01
    endloop
  endfacet
  facet normal -7.487214e-01  6.612848e-01  4.603076e-02
    outer loop
      vertex  -1.735998e+02  1.386141e+03 -1.975836e+00
      vertex  -1.540890e+02  1.408410e+03 -4.545090e+00
      vertex  -1.542720e+02  1.408470e+03 -8.382750e+00
    endloop
  endfacet
  facet normal -1.209189e-01  1.189663e-01 -9.855078e-01
    outer loop
      vertex  -1.542720e+02  1.408470e+03 -8.382750e+00
      vertex  -1.614340e+02  1.370870e+03 -1.204290e+01
      vertex  -1.663800e+02  1.385260e+03 -9.698940e+00
    endloop
  endfacet
  facet normal -1.578548e-01 -5.397426e-01  8.268977e-01
    outer loop
      vertex  -3.606500e+02  1.215070e+03 -3.820910e+00
      vertex  -3.460060e+02  1.210590e+03 -3.949600e+00
      vertex  -3.469360e+02  1.222890e+03  3.901500e+00
    endloop
  endfacet
  facet normal  9.587697e-01 -2.342456e-01 -1.609031e-01
    outer loop
      vertex  -1.605710e+02  1.355460e+03 -8.893070e+00
      vertex  -1.530390e+02  1.385620e+03 -7.919840e+00
      vertex  -1.595870e+02  1.354640e+03 -1.836080e+00
    endloop
  endfacet
  facet normal  6.072208e-01 -1.263314e-01 -7.844254e-01
    outer loop
      vertex  -1.605710e+02  1.355460e+03 -8.893070e+00
      vertex  -1.614340e+02  1.370870e+03 -1.204290e+01
      vertex  -1.530390e+02  1.385620e+03 -7.919840e+00
    endloop
  endfacet
  facet normal  8.021154e-01 -1.636759e-01  5.743005e-01
    outer loop
      vertex  -1.639580e+02  1.353140e+03  3.841300e+00
      vertex  -1.595870e+02  1.354640e+03 -1.836080e+00
      vertex  -1.430894e+02  1.418865e+03 -6.573941e+00
    endloop
  endfacet
  facet normal -3.626820e-01  4.240926e-01 -8.298236e-01
    outer loop
      vertex  -2.702910e+02  1.297600e+03 -7.959340e+00
      vertex  -2.681460e+02  1.284530e+03 -1.557640e+01
      vertex  -2.842040e+02  1.283940e+03 -8.859670e+00
    endloop
  endfacet
  facet normal -6.252718e-02  1.846681e-01 -9.808099e-01
    outer loop
      vertex  -2.353150e+02  1.338070e+03 -9.892500e+00
      vertex  -2.851720e+02  1.319180e+03 -1.027070e+01
      vertex  -2.670880e+02  1.331430e+03 -9.117120e+00
    endloop
  endfacet
  facet normal  5.145697e-01 -4.704901e-01 -7.168382e-01
    outer loop
      vertex  -2.025120e+02  1.352690e+03  2.626880e+00
      vertex  -1.884520e+02  1.385480e+03 -8.801830e+00
      vertex  -1.879410e+02  1.379150e+03 -4.280410e+00
    endloop
  endfacet
  facet normal -5.466937e-01  8.326223e-01 -8.869054e-02
    outer loop
      vertex  -2.086070e+02  1.338970e+03  1.462950e+01
      vertex  -2.223700e+02  1.327760e+03 -5.773120e+00
      vertex  -2.432400e+02  1.314110e+03 -5.274900e+00
    endloop
  endfacet
  facet normal -6.525062e-01  1.955561e-01 -7.321157e-01
    outer loop
      vertex  -1.614340e+02  1.370870e+03 -1.204290e+01
      vertex  -1.542720e+02  1.408470e+03 -8.382750e+00
      vertex  -1.463110e+02  1.422080e+03 -1.184270e+01
    endloop
  endfacet
  facet normal -1.888767e-01 -2.804058e-01  9.411153e-01
    outer loop
      vertex  -3.193320e+02  1.230820e+03  1.180420e+01
      vertex  -3.451262e+02  1.237234e+03  8.538374e+00
      vertex  -3.469360e+02  1.222890e+03  3.901500e+00
    endloop
  endfacet
  facet normal -6.529441e-01  6.270943e-01  4.247549e-01
    outer loop
      vertex  -1.939540e+02  1.356670e+03  1.024460e+01
      vertex  -1.721430e+02  1.383330e+03  4.413180e+00
      vertex  -1.735998e+02  1.386141e+03 -1.975836e+00
    endloop
  endfacet
  facet normal  4.655161e-01 -5.956055e-01  6.546364e-01
    outer loop
      vertex  -2.434654e+02  1.288072e+03  1.611629e+01
      vertex  -3.014660e+02  1.235260e+03  9.311560e+00
      vertex  -2.557040e+02  1.271070e+03  9.350730e+00
    endloop
  endfacet
  facet normal -6.316293e-01  7.752705e-01  1.158036e-04
    outer loop
      vertex  -2.066100e+02  1.340600e+03 -5.531470e+00
      vertex  -2.223700e+02  1.327760e+03 -5.773120e+00
      vertex  -2.086070e+02  1.338970e+03  1.462950e+01
    endloop
  endfacet
  facet normal  5.137834e-01 -8.209715e-01 -2.490629e-01
    outer loop
      vertex  -1.815510e+02  1.321286e+03 -8.552870e+00
      vertex  -2.128650e+02  1.303120e+03 -1.326820e+01
      vertex  -1.876150e+02  1.320370e+03 -1.804100e+01
    endloop
  endfacet
  facet normal  1.587573e-01  4.171880e-01  8.948466e-01
    outer loop
      vertex  -1.965350e+02  1.366590e+03  4.746740e+00
      vertex  -2.138470e+02  1.352730e+03  1.427980e+01
      vertex  -2.020980e+02  1.354950e+03  1.116040e+01
    endloop
  endfacet
  facet normal -6.679091e-01  7.260311e-01  1.636345e-01
    outer loop
      vertex  -2.204120e+02  1.357940e+03  9.293530e+00
      vertex  -2.080930e+02  1.372660e+03 -5.735520e+00
      vertex  -2.186070e+02  1.361400e+03  1.308990e+00
    endloop
  endfacet
  facet normal -6.299028e-01  4.568588e-01  6.280943e-01
    outer loop
      vertex  -3.198620e+02  1.271430e+03  1.468910e+01
      vertex  -3.119030e+02  1.287690e+03  1.084400e+01
      vertex  -3.451544e+02  1.246131e+03  7.725567e+00
    endloop
  endfacet
  facet normal  7.661499e-02 -1.579559e-02 -9.969357e-01
    outer loop
      vertex  -3.446410e+02  1.220940e+03 -1.115650e+01
      vertex  -3.338860e+02  1.221030e+03 -1.033140e+01
      vertex  -3.610190e+02  1.203870e+03 -1.214470e+01
    endloop
  endfacet
  facet normal -5.762069e-01  8.169180e-01  2.511234e-02
    outer loop
      vertex  -2.686700e+02  1.332790e+03 -4.938740e+00
      vertex  -2.959900e+02  1.313600e+03 -7.537050e+00
      vertex  -2.875290e+02  1.319270e+03  2.152360e+00
    endloop
  endfacet
  facet normal  6.688712e-01 -7.101309e-01  2.198301e-01
    outer loop
      vertex  -2.327650e+02  1.322490e+03  1.851750e+01
      vertex  -2.067580e+02  1.345150e+03  1.258680e+01
      vertex  -2.179140e+02  1.336060e+03  1.716700e+01
    endloop
  endfacet
  facet normal  5.826022e-01 -5.011961e-01  6.398258e-01
    outer loop
      vertex  -2.327650e+02  1.322490e+03  1.851750e+01
      vertex  -2.162570e+02  1.334440e+03  1.284670e+01
      vertex  -2.067580e+02  1.345150e+03  1.258680e+01
    endloop
  endfacet
  facet normal -4.010678e-01  3.661921e-01 -8.396713e-01
    outer loop
      vertex  -2.959900e+02  1.313600e+03 -7.537050e+00
      vertex  -2.851720e+02  1.319180e+03 -1.027070e+01
      vertex  -2.998140e+02  1.306220e+03 -8.929040e+00
    endloop
  endfacet
  facet normal -2.454705e-01  1.994853e-01 -9.486569e-01
    outer loop
      vertex  -3.561280e+02  1.220820e+03 -1.075990e+01
      vertex  -3.568190e+02  1.229810e+03 -8.690640e+00
      vertex  -3.353870e+02  1.253760e+03 -9.200060e+00
    endloop
  endfacet
  facet normal  3.307534e-01 -9.228842e-01  1.971981e-01
    outer loop
      vertex  -3.174680e+02  1.220490e+03 -5.483450e+00
      vertex  -3.089810e+02  1.225210e+03  2.371000e+00
      vertex  -3.460060e+02  1.210590e+03 -3.949600e+00
    endloop
  endfacet
  facet normal  1.121555e-01 -3.204656e-01 -9.405971e-01
    outer loop
      vertex  -2.870660e+02  1.248510e+03 -1.411120e+01
      vertex  -2.946050e+02  1.238240e+03 -1.151110e+01
      vertex  -3.338860e+02  1.221030e+03 -1.033140e+01
    endloop
  endfacet
  facet normal -3.731473e-01  4.871282e-01  7.895994e-01
    outer loop
      vertex  -2.436820e+02  1.340760e+03  1.364210e+01
      vertex  -2.857340e+02  1.311480e+03  1.183300e+01
      vertex  -2.457730e+02  1.334130e+03  1.674420e+01
    endloop
  endfacet
  facet normal  4.222162e-01 -2.165444e-01  8.802511e-01
    outer loop
      vertex  -1.976570e+02  1.326880e+03  1.361370e+01
      vertex  -1.783041e+02  1.331574e+03  5.485742e+00
      vertex  -1.811870e+02  1.349870e+03  1.136940e+01
    endloop
  endfacet
  facet normal  4.801382e-01 -1.809509e-01 -8.583263e-01
    outer loop
      vertex  -1.423070e+02  1.417830e+03 -8.706930e+00
      vertex  -1.530390e+02  1.385620e+03 -7.919840e+00
      vertex  -1.463110e+02  1.422080e+03 -1.184270e+01
    endloop
  endfacet
  facet normal -2.137642e-02  6.071554e-02 -9.979262e-01
    outer loop
      vertex  -3.561280e+02  1.220820e+03 -1.075990e+01
      vertex  -3.353870e+02  1.253760e+03 -9.200060e+00
      vertex  -3.212440e+02  1.252950e+03 -9.552300e+00
    endloop
  endfacet
  facet normal -5.515676e-01  6.859359e-01 -4.746210e-01
    outer loop
      vertex  -2.223700e+02  1.327760e+03 -5.773120e+00
      vertex  -2.066100e+02  1.340600e+03 -5.531470e+00
      vertex  -2.236494e+02  1.317613e+03 -1.895046e+01
    endloop
  endfacet
  facet normal  4.010181e-01 -6.736823e-01 -6.207550e-01
    outer loop
      vertex  -2.663340e+02  1.255430e+03 -1.190330e+01
      vertex  -2.946050e+02  1.238240e+03 -1.151110e+01
      vertex  -2.693140e+02  1.258050e+03 -1.667180e+01
    endloop
  endfacet
  facet normal -7.419822e-01  6.537796e-01 -1.484406e-01
    outer loop
      vertex  -2.046490e+02  1.345720e+03  7.442240e+00
      vertex  -1.663800e+02  1.385260e+03 -9.698940e+00
      vertex  -1.926310e+02  1.356390e+03 -5.635650e+00
    endloop
  endfacet
  facet normal  7.160600e-01 -1.183449e-01  6.879336e-01
    outer loop
      vertex  -1.430894e+02  1.418865e+03 -6.573941e+00
      vertex  -1.558560e+02  1.387600e+03  1.336190e+00
      vertex  -1.639580e+02  1.353140e+03  3.841300e+00
    endloop
  endfacet
  facet normal  5.290685e-01 -8.201960e-01 -2.176351e-01
    outer loop
      vertex  -2.162570e+02  1.334440e+03  1.284670e+01
      vertex  -2.517180e+02  1.309670e+03  1.999110e+01
      vertex  -2.517530e+02  1.316320e+03 -5.155320e+00
    endloop
  endfacet
  facet normal  6.736009e-01 -3.386333e-01 -6.569547e-01
    outer loop
      vertex  -1.786660e+02  1.327330e+03 -1.294670e+01
      vertex  -1.731210e+02  1.343150e+03 -1.541580e+01
      vertex  -1.605710e+02  1.355460e+03 -8.893070e+00
    endloop
  endfacet
  facet normal -5.301926e-01  4.558464e-01  7.149125e-01
    outer loop
      vertex  -3.788520e+02  1.200160e+03 -7.812910e+00
      vertex  -3.606500e+02  1.215070e+03 -3.820910e+00
      vertex  -3.602260e+02  1.219710e+03 -6.465070e+00
    endloop
  endfacet
  facet normal -5.229341e-01  6.132321e-01 -5.920187e-01
    outer loop
      vertex  -2.236494e+02  1.317613e+03 -1.895046e+01
      vertex  -2.418890e+02  1.306290e+03 -1.456840e+01
      vertex  -2.432400e+02  1.314110e+03 -5.274900e+00
    endloop
  endfacet
  facet normal -4.509930e-01  7.379413e-01  5.020438e-01
    outer loop
      vertex  -2.548850e+02  1.341270e+03  2.828650e+00
      vertex  -2.436820e+02  1.340760e+03  1.364210e+01
      vertex  -2.204120e+02  1.357940e+03  9.293530e+00
    endloop
  endfacet
  facet normal -6.563299e-01  6.239622e-01  4.241489e-01
    outer loop
      vertex  -1.735998e+02  1.386141e+03 -1.975836e+00
      vertex  -1.721430e+02  1.383330e+03  4.413180e+00
      vertex  -1.540890e+02  1.408410e+03 -4.545090e+00
    endloop
  endfacet
  facet normal -8.231688e-01  4.842011e-01 -2.965509e-01
    outer loop
      vertex  -3.377950e+02  1.264960e+03 -6.428610e+00
      vertex  -3.541790e+02  1.240890e+03 -2.506480e-01
      vertex  -3.342070e+02  1.272970e+03 -3.309700e+00
    endloop
  endfacet
  facet normal  8.526719e-01 -2.732189e-01  4.453113e-01
    outer loop
      vertex  -1.430894e+02  1.418865e+03 -6.573941e+00
      vertex  -1.530390e+02  1.385620e+03 -7.919840e+00
      vertex  -1.423070e+02  1.417830e+03 -8.706930e+00
    endloop
  endfacet
  facet normal -5.579039e-01  8.250812e-01  8.935358e-02
    outer loop
      vertex  -2.686700e+02  1.332790e+03 -4.938740e+00
      vertex  -2.875290e+02  1.319270e+03  2.152360e+00
      vertex  -2.548850e+02  1.341270e+03  2.828650e+00
    endloop
  endfacet
  facet normal -6.761038e-01  7.166895e-01  1.709963e-01
    outer loop
      vertex  -2.875290e+02  1.319270e+03  2.152360e+00
      vertex  -2.959900e+02  1.313600e+03 -7.537050e+00
      vertex  -3.122730e+02  1.298250e+03 -7.582930e+00
    endloop
  endfacet
  facet normal  3.243276e-01  5.914857e-02 -9.440938e-01
    outer loop
      vertex  -1.761620e+02  1.353140e+03 -1.583460e+01
      vertex  -1.731210e+02  1.343150e+03 -1.541580e+01
      vertex  -1.907030e+02  1.323840e+03 -2.266560e+01
    endloop
  endfacet
  facet normal -7.769608e-01 -2.537453e-01  5.761468e-01
    outer loop
      vertex  -3.487860e+02  1.239310e+03  6.326041e+00
      vertex  -3.541790e+02  1.240890e+03 -2.506480e-01
      vertex  -3.568190e+02  1.229810e+03 -8.690640e+00
    endloop
  endfacet
  facet normal  7.382969e-01 -6.139874e-01  2.791723e-01
    outer loop
      vertex  -1.783041e+02  1.331574e+03  5.485742e+00
      vertex  -1.815510e+02  1.321286e+03 -8.552870e+00
      vertex  -1.671010e+02  1.344180e+03  3.582770e+00
    endloop
  endfacet
  facet normal -6.299768e-01 -1.100264e-01 -7.687804e-01
    outer loop
      vertex  -3.935930e+02  1.185120e+03 -1.199370e+01
      vertex  -3.942020e+02  1.189980e+03 -1.219020e+01
      vertex  -3.889770e+02  1.191350e+03 -1.666790e+01
    endloop
  endfacet
  facet normal -8.760002e-02  2.771362e-01  9.568290e-01
    outer loop
      vertex  -2.138470e+02  1.352730e+03  1.427980e+01
      vertex  -2.457730e+02  1.334130e+03  1.674420e+01
      vertex  -2.416340e+02  1.321210e+03  2.086530e+01
    endloop
  endfacet
  facet normal -5.404658e-01  8.394355e-01 -5.696300e-02
    outer loop
      vertex  -3.942020e+02  1.189980e+03 -1.219020e+01
      vertex  -3.788520e+02  1.200160e+03 -7.812910e+00
      vertex  -3.827020e+02  1.197270e+03 -1.387270e+01
    endloop
  endfacet
  facet normal -4.038995e-01  1.556684e-01  9.014614e-01
    outer loop
      vertex  -3.193380e+02  1.253730e+03  1.798040e+01
      vertex  -3.198620e+02  1.271430e+03  1.468910e+01
      vertex  -3.451544e+02  1.246131e+03  7.725567e+00
    endloop
  endfacet
  facet normal -8.301268e-01  3.313850e-01  4.484121e-01
    outer loop
      vertex  -3.451262e+02  1.237234e+03  8.538374e+00
      vertex  -3.602260e+02  1.219710e+03 -6.465070e+00
      vertex  -3.606500e+02  1.215070e+03 -3.820910e+00
    endloop
  endfacet
  facet normal -1.040400e-01  1.573414e-01  9.820486e-01
    outer loop
      vertex  -2.818650e+02  1.301700e+03  1.972900e+01
      vertex  -2.719530e+02  1.295170e+03  2.182530e+01
      vertex  -2.416340e+02  1.321210e+03  2.086530e+01
    endloop
  endfacet
  facet normal -4.595600e-01  8.481150e-01  2.636393e-01
    outer loop
      vertex  -2.204120e+02  1.357940e+03  9.293530e+00
      vertex  -2.186070e+02  1.361400e+03  1.308990e+00
      vertex  -2.548850e+02  1.341270e+03  2.828650e+00
    endloop
  endfacet
  facet normal -5.112155e-01  8.584496e-01  4.150881e-02
    outer loop
      vertex  -2.702910e+02  1.297600e+03 -7.959340e+00
      vertex  -2.719530e+02  1.295170e+03  2.182530e+01
      vertex  -2.611710e+02  1.301690e+03  1.977580e+01
    endloop
  endfacet
  facet normal  6.360637e-01 -7.263898e-01 -2.603476e-01
    outer loop
      vertex  -2.663340e+02  1.255430e+03 -1.190330e+01
      vertex  -2.441630e+02  1.277740e+03 -1.998300e+01
      vertex  -2.630770e+02  1.256320e+03 -6.428840e+00
    endloop
  endfacet
  facet normal -4.403114e-01  4.520937e-01  7.757171e-01
    outer loop
      vertex  -3.119030e+02  1.287690e+03  1.084400e+01
      vertex  -2.818650e+02  1.301700e+03  1.972900e+01
      vertex  -2.857340e+02  1.311480e+03  1.183300e+01
    endloop
  endfacet
  facet normal  1.666839e-01 -4.409035e-01 -8.819413e-01
    outer loop
      vertex  -3.483980e+02  1.208990e+03 -7.055020e+00
      vertex  -3.338860e+02  1.221030e+03 -1.033140e+01
      vertex  -2.946050e+02  1.238240e+03 -1.151110e+01
    endloop
  endfacet
  facet normal  6.016519e-02  2.970734e-01  9.529573e-01
    outer loop
      vertex  -1.540890e+02  1.408410e+03 -4.545090e+00
      vertex  -1.721430e+02  1.383330e+03  4.413180e+00
      vertex  -1.663610e+02  1.377380e+03  5.902960e+00
    endloop
  endfacet
  facet normal  8.495681e-01 -1.154021e-01 -5.147004e-01
    outer loop
      vertex  -2.702910e+02  1.297600e+03 -7.959340e+00
      vertex  -2.698500e+02  1.303270e+03 -8.502750e+00
      vertex  -2.517180e+02  1.309670e+03  1.999110e+01
    endloop
  endfacet
  facet normal -3.281831e-01  4.348518e-01 -8.385701e-01
    outer loop
      vertex  -2.702910e+02  1.297600e+03 -7.959340e+00
      vertex  -2.418890e+02  1.306290e+03 -1.456840e+01
      vertex  -2.681460e+02  1.284530e+03 -1.557640e+01
    endloop
  endfacet
  facet normal  2.791240e-01 -1.993220e-01  9.393405e-01
    outer loop
      vertex  -2.312050e+02  1.316330e+03  2.134380e+01
      vertex  -2.374690e+02  1.299080e+03  1.954480e+01
      vertex  -1.976570e+02  1.326880e+03  1.361370e+01
    endloop
  endfacet
  facet normal -6.287344e-01  4.862930e-01 -6.068049e-01
    outer loop
      vertex  -1.926310e+02  1.356390e+03 -5.635650e+00
      vertex  -1.663800e+02  1.385260e+03 -9.698940e+00
      vertex  -1.912040e+02  1.351990e+03 -1.064040e+01
    endloop
  endfacet
  facet normal -1.313460e-02 -2.363374e-01 -9.715823e-01
    outer loop
      vertex  -2.870660e+02  1.248510e+03 -1.411120e+01
      vertex  -2.693140e+02  1.258050e+03 -1.667180e+01
      vertex  -2.946050e+02  1.238240e+03 -1.151110e+01
    endloop
  endfacet
  facet normal  5.129251e-01 -7.446667e-01  4.270589e-01
    outer loop
      vertex  -1.815510e+02  1.321286e+03 -8.552870e+00
      vertex  -1.783041e+02  1.331574e+03  5.485742e+00
      vertex  -2.004330e+02  1.319380e+03  1.080120e+01
    endloop
  endfacet
  facet normal -2.777033e-01  1.918664e-01  9.413119e-01
    outer loop
      vertex  -3.198620e+02  1.271430e+03  1.468910e+01
      vertex  -3.005770e+02  1.266890e+03  2.130390e+01
      vertex  -2.818650e+02  1.301700e+03  1.972900e+01
    endloop
  endfacet
  facet normal -3.791663e-01  6.598002e-01 -6.487654e-01
    outer loop
      vertex  -2.105280e+02  1.318050e+03 -2.617510e+01
      vertex  -2.236494e+02  1.317613e+03 -1.895046e+01
      vertex  -2.066100e+02  1.340600e+03 -5.531470e+00
    endloop
  endfacet
  facet normal  2.356383e-01  1.097549e-01  9.656233e-01
    outer loop
      vertex  -2.020980e+02  1.354950e+03  1.116040e+01
      vertex  -2.138470e+02  1.352730e+03  1.427980e+01
      vertex  -2.179140e+02  1.336060e+03  1.716700e+01
    endloop
  endfacet
  facet normal  4.269212e-02  1.749001e-01 -9.836602e-01
    outer loop
      vertex  -1.761620e+02  1.353140e+03 -1.583460e+01
      vertex  -1.663800e+02  1.385260e+03 -9.698940e+00
      vertex  -1.614340e+02  1.370870e+03 -1.204290e+01
    endloop
  endfacet
  facet normal  8.731408e-02 -2.612451e-02 -9.958383e-01
    outer loop
      vertex  -3.827020e+02  1.197270e+03 -1.387270e+01
      vertex  -3.446410e+02  1.220940e+03 -1.115650e+01
      vertex  -3.610190e+02  1.203870e+03 -1.214470e+01
    endloop
  endfacet
  facet normal -6.846076e-01  3.847558e-01 -6.190925e-01
    outer loop
      vertex  -2.080930e+02  1.372660e+03 -5.735520e+00
      vertex  -1.959620e+02  1.392180e+03 -7.018900e+00
      vertex  -2.006150e+02  1.380990e+03 -8.827940e+00
    endloop
  endfacet
  facet normal  5.462771e-01 -8.245487e-01 -1.473120e-01
    outer loop
      vertex  -2.327650e+02  1.322490e+03  1.851750e+01
      vertex  -2.517180e+02  1.309670e+03  1.999110e+01
      vertex  -2.162570e+02  1.334440e+03  1.284670e+01
    endloop
  endfacet
  facet normal  2.478423e-01 -5.492388e-01  7.980670e-01
    outer loop
      vertex  -3.014660e+02  1.235260e+03  9.311560e+00
      vertex  -3.029870e+02  1.240840e+03  1.362410e+01
      vertex  -3.193320e+02  1.230820e+03  1.180420e+01
    endloop
  endfacet
  facet normal -3.032083e-01  5.362564e-01  7.877143e-01
    outer loop
      vertex  -2.611710e+02  1.301690e+03  1.977580e+01
      vertex  -2.312050e+02  1.316330e+03  2.134380e+01
      vertex  -2.086070e+02  1.338970e+03  1.462950e+01
    endloop
  endfacet
  facet normal -5.882955e-01  5.167171e-01 -6.220224e-01
    outer loop
      vertex  -1.926310e+02  1.356390e+03 -5.635650e+00
      vertex  -1.912040e+02  1.351990e+03 -1.064040e+01
      vertex  -2.066100e+02  1.340600e+03 -5.531470e+00
    endloop
  endfacet
  facet normal -3.738316e-01  4.886034e-01  7.883633e-01
    outer loop
      vertex  -2.857340e+02  1.311480e+03  1.183300e+01
      vertex  -2.818650e+02  1.301700e+03  1.972900e+01
      vertex  -2.457730e+02  1.334130e+03  1.674420e+01
    endloop
  endfacet
  facet normal -2.664689e-01 -1.553663e-02 -9.637182e-01
    outer loop
      vertex  -2.413700e+02  1.285520e+03 -2.484120e+01
      vertex  -2.693140e+02  1.258050e+03 -1.667180e+01
      vertex  -2.453630e+02  1.287100e+03 -2.376260e+01
    endloop
  endfacet
  facet normal  2.408340e-01 -5.586344e-02  9.689573e-01
    outer loop
      vertex  -2.312050e+02  1.316330e+03  2.134380e+01
      vertex  -1.976570e+02  1.326880e+03  1.361370e+01
      vertex  -2.062030e+02  1.334510e+03  1.617770e+01
    endloop
  endfacet
  facet normal  5.800956e-01 -8.138375e-01 -3.402560e-02
    outer loop
      vertex  -2.702910e+02  1.297600e+03 -7.959340e+00
      vertex  -2.517180e+02  1.309670e+03  1.999110e+01
      vertex  -2.719530e+02  1.295170e+03  2.182530e+01
    endloop
  endfacet
  facet normal  6.488693e-01 -3.338340e-01 -6.837568e-01
    outer loop
      vertex  -1.786660e+02  1.327330e+03 -1.294670e+01
      vertex  -1.876150e+02  1.320370e+03 -1.804100e+01
      vertex  -1.907030e+02  1.323840e+03 -2.266560e+01
    endloop
  endfacet
  facet normal  6.930744e-01 -6.100610e-01 -3.840225e-01
    outer loop
      vertex  -1.876150e+02  1.320370e+03 -1.804100e+01
      vertex  -1.786660e+02  1.327330e+03 -1.294670e+01
      vertex  -1.815510e+02  1.321286e+03 -8.552870e+00
    endloop
  endfacet
  facet normal  3.418505e-01 -4.441410e-01  8.281769e-01
    outer loop
      vertex  -2.503000e+02  1.289910e+03  1.992340e+01
      vertex  -2.434654e+02  1.288072e+03  1.611629e+01
      vertex  -2.374690e+02  1.299080e+03  1.954480e+01
    endloop
  endfacet
  facet normal  5.498422e-01 -8.302179e-01 -9.171617e-02
    outer loop
      vertex  -2.128650e+02  1.303120e+03 -1.326820e+01
      vertex  -2.413700e+02  1.285520e+03 -2.484120e+01
      vertex  -1.876150e+02  1.320370e+03 -1.804100e+01
    endloop
  endfacet
  facet normal -5.812792e-01 -1.787789e-01  7.938215e-01
    outer loop
      vertex  -3.451262e+02  1.237234e+03  8.538374e+00
      vertex  -3.487860e+02  1.239310e+03  6.326041e+00
      vertex  -3.602260e+02  1.219710e+03 -6.465070e+00
    endloop
  endfacet
  facet normal  5.677866e-01 -6.228821e-01  5.381786e-01
    outer loop
      vertex  -2.557040e+02  1.271070e+03  9.350730e+00
      vertex  -2.223380e+02  1.298420e+03  5.803800e+00
      vertex  -2.434654e+02  1.288072e+03  1.611629e+01
    endloop
  endfacet
  facet normal -4.868990e-01  7.594182e-01 -4.315242e-01
    outer loop
      vertex  -2.670880e+02  1.331430e+03 -9.117120e+00
      vertex  -2.851720e+02  1.319180e+03 -1.027070e+01
      vertex  -2.686700e+02  1.332790e+03 -4.938740e+00
    endloop
  endfacet
  facet normal -7.189632e-01  6.237299e-01  3.066805e-01
    outer loop
      vertex  -1.735998e+02  1.386141e+03 -1.975836e+00
      vertex  -2.046490e+02  1.345720e+03  7.442240e+00
      vertex  -1.939540e+02  1.356670e+03  1.024460e+01
    endloop
  endfacet
  facet normal  1.342981e-02  6.296061e-03 -9.998901e-01
    outer loop
      vertex  -2.842040e+02  1.283940e+03 -8.859670e+00
      vertex  -3.212440e+02  1.252950e+03 -9.552300e+00
      vertex  -2.998140e+02  1.306220e+03 -8.929040e+00
    endloop
  endfacet
  facet normal -3.664479e-01 -2.440203e-01  8.978697e-01
    outer loop
      vertex  -3.469360e+02  1.222890e+03  3.901500e+00
      vertex  -3.451262e+02  1.237234e+03  8.538374e+00
      vertex  -3.606500e+02  1.215070e+03 -3.820910e+00
    endloop
  endfacet
  facet normal -3.118110e-01  5.364707e-01 -7.842022e-01
    outer loop
      vertex  -1.912040e+02  1.351990e+03 -1.064040e+01
      vertex  -1.761620e+02  1.353140e+03 -1.583460e+01
      vertex  -2.105280e+02  1.318050e+03 -2.617510e+01
    endloop
  endfacet
  facet normal  4.841591e-01 -8.663584e-01  1.225280e-01
    outer loop
      vertex  -2.128650e+02  1.303120e+03 -1.326820e+01
      vertex  -1.815510e+02  1.321286e+03 -8.552870e+00
      vertex  -2.021520e+02  1.310570e+03 -2.923430e+00
    endloop
  endfacet
  facet normal  2.728714e-01 -7.887467e-01  5.508356e-01
    outer loop
      vertex  -3.193320e+02  1.230820e+03  1.180420e+01
      vertex  -3.460060e+02  1.210590e+03 -3.949600e+00
      vertex  -3.014660e+02  1.235260e+03  9.311560e+00
    endloop
  endfacet
  facet normal  5.525839e-02  1.572927e-01  9.860049e-01
    outer loop
      vertex  -2.138470e+02  1.352730e+03  1.427980e+01
      vertex  -2.416340e+02  1.321210e+03  2.086530e+01
      vertex  -2.179140e+02  1.336060e+03  1.716700e+01
    endloop
  endfacet
  facet normal -6.343392e-01  6.347785e-01 -4.412144e-01
    outer loop
      vertex  -3.788520e+02  1.200160e+03 -7.812910e+00
      vertex  -3.602260e+02  1.219710e+03 -6.465070e+00
      vertex  -3.561280e+02  1.220820e+03 -1.075990e+01
    endloop
  endfacet
  facet normal -7.558252e-01  6.483031e-01 -9.182214e-02
    outer loop
      vertex  -2.080930e+02  1.372660e+03 -5.735520e+00
      vertex  -2.236090e+02  1.354070e+03 -9.270980e+00
      vertex  -2.186070e+02  1.361400e+03  1.308990e+00
    endloop
  endfacet
  facet normal  3.397758e-01 -4.148020e-01 -8.440922e-01
    outer loop
      vertex  -2.431990e+02  1.338950e+03 -9.726390e+00
      vertex  -2.236090e+02  1.354070e+03 -9.270980e+00
      vertex  -2.078350e+02  1.358410e+03 -5.054210e+00
    endloop
  endfacet
  facet normal -3.376269e-01  6.147274e-01  7.128241e-01
    outer loop
      vertex  -2.609950e+02  1.298190e+03  2.287750e+01
      vertex  -2.312050e+02  1.316330e+03  2.134380e+01
      vertex  -2.611710e+02  1.301690e+03  1.977580e+01
    endloop
  endfacet
  facet normal  7.108123e-01 -6.725139e-01 -2.060848e-01
    outer loop
      vertex  -2.067580e+02  1.345150e+03  1.258680e+01
      vertex  -2.181630e+02  1.334540e+03  7.872960e+00
      vertex  -2.025120e+02  1.352690e+03  2.626880e+00
    endloop
  endfacet
  facet normal -2.058325e-01  4.672267e-01  8.598443e-01
    outer loop
      vertex  -2.436820e+02  1.340760e+03  1.364210e+01
      vertex  -2.457730e+02  1.334130e+03  1.674420e+01
      vertex  -2.138470e+02  1.352730e+03  1.427980e+01
    endloop
  endfacet
  facet normal  5.757808e-01 -6.357588e-01  5.140887e-01
    outer loop
      vertex  -2.557040e+02  1.271070e+03  9.350730e+00
      vertex  -2.638570e+02  1.256830e+03  8.719230e-01
      vertex  -2.223380e+02  1.298420e+03  5.803800e+00
    endloop
  endfacet
  facet normal -5.936772e-01  5.087112e-01 -6.235065e-01
    outer loop
      vertex  -3.342070e+02  1.272970e+03 -3.309700e+00
      vertex  -2.998140e+02  1.306220e+03 -8.929040e+00
      vertex  -3.377950e+02  1.264960e+03 -6.428610e+00
    endloop
  endfacet
  facet normal -5.327513e-01  7.498881e-01 -3.922294e-01
    outer loop
      vertex  -3.889770e+02  1.191350e+03 -1.666790e+01
      vertex  -3.942020e+02  1.189980e+03 -1.219020e+01
      vertex  -3.827020e+02  1.197270e+03 -1.387270e+01
    endloop
  endfacet
  facet normal -4.266835e-01  4.006009e-01  8.108391e-01
    outer loop
      vertex  -2.818650e+02  1.301700e+03  1.972900e+01
      vertex  -3.119030e+02  1.287690e+03  1.084400e+01
      vertex  -3.198620e+02  1.271430e+03  1.468910e+01
    endloop
  endfacet
  facet normal -2.844557e-01  1.671164e-01  9.440112e-01
    outer loop
      vertex  -3.193380e+02  1.253730e+03  1.798040e+01
      vertex  -3.005770e+02  1.266890e+03  2.130390e+01
      vertex  -3.198620e+02  1.271430e+03  1.468910e+01
    endloop
  endfacet
  facet normal -7.388659e-01  3.954398e-01 -5.456232e-01
    outer loop
      vertex  -1.959620e+02  1.392180e+03 -7.018900e+00
      vertex  -1.851270e+02  1.406330e+03 -1.143620e+01
      vertex  -2.006150e+02  1.380990e+03 -8.827940e+00
    endloop
  endfacet
  facet normal  9.058828e-01 -2.575027e-01 -3.362567e-01
    outer loop
      vertex  -1.530390e+02  1.385620e+03 -7.919840e+00
      vertex  -1.430894e+02  1.418865e+03 -6.573941e+00
      vertex  -1.595870e+02  1.354640e+03 -1.836080e+00
    endloop
  endfacet
  facet normal -4.974470e-01  8.461459e-01 -1.912687e-01
    outer loop
      vertex  -2.702910e+02  1.297600e+03 -7.959340e+00
      vertex  -2.086070e+02  1.338970e+03  1.462950e+01
      vertex  -2.432400e+02  1.314110e+03 -5.274900e+00
    endloop
  endfacet
  facet normal  1.957491e-04 -1.668365e-01 -9.859846e-01
    outer loop
      vertex  -2.998140e+02  1.306220e+03 -8.929040e+00
      vertex  -3.342070e+02  1.272970e+03 -3.309700e+00
      vertex  -3.122730e+02  1.298250e+03 -7.582930e+00
    endloop
  endfacet
  facet normal -7.185954e-01  2.493841e-01  6.491750e-01
    outer loop
      vertex  -3.487860e+02  1.239310e+03  6.326041e+00
      vertex  -3.451544e+02  1.246131e+03  7.725567e+00
      vertex  -3.541790e+02  1.240890e+03 -2.506480e-01
    endloop
  endfacet
  facet normal -7.260827e-01  4.087468e-01  5.529284e-01
    outer loop
      vertex  -3.394830e+02  1.263670e+03  2.207600e+00
      vertex  -3.541790e+02  1.240890e+03 -2.506480e-01
      vertex  -3.451544e+02  1.246131e+03  7.725567e+00
    endloop
  endfacet
  facet normal -2.311893e-01  1.865736e-01 -9.548517e-01
    outer loop
      vertex  -3.568190e+02  1.229810e+03 -8.690640e+00
      vertex  -3.377950e+02  1.264960e+03 -6.428610e+00
      vertex  -3.353870e+02  1.253760e+03 -9.200060e+00
    endloop
  endfacet
  facet normal -1.837915e-01 -2.559033e-01  9.490702e-01
    outer loop
      vertex  -3.193320e+02  1.230820e+03  1.180420e+01
      vertex  -3.193380e+02  1.253730e+03  1.798040e+01
      vertex  -3.451262e+02  1.237234e+03  8.538374e+00
    endloop
  endfacet
  facet normal -6.069568e-01  2.270017e-01 -7.616257e-01
    outer loop
      vertex  -1.851270e+02  1.406330e+03 -1.143620e+01
      vertex  -1.959620e+02  1.392180e+03 -7.018900e+00
      vertex  -1.811400e+02  1.424360e+03 -9.239700e+00
    endloop
  endfacet
  facet normal  1.684769e-01 -1.070135e-01 -9.798794e-01
    outer loop
      vertex  -2.702910e+02  1.297600e+03 -7.959340e+00
      vertex  -2.842040e+02  1.283940e+03 -8.859670e+00
      vertex  -2.698500e+02  1.303270e+03 -8.502750e+00
    endloop
  endfacet
  facet normal  4.655384e-01 -5.956339e-01  6.545946e-01
    outer loop
      vertex  -2.910600e+02  1.236020e+03  2.602510e+00
      vertex  -2.557040e+02  1.271070e+03  9.350730e+00
      vertex  -3.014660e+02  1.235260e+03  9.311560e+00
    endloop
  endfacet
  facet normal  5.586136e-01 -1.359589e-01 -8.182090e-01
    outer loop
      vertex  -1.614340e+02  1.370870e+03 -1.204290e+01
      vertex  -1.605710e+02  1.355460e+03 -8.893070e+00
      vertex  -1.731210e+02  1.343150e+03 -1.541580e+01
    endloop
  endfacet
  facet normal  4.211400e-01 -3.722304e-01 -8.270947e-01
    outer loop
      vertex  -2.353150e+02  1.338070e+03 -9.892500e+00
      vertex  -2.078350e+02  1.358410e+03 -5.054210e+00
      vertex  -2.319530e+02  1.334750e+03 -6.686510e+00
    endloop
  endfacet
  facet normal -8.998351e-01  4.029248e-01 -1.671780e-01
    outer loop
      vertex  -1.850390e+02  1.417280e+03 -5.317120e+00
      vertex  -1.811400e+02  1.424360e+03 -9.239700e+00
      vertex  -1.959620e+02  1.392180e+03 -7.018900e+00
    endloop
  endfacet
  facet normal  1.123513e-01 -6.201759e-01  7.763755e-01
    outer loop
      vertex  -3.014660e+02  1.235260e+03  9.311560e+00
      vertex  -3.460060e+02  1.210590e+03 -3.949600e+00
      vertex  -3.089810e+02  1.225210e+03  2.371000e+00
    endloop
  endfacet
  facet normal -2.852484e-01  8.743615e-01 -3.925880e-01
    outer loop
      vertex  -2.670880e+02  1.331430e+03 -9.117120e+00
      vertex  -2.686700e+02  1.332790e+03 -4.938740e+00
      vertex  -2.431990e+02  1.338950e+03 -9.726390e+00
    endloop
  endfacet
  facet normal -1.244006e-01  1.077279e-01  9.863666e-01
    outer loop
      vertex  -2.719530e+02  1.295170e+03  2.182530e+01
      vertex  -3.005770e+02  1.266890e+03  2.130390e+01
      vertex  -2.609950e+02  1.298190e+03  2.287750e+01
    endloop
  endfacet
  facet normal  4.640542e-03  2.254723e-01 -9.742385e-01
    outer loop
      vertex  -2.078350e+02  1.358410e+03 -5.054210e+00
      vertex  -2.353150e+02  1.338070e+03 -9.892500e+00
      vertex  -2.431990e+02  1.338950e+03 -9.726390e+00
    endloop
  endfacet
  facet normal  4.321717e-01 -4.524822e-01  7.800561e-01
    outer loop
      vertex  -2.374690e+02  1.299080e+03  1.954480e+01
      vertex  -2.004330e+02  1.319380e+03  1.080120e+01
      vertex  -1.976570e+02  1.326880e+03  1.361370e+01
    endloop
  endfacet
  facet normal  5.064966e-01 -7.530565e-01  4.199608e-01
    outer loop
      vertex  -1.815510e+02  1.321286e+03 -8.552870e+00
      vertex  -2.004330e+02  1.319380e+03  1.080120e+01
      vertex  -2.021520e+02  1.310570e+03 -2.923430e+00
    endloop
  endfacet
  facet normal -2.222349e-02 -1.039769e-02 -9.996991e-01
    outer loop
      vertex  -2.431990e+02  1.338950e+03 -9.726390e+00
      vertex  -2.353150e+02  1.338070e+03 -9.892500e+00
      vertex  -2.670880e+02  1.331430e+03 -9.117120e+00
    endloop
  endfacet
  facet normal  4.449117e-01 -5.480528e-01 -7.083020e-01
    outer loop
      vertex  -1.907030e+02  1.323840e+03 -2.266560e+01
      vertex  -1.876150e+02  1.320370e+03 -1.804100e+01
      vertex  -2.413700e+02  1.285520e+03 -2.484120e+01
    endloop
  endfacet
  facet normal -7.256147e-01  6.538282e-01  2.144576e-01
    outer loop
      vertex  -2.046490e+02  1.345720e+03  7.442240e+00
      vertex  -2.086070e+02  1.338970e+03  1.462950e+01
      vertex  -1.939540e+02  1.356670e+03  1.024460e+01
    endloop
  endfacet
  facet normal  5.971362e-01 -7.752765e-01 -2.058510e-01
    outer loop
      vertex  -2.698500e+02  1.303270e+03 -8.502750e+00
      vertex  -2.517530e+02  1.316320e+03 -5.155320e+00
      vertex  -2.517180e+02  1.309670e+03  1.999110e+01
    endloop
  endfacet
  facet normal -8.175890e-02  4.950757e-01 -8.649946e-01
    outer loop
      vertex  -3.827020e+02  1.197270e+03 -1.387270e+01
      vertex  -3.610190e+02  1.203870e+03 -1.214470e+01
      vertex  -3.889770e+02  1.191350e+03 -1.666790e+01
    endloop
  endfacet
  facet normal -5.774781e-01  4.090262e-01  7.065527e-01
    outer loop
      vertex  -3.394830e+02  1.263670e+03  2.207600e+00
      vertex  -3.451544e+02  1.246131e+03  7.725567e+00
      vertex  -3.119030e+02  1.287690e+03  1.084400e+01
    endloop
  endfacet
  facet normal -4.808054e-01  7.166823e-01 -5.051662e-01
    outer loop
      vertex  -2.236494e+02  1.317613e+03 -1.895046e+01
      vertex  -2.432400e+02  1.314110e+03 -5.274900e+00
      vertex  -2.223700e+02  1.327760e+03 -5.773120e+00
    endloop
  endfacet
  facet normal  7.818652e-01 -6.105443e-01  1.261836e-01
    outer loop
      vertex  -2.441630e+02  1.277740e+03 -1.998300e+01
      vertex  -2.638570e+02  1.256830e+03  8.719230e-01
      vertex  -2.630770e+02  1.256320e+03 -6.428840e+00
    endloop
  endfacet
  facet normal -2.288654e-02 -2.192178e-01 -9.754075e-01
    outer loop
      vertex  -2.453630e+02  1.287100e+03 -2.376260e+01
      vertex  -2.693140e+02  1.258050e+03 -1.667180e+01
      vertex  -2.870660e+02  1.248510e+03 -1.411120e+01
    endloop
  endfacet
  facet normal -3.460838e-01  4.555989e-01 -8.201558e-01
    outer loop
      vertex  -2.453630e+02  1.287100e+03 -2.376260e+01
      vertex  -2.681460e+02  1.284530e+03 -1.557640e+01
      vertex  -2.418890e+02  1.306290e+03 -1.456840e+01
    endloop
  endfacet
  facet normal  1.375187e-01 -1.520124e-01  9.787650e-01
    outer loop
      vertex  -2.312050e+02  1.316330e+03  2.134380e+01
      vertex  -2.503000e+02  1.289910e+03  1.992340e+01
      vertex  -2.374690e+02  1.299080e+03  1.954480e+01
    endloop
  endfacet
  facet normal -2.333535e-01 -7.794760e-01  5.813461e-01
    outer loop
      vertex  -3.606500e+02  1.215070e+03 -3.820910e+00
      vertex  -3.483980e+02  1.208990e+03 -7.055020e+00
      vertex  -3.460060e+02  1.210590e+03 -3.949600e+00
    endloop
  endfacet
  facet normal  2.591287e-01 -5.927319e-01 -7.625754e-01
    outer loop
      vertex  -3.483980e+02  1.208990e+03 -7.055020e+00
      vertex  -2.946050e+02  1.238240e+03 -1.151110e+01
      vertex  -3.174680e+02  1.220490e+03 -5.483450e+00
    endloop
  endfacet
  facet normal -6.661757e-01  7.425875e-01  6.909341e-02
    outer loop
      vertex  -3.827020e+02  1.197270e+03 -1.387270e+01
      vertex  -3.788520e+02  1.200160e+03 -7.812910e+00
      vertex  -3.561280e+02  1.220820e+03 -1.075990e+01
    endloop
  endfacet
  facet normal -8.411996e-01  5.326062e-01  9.334779e-02
    outer loop
      vertex  -3.541790e+02  1.240890e+03 -2.506480e-01
      vertex  -3.394830e+02  1.263670e+03  2.207600e+00
      vertex  -3.342070e+02  1.272970e+03 -3.309700e+00
    endloop
  endfacet
  facet normal  2.852336e-01 -3.177487e-01  9.042552e-01
    outer loop
      vertex  -2.416340e+02  1.321210e+03  2.086530e+01
      vertex  -2.517180e+02  1.309670e+03  1.999110e+01
      vertex  -2.327650e+02  1.322490e+03  1.851750e+01
    endloop
  endfacet
  facet normal  5.921577e-01 -7.098093e-01  3.814709e-01
    outer loop
      vertex  -2.223380e+02  1.298420e+03  5.803800e+00
      vertex  -2.021520e+02  1.310570e+03 -2.923430e+00
      vertex  -2.004330e+02  1.319380e+03  1.080120e+01
    endloop
  endfacet
  facet normal -3.577920e-02  1.705304e-01 -9.847026e-01
    outer loop
      vertex  -3.561280e+02  1.220820e+03 -1.075990e+01
      vertex  -3.446410e+02  1.220940e+03 -1.115650e+01
      vertex  -3.827020e+02  1.197270e+03 -1.387270e+01
    endloop
  endfacet
  facet normal  7.654141e-02 -5.978601e-03 -9.970485e-01
    outer loop
      vertex  -3.338860e+02  1.221030e+03 -1.033140e+01
      vertex  -3.446410e+02  1.220940e+03 -1.115650e+01
      vertex  -3.212440e+02  1.252950e+03 -9.552300e+00
    endloop
  endfacet
  facet normal  3.672426e-01 -5.040490e-01  7.817080e-01
    outer loop
      vertex  -2.434654e+02  1.288072e+03  1.611629e+01
      vertex  -3.029870e+02  1.240840e+03  1.362410e+01
      vertex  -3.014660e+02  1.235260e+03  9.311560e+00
    endloop
  endfacet
  facet normal  3.612697e-01 -5.837485e-01 -7.271326e-01
    outer loop
      vertex  -2.693140e+02  1.258050e+03 -1.667180e+01
      vertex  -2.413700e+02  1.285520e+03 -2.484120e+01
      vertex  -2.441630e+02  1.277740e+03 -1.998300e+01
    endloop
  endfacet
  facet normal -1.721886e-02  2.270736e-01  9.737254e-01
    outer loop
      vertex  -1.663610e+02  1.377380e+03  5.902960e+00
      vertex  -1.721430e+02  1.383330e+03  4.413180e+00
      vertex  -1.939540e+02  1.356670e+03  1.024460e+01
    endloop
  endfacet
  facet normal  6.418827e-01 -7.523482e-01 -1.481852e-01
    outer loop
      vertex  -2.638570e+02  1.256830e+03  8.719230e-01
      vertex  -2.441630e+02  1.277740e+03 -1.998300e+01
      vertex  -2.128650e+02  1.303120e+03 -1.326820e+01
    endloop
  endfacet
  facet normal -8.983002e-01  3.588783e-01  2.535016e-01
    outer loop
      vertex  -3.487860e+02  1.239310e+03  6.326041e+00
      vertex  -3.568190e+02  1.229810e+03 -8.690640e+00
      vertex  -3.602260e+02  1.219710e+03 -6.465070e+00
    endloop
  endfacet
  facet normal  3.610202e-03 -1.070062e-01 -9.942518e-01
    outer loop
      vertex  -2.851720e+02  1.319180e+03 -1.027070e+01
      vertex  -2.698500e+02  1.303270e+03 -8.502750e+00
      vertex  -2.998140e+02  1.306220e+03 -8.929040e+00
    endloop
  endfacet
  facet normal  5.370051e-01 -8.228794e-01 -1.857281e-01
    outer loop
      vertex  -2.910600e+02  1.236020e+03  2.602510e+00
      vertex  -2.663340e+02  1.255430e+03 -1.190330e+01
      vertex  -2.630770e+02  1.256320e+03 -6.428840e+00
    endloop
  endfacet
  facet normal  1.246213e-01  1.662065e-01 -9.781845e-01
    outer loop
      vertex  -1.907030e+02  1.323840e+03 -2.266560e+01
      vertex  -2.105280e+02  1.318050e+03 -2.617510e+01
      vertex  -1.761620e+02  1.353140e+03 -1.583460e+01
    endloop
  endfacet
  facet normal  4.131735e-01 -7.222642e-01 -5.546370e-01
    outer loop
      vertex  -3.935930e+02  1.185120e+03 -1.199370e+01
      vertex  -3.889770e+02  1.191350e+03 -1.666790e+01
      vertex  -3.610190e+02  1.203870e+03 -1.214470e+01
    endloop
  endfacet
  facet normal  5.231621e-01 -6.367810e-01  5.664021e-01
    outer loop
      vertex  -2.638570e+02  1.256830e+03  8.719230e-01
      vertex  -2.557040e+02  1.271070e+03  9.350730e+00
      vertex  -2.910600e+02  1.236020e+03  2.602510e+00
    endloop
  endfacet
  facet normal  6.080121e-01 -7.848393e-01  1.197851e-01
    outer loop
      vertex  -2.910600e+02  1.236020e+03  2.602510e+00
      vertex  -2.630770e+02  1.256320e+03 -6.428840e+00
      vertex  -2.638570e+02  1.256830e+03  8.719230e-01
    endloop
  endfacet
  facet normal -2.575670e-01  1.795607e-01 -9.494299e-01
    outer loop
      vertex  -3.377950e+02  1.264960e+03 -6.428610e+00
      vertex  -2.998140e+02  1.306220e+03 -8.929040e+00
      vertex  -3.353870e+02  1.253760e+03 -9.200060e+00
    endloop
  endfacet
  facet normal -7.325736e-01  9.871019e-02 -6.734926e-01
    outer loop
      vertex  -3.602260e+02  1.219710e+03 -6.465070e+00
      vertex  -3.568190e+02  1.229810e+03 -8.690640e+00
      vertex  -3.561280e+02  1.220820e+03 -1.075990e+01
    endloop
  endfacet
  facet normal  1.167273e-01 -1.965573e-01  9.735194e-01
    outer loop
      vertex  -2.503000e+02  1.289910e+03  1.992340e+01
      vertex  -2.609950e+02  1.298190e+03  2.287750e+01
      vertex  -3.005770e+02  1.266890e+03  2.130390e+01
    endloop
  endfacet
  facet normal -4.571342e-01  6.070898e-01  6.499771e-01
    outer loop
      vertex  -1.463110e+02  1.422080e+03 -1.184270e+01
      vertex  -1.540890e+02  1.408410e+03 -4.545090e+00
      vertex  -1.430894e+02  1.418865e+03 -6.573941e+00
    endloop
  endfacet
  facet normal  1.599115e-01 -2.927203e-01  9.427317e-01
    outer loop
      vertex  -3.005770e+02  1.266890e+03  2.130390e+01
      vertex  -3.029870e+02  1.240840e+03  1.362410e+01
      vertex  -2.503000e+02  1.289910e+03  1.992340e+01
    endloop
  endfacet
  facet normal  4.190311e-01 -7.068768e-01  5.698581e-01
    outer loop
      vertex  -3.014660e+02  1.235260e+03  9.311560e+00
      vertex  -3.089810e+02  1.225210e+03  2.371000e+00
      vertex  -2.910600e+02  1.236020e+03  2.602510e+00
    endloop
  endfacet
  facet normal -6.110725e-01  5.896453e-01 -5.281182e-01
    outer loop
      vertex  -2.066100e+02  1.340600e+03 -5.531470e+00
      vertex  -1.912040e+02  1.351990e+03 -1.064040e+01
      vertex  -2.105280e+02  1.318050e+03 -2.617510e+01
    endloop
  endfacet
  facet normal  7.640921e-02 -3.438612e-01  9.359066e-01
    outer loop
      vertex  -3.483980e+02  1.208990e+03 -7.055020e+00
      vertex  -3.606500e+02  1.215070e+03 -3.820910e+00
      vertex  -3.788520e+02  1.200160e+03 -7.812910e+00
    endloop
  endfacet
  facet normal -5.871188e-01  7.683658e-01 -2.547657e-01
    outer loop
      vertex  -2.236090e+02  1.354070e+03 -9.270980e+00
      vertex  -2.431990e+02  1.338950e+03 -9.726390e+00
      vertex  -2.186070e+02  1.361400e+03  1.308990e+00
    endloop
  endfacet
  facet normal  3.371682e-01 -3.605121e-01  8.696831e-01
    outer loop
      vertex  -2.517180e+02  1.309670e+03  1.999110e+01
      vertex  -2.416340e+02  1.321210e+03  2.086530e+01
      vertex  -2.719530e+02  1.295170e+03  2.182530e+01
    endloop
  endfacet
  facet normal -4.828928e-01  7.814398e-02  8.721858e-01
    outer loop
      vertex  -3.451544e+02  1.246131e+03  7.725567e+00
      vertex  -3.487860e+02  1.239310e+03  6.326041e+00
      vertex  -3.451262e+02  1.237234e+03  8.538374e+00
    endloop
  endfacet
endsolid vcg
