solid STL generated by MeshLab
  facet normal -3.544718e-01  6.445348e-01 -6.774397e-01
    outer loop
      vertex  -2.850440e+02  1.348080e+03 -6.766780e+01
      vertex  -2.745040e+02  1.355840e+03 -6.579980e+01
      vertex  -2.484605e+02  1.363152e+03 -7.247038e+01
    endloop
  endfacet
  facet normal -6.951808e-01  6.967067e-01 -1.769840e-01
    outer loop
      vertex  -1.855690e+02  1.378700e+03 -6.744720e+01
      vertex  -1.960790e+02  1.370520e+03 -5.836540e+01
      vertex  -1.755840e+02  1.391000e+03 -5.824780e+01
    endloop
  endfacet
  facet normal  3.422708e-01  2.470770e-01  9.065339e-01
    outer loop
      vertex  -1.880010e+02  1.353710e+03 -4.485040e+01
      vertex  -1.749670e+02  1.373730e+03 -5.522800e+01
      vertex  -1.862880e+02  1.367090e+03 -4.914390e+01
    endloop
  endfacet
  facet normal -6.396306e-01  4.965066e-01  5.868168e-01
    outer loop
      vertex  -2.035360e+02  1.331190e+03 -3.757900e+01
      vertex  -1.957740e+02  1.355080e+03 -4.933180e+01
      vertex  -2.089590e+02  1.349740e+03 -5.918530e+01
    endloop
  endfacet
  facet normal -5.589579e-01  7.922916e-01  2.446223e-01
    outer loop
      vertex  -2.242660e+02  1.351600e+03 -7.785500e+01
      vertex  -2.514340e+02  1.330520e+03 -7.165890e+01
      vertex  -2.184360e+02  1.353150e+03 -6.955390e+01
    endloop
  endfacet
  facet normal -4.251648e-01  4.467209e-01  7.871946e-01
    outer loop
      vertex  -2.410970e+02  1.355420e+03 -4.738770e+01
      vertex  -2.336060e+02  1.352680e+03 -4.178690e+01
      vertex  -2.136380e+02  1.372200e+03 -4.207940e+01
    endloop
  endfacet
  facet normal  4.984336e-01 -7.972882e-01 -3.404342e-01
    outer loop
      vertex  -2.266560e+02  1.349920e+03 -7.122690e+01
      vertex  -2.237670e+02  1.344760e+03 -5.491240e+01
      vertex  -2.549020e+02  1.335250e+03 -7.822530e+01
    endloop
  endfacet
  facet normal  8.077583e-01 -4.767894e-01 -3.466965e-01
    outer loop
      vertex  -2.615860e+02  1.253230e+03 -6.091910e+01
      vertex  -2.337590e+02  1.304580e+03 -6.670410e+01
      vertex  -2.553060e+02  1.255410e+03 -4.928560e+01
    endloop
  endfacet
  facet normal  1.292164e-01  5.022482e-02 -9.903436e-01
    outer loop
      vertex  -1.967510e+02  1.360230e+03 -7.796310e+01
      vertex  -2.347090e+02  1.329610e+03 -8.446860e+01
      vertex  -2.265130e+02  1.346000e+03 -8.256800e+01
    endloop
  endfacet
  facet normal  4.380401e-01 -4.344043e-01 -7.870284e-01
    outer loop
      vertex  -3.343330e+02  1.189580e+03 -5.696040e+01
      vertex  -3.155310e+02  1.212710e+03 -5.926240e+01
      vertex  -3.233500e+02  1.193060e+03 -5.276840e+01
    endloop
  endfacet
  facet normal  1.505551e-01  2.242638e-01 -9.628286e-01
    outer loop
      vertex  -2.513140e+02  1.352240e+03 -8.014970e+01
      vertex  -2.290060e+02  1.362730e+03 -7.421810e+01
      vertex  -2.327580e+02  1.353790e+03 -7.688710e+01
    endloop
  endfacet
  facet normal -4.725456e-01  6.318998e-01  6.143315e-01
    outer loop
      vertex  -2.514340e+02  1.330520e+03 -7.165890e+01
      vertex  -2.600400e+02  1.315020e+03 -6.233540e+01
      vertex  -2.184360e+02  1.353150e+03 -6.955390e+01
    endloop
  endfacet
  facet normal  7.106063e-01 -4.876798e-01  5.071559e-01
    outer loop
      vertex  -3.024840e+02  1.274950e+03 -6.716040e+01
      vertex  -2.834855e+02  1.302601e+03 -6.719136e+01
      vertex  -2.902460e+02  1.306230e+03 -5.422900e+01
    endloop
  endfacet
  facet normal -5.186855e-01  4.899654e-01 -7.006420e-01
    outer loop
      vertex  -2.732070e+02  1.311100e+03 -8.040440e+01
      vertex  -2.776286e+02  1.299543e+03 -8.521301e+01
      vertex  -2.861256e+02  1.302876e+03 -7.659206e+01
    endloop
  endfacet
  facet normal -5.761767e-01  4.576894e-01  6.771564e-01
    outer loop
      vertex  -2.184360e+02  1.353150e+03 -6.955390e+01
      vertex  -2.089590e+02  1.349740e+03 -5.918530e+01
      vertex  -2.073920e+02  1.363700e+03 -6.728750e+01
    endloop
  endfacet
  facet normal  2.021002e-01 -3.312784e-01  9.216344e-01
    outer loop
      vertex  -3.071210e+02  1.293670e+03 -5.504320e+01
      vertex  -2.902460e+02  1.306230e+03 -5.422900e+01
      vertex  -3.022950e+02  1.307940e+03 -5.097220e+01
    endloop
  endfacet
  facet normal -5.527591e-01  8.267090e-01  1.049271e-01
    outer loop
      vertex  -1.855690e+02  1.378700e+03 -6.744720e+01
      vertex  -2.047460e+02  1.366930e+03 -7.573850e+01
      vertex  -1.960790e+02  1.370520e+03 -5.836540e+01
    endloop
  endfacet
  facet normal  8.590220e-01 -4.585125e-01  2.277005e-01
    outer loop
      vertex  -2.834855e+02  1.302601e+03 -6.719136e+01
      vertex  -2.928820e+02  1.285430e+03 -6.631830e+01
      vertex  -2.820470e+02  1.303540e+03 -7.072690e+01
    endloop
  endfacet
  facet normal -6.937839e-01  5.153370e-01  5.030822e-01
    outer loop
      vertex  -3.125960e+02  1.312590e+03 -4.519600e+01
      vertex  -2.870960e+02  1.344240e+03 -4.245080e+01
      vertex  -3.140508e+02  1.321664e+03 -5.649766e+01
    endloop
  endfacet
  facet normal  6.359314e-01 -6.800485e-01 -3.648635e-01
    outer loop
      vertex  -2.549020e+02  1.335250e+03 -7.822530e+01
      vertex  -2.527660e+02  1.328170e+03 -6.130650e+01
      vertex  -2.834855e+02  1.302601e+03 -6.719136e+01
    endloop
  endfacet
  facet normal -6.101963e-01  3.995273e-01  6.841334e-01
    outer loop
      vertex  -3.025720e+02  1.261280e+03 -6.325460e+01
      vertex  -3.171697e+02  1.247148e+03 -6.802173e+01
      vertex  -3.271370e+02  1.217490e+03 -5.959180e+01
    endloop
  endfacet
  facet normal -2.389524e-01 -2.176625e-01 -9.463217e-01
    outer loop
      vertex  -3.233500e+02  1.193060e+03 -5.276840e+01
      vertex  -3.155310e+02  1.212710e+03 -5.926240e+01
      vertex  -3.024220e+02  1.221010e+03 -6.448160e+01
    endloop
  endfacet
  facet normal  3.549558e-01 -4.073472e-01 -8.414717e-01
    outer loop
      vertex  -3.288753e+02  1.223559e+03 -7.014332e+01
      vertex  -3.191970e+02  1.239260e+03 -7.366140e+01
      vertex  -3.155310e+02  1.212710e+03 -5.926240e+01
    endloop
  endfacet
  facet normal  6.961522e-01 -6.177484e-01 -3.657306e-01
    outer loop
      vertex  -2.880470e+02  1.228130e+03 -6.013170e+01
      vertex  -2.898980e+02  1.218540e+03 -4.745680e+01
      vertex  -3.031200e+02  1.206680e+03 -5.259180e+01
    endloop
  endfacet
  facet normal  8.706409e-03 -4.658864e-02  9.988763e-01
    outer loop
      vertex  -3.388123e+02  1.201207e+03 -6.240455e+01
      vertex  -3.306420e+02  1.221720e+03 -6.151900e+01
      vertex  -3.416760e+02  1.244280e+03 -6.037060e+01
    endloop
  endfacet
  facet normal -1.816616e-01  3.377710e-02 -9.827808e-01
    outer loop
      vertex  -2.978780e+02  1.313600e+03 -7.740620e+01
      vertex  -2.758630e+02  1.338880e+03 -8.060670e+01
      vertex  -2.675990e+02  1.338800e+03 -8.213700e+01
    endloop
  endfacet
  facet normal  1.178422e-01 -2.013268e-01 -9.724098e-01
    outer loop
      vertex  -3.191970e+02  1.239260e+03 -7.366140e+01
      vertex  -3.116740e+02  1.256690e+03 -7.635840e+01
      vertex  -3.008050e+02  1.244920e+03 -7.260440e+01
    endloop
  endfacet
  facet normal -7.070083e-01  3.466771e-01  6.164042e-01
    outer loop
      vertex  -1.861800e+02  1.379320e+03 -5.196060e+01
      vertex  -1.960790e+02  1.370520e+03 -5.836540e+01
      vertex  -1.957740e+02  1.355080e+03 -4.933180e+01
    endloop
  endfacet
  facet normal -7.617875e-03 -1.411399e-01 -9.899604e-01
    outer loop
      vertex  -2.870360e+02  1.260260e+03 -7.954000e+01
      vertex  -2.776286e+02  1.299543e+03 -8.521301e+01
      vertex  -2.533210e+02  1.305550e+03 -8.625650e+01
    endloop
  endfacet
  facet normal  5.208039e-01 -7.620999e-01 -3.846646e-01
    outer loop
      vertex  -2.549020e+02  1.335250e+03 -7.822530e+01
      vertex  -2.237670e+02  1.344760e+03 -5.491240e+01
      vertex  -2.527660e+02  1.328170e+03 -6.130650e+01
    endloop
  endfacet
  facet normal  2.608754e-02  8.053717e-01  5.921958e-01
    outer loop
      vertex  -2.652910e+02  1.359810e+03 -5.348340e+01
      vertex  -2.703784e+02  1.351936e+03 -4.255048e+01
      vertex  -2.254500e+02  1.366800e+03 -6.474470e+01
    endloop
  endfacet
  facet normal -7.178949e-01  4.677532e-01 -5.155908e-01
    outer loop
      vertex  -3.285499e+02  1.289900e+03 -6.698457e+01
      vertex  -3.219120e+02  1.309046e+03 -5.885759e+01
      vertex  -3.021750e+02  1.327480e+03 -6.961520e+01
    endloop
  endfacet
  facet normal -8.826336e-01  4.063303e-01 -2.363336e-01
    outer loop
      vertex  -3.285499e+02  1.289900e+03 -6.698457e+01
      vertex  -3.393430e+02  1.270080e+03 -6.075270e+01
      vertex  -3.219120e+02  1.309046e+03 -5.885759e+01
    endloop
  endfacet
  facet normal -7.625493e-02  6.361458e-01 -7.677915e-01
    outer loop
      vertex  -1.755840e+02  1.391000e+03 -5.824780e+01
      vertex  -1.844940e+02  1.373610e+03 -7.177120e+01
      vertex  -1.855690e+02  1.378700e+03 -6.744720e+01
    endloop
  endfacet
  facet normal  8.612131e-01 -5.020476e-01 -7.912059e-02
    outer loop
      vertex  -2.414640e+02  1.277730e+03 -4.024580e+01
      vertex  -2.553060e+02  1.255410e+03 -4.928560e+01
      vertex  -2.421450e+02  1.277530e+03 -4.638960e+01
    endloop
  endfacet
  facet normal  8.392680e-01 -5.164611e-01 -1.699919e-01
    outer loop
      vertex  -2.176160e+02  1.332660e+03 -7.231590e+01
      vertex  -2.210670e+02  1.318090e+03 -4.508780e+01
      vertex  -2.337590e+02  1.304580e+03 -6.670410e+01
    endloop
  endfacet
  facet normal  4.557897e-01  7.353504e-02 -8.870447e-01
    outer loop
      vertex  -2.108990e+02  1.363140e+03 -6.488020e+01
      vertex  -2.327580e+02  1.353790e+03 -7.688710e+01
      vertex  -2.290060e+02  1.362730e+03 -7.421810e+01
    endloop
  endfacet
  facet normal  4.692970e-01 -8.688207e-01  1.578321e-01
    outer loop
      vertex  -2.467440e+02  1.332100e+03 -5.628260e+01
      vertex  -2.237670e+02  1.344760e+03 -5.491240e+01
      vertex  -2.250890e+02  1.345860e+03 -4.492650e+01
    endloop
  endfacet
  facet normal  8.191478e-01 -4.793840e-01 -3.149409e-01
    outer loop
      vertex  -2.310560e+02  1.315170e+03 -7.579330e+01
      vertex  -2.337590e+02  1.304580e+03 -6.670410e+01
      vertex  -2.615860e+02  1.253230e+03 -6.091910e+01
    endloop
  endfacet
  facet normal -7.002881e-01  6.423262e-01  3.114700e-01
    outer loop
      vertex  -2.870960e+02  1.344240e+03 -4.245080e+01
      vertex  -2.883390e+02  1.348500e+03 -5.403060e+01
      vertex  -3.140508e+02  1.321664e+03 -5.649766e+01
    endloop
  endfacet
  facet normal  4.798433e-01 -7.741076e-01  4.129259e-01
    outer loop
      vertex  -2.572280e+02  1.329940e+03 -4.814900e+01
      vertex  -2.902460e+02  1.306230e+03 -5.422900e+01
      vertex  -2.467440e+02  1.332100e+03 -5.628260e+01
    endloop
  endfacet
  facet normal -3.279551e-01 -8.497616e-02 -9.408637e-01
    outer loop
      vertex  -2.935977e+02  1.276201e+03 -7.794180e+01
      vertex  -2.930650e+02  1.245180e+03 -7.532580e+01
      vertex  -3.008050e+02  1.244920e+03 -7.260440e+01
    endloop
  endfacet
  facet normal -5.639046e-01  2.208147e-01  7.957715e-01
    outer loop
      vertex  -2.602770e+02  1.265960e+03 -4.693910e+01
      vertex  -2.364310e+02  1.290330e+03 -3.680350e+01
      vertex  -2.562765e+02  1.305506e+03 -5.507753e+01
    endloop
  endfacet
  facet normal -1.295888e-01  8.834348e-01 -4.502774e-01
    outer loop
      vertex  -2.142220e+02  1.369060e+03 -6.336140e+01
      vertex  -2.105800e+02  1.373800e+03 -5.510980e+01
      vertex  -2.042370e+02  1.373800e+03 -5.693530e+01
    endloop
  endfacet
  facet normal -6.237238e-02 -1.943382e-02 -9.978637e-01
    outer loop
      vertex  -3.136220e+02  1.295170e+03 -7.371350e+01
      vertex  -3.236950e+02  1.264820e+03 -7.249280e+01
      vertex  -3.272810e+02  1.273690e+03 -7.244140e+01
    endloop
  endfacet
  facet normal -3.228130e-01  9.390631e-01  1.181200e-01
    outer loop
      vertex  -2.861256e+02  1.302876e+03 -7.659206e+01
      vertex  -2.834855e+02  1.302601e+03 -6.719136e+01
      vertex  -2.820470e+02  1.303540e+03 -7.072690e+01
    endloop
  endfacet
  facet normal -5.663337e-01  8.081523e-01 -1.617282e-01
    outer loop
      vertex  -2.850440e+02  1.348080e+03 -6.766780e+01
      vertex  -2.883390e+02  1.348500e+03 -5.403060e+01
      vertex  -2.745040e+02  1.355840e+03 -6.579980e+01
    endloop
  endfacet
  facet normal -2.411251e-01  5.184641e-01 -8.203986e-01
    outer loop
      vertex  -2.047460e+02  1.366930e+03 -7.573850e+01
      vertex  -1.970750e+02  1.368480e+03 -7.701360e+01
      vertex  -2.265130e+02  1.346000e+03 -8.256800e+01
    endloop
  endfacet
  facet normal  9.671884e-02  1.175472e-01 -9.883461e-01
    outer loop
      vertex  -1.970750e+02  1.368480e+03 -7.701360e+01
      vertex  -1.967510e+02  1.360230e+03 -7.796310e+01
      vertex  -2.265130e+02  1.346000e+03 -8.256800e+01
    endloop
  endfacet
  facet normal -3.824144e-01  4.758561e-01 -7.920355e-01
    outer loop
      vertex  -2.776286e+02  1.299543e+03 -8.521301e+01
      vertex  -2.732070e+02  1.311100e+03 -8.040440e+01
      vertex  -2.423280e+02  1.336060e+03 -8.031750e+01
    endloop
  endfacet
  facet normal  7.426779e-01 -6.336415e-01 -2.166289e-01
    outer loop
      vertex  -1.978900e+02  1.345020e+03 -6.661050e+01
      vertex  -1.828950e+02  1.360780e+03 -6.130070e+01
      vertex  -2.014770e+02  1.332070e+03 -4.102890e+01
    endloop
  endfacet
  facet normal  3.904976e-01 -8.556108e-01 -3.397672e-01
    outer loop
      vertex  -2.222040e+02  1.349350e+03 -6.467460e+01
      vertex  -2.237670e+02  1.344760e+03 -5.491240e+01
      vertex  -2.266560e+02  1.349920e+03 -7.122690e+01
    endloop
  endfacet
  facet normal  6.513066e-01 -3.425566e-01 -6.770928e-01
    outer loop
      vertex  -1.657820e+02  1.383350e+03 -5.869950e+01
      vertex  -1.844940e+02  1.373610e+03 -7.177120e+01
      vertex  -1.619230e+02  1.392060e+03 -5.939410e+01
    endloop
  endfacet
  facet normal -4.979180e-01  6.666269e-01 -5.546948e-01
    outer loop
      vertex  -2.423280e+02  1.336060e+03 -8.031750e+01
      vertex  -2.242660e+02  1.351600e+03 -7.785500e+01
      vertex  -2.265130e+02  1.346000e+03 -8.256800e+01
    endloop
  endfacet
  facet normal  5.514102e-01 -2.799530e-01 -7.858582e-01
    outer loop
      vertex  -2.327580e+02  1.353790e+03 -7.688710e+01
      vertex  -2.108990e+02  1.363140e+03 -6.488020e+01
      vertex  -2.266560e+02  1.349920e+03 -7.122690e+01
    endloop
  endfacet
  facet normal  9.240176e-02  4.538712e-01  8.862634e-01
    outer loop
      vertex  -2.410970e+02  1.355420e+03 -4.738770e+01
      vertex  -2.703784e+02  1.351936e+03 -4.255048e+01
      vertex  -2.521200e+02  1.337950e+03 -3.729170e+01
    endloop
  endfacet
  facet normal -2.522434e-01  7.972856e-01 -5.483693e-01
    outer loop
      vertex  -1.970750e+02  1.368480e+03 -7.701360e+01
      vertex  -2.047460e+02  1.366930e+03 -7.573850e+01
      vertex  -1.855690e+02  1.378700e+03 -6.744720e+01
    endloop
  endfacet
  facet normal  1.959914e-01 -2.625221e-01  9.448119e-01
    outer loop
      vertex  -3.125960e+02  1.312590e+03 -4.519600e+01
      vertex  -3.275080e+02  1.286680e+03 -4.930190e+01
      vertex  -3.147200e+02  1.303870e+03 -4.717830e+01
    endloop
  endfacet
  facet normal -6.819874e-01  6.365663e-01  3.601063e-01
    outer loop
      vertex  -2.184360e+02  1.353150e+03 -6.955390e+01
      vertex  -2.073920e+02  1.363700e+03 -6.728750e+01
      vertex  -2.242660e+02  1.351600e+03 -7.785500e+01
    endloop
  endfacet
  facet normal -5.841992e-01  2.521624e-01 -7.714437e-01
    outer loop
      vertex  -2.920180e+02  1.327870e+03 -7.717940e+01
      vertex  -2.978780e+02  1.313600e+03 -7.740620e+01
      vertex  -3.021750e+02  1.327480e+03 -6.961520e+01
    endloop
  endfacet
  facet normal  7.874823e-02  3.619240e-01  9.288756e-01
    outer loop
      vertex  -2.521200e+02  1.337950e+03 -3.729170e+01
      vertex  -2.793760e+02  1.342410e+03 -3.671880e+01
      vertex  -2.732690e+02  1.335930e+03 -3.471170e+01
    endloop
  endfacet
  facet normal  6.055803e-02 -7.739182e-01  6.303836e-01
    outer loop
      vertex  -3.000150e+02  1.316370e+03 -4.084170e+01
      vertex  -3.022950e+02  1.307940e+03 -5.097220e+01
      vertex  -2.902460e+02  1.306230e+03 -5.422900e+01
    endloop
  endfacet
  facet normal  4.390857e-01 -4.844694e-01 -7.566328e-01
    outer loop
      vertex  -2.549020e+02  1.335250e+03 -7.822530e+01
      vertex  -2.510440e+02  1.342410e+03 -8.057100e+01
      vertex  -2.266560e+02  1.349920e+03 -7.122690e+01
    endloop
  endfacet
  facet normal -5.797431e-01  2.188275e-01 -7.848646e-01
    outer loop
      vertex  -3.438310e+02  1.251950e+03 -6.627800e+01
      vertex  -3.285499e+02  1.289900e+03 -6.698457e+01
      vertex  -3.272810e+02  1.273690e+03 -7.244140e+01
    endloop
  endfacet
  facet normal -5.412739e-01  6.332682e-01  5.531672e-01
    outer loop
      vertex  -2.514340e+02  1.330520e+03 -7.165890e+01
      vertex  -2.820470e+02  1.303540e+03 -7.072690e+01
      vertex  -2.600400e+02  1.315020e+03 -6.233540e+01
    endloop
  endfacet
  facet normal -4.906482e-01  5.889772e-01  6.421605e-01
    outer loop
      vertex  -2.184360e+02  1.353150e+03 -6.955390e+01
      vertex  -2.240600e+02  1.331490e+03 -5.398480e+01
      vertex  -2.089590e+02  1.349740e+03 -5.918530e+01
    endloop
  endfacet
  facet normal  6.308535e-01 -7.145456e-01 -3.024045e-01
    outer loop
      vertex  -2.176160e+02  1.332660e+03 -7.231590e+01
      vertex  -2.077270e+02  1.336460e+03 -6.066500e+01
      vertex  -2.210670e+02  1.318090e+03 -4.508780e+01
    endloop
  endfacet
  facet normal -6.287761e-01  7.054751e-01  3.270253e-01
    outer loop
      vertex  -2.883390e+02  1.348500e+03 -5.403060e+01
      vertex  -2.870960e+02  1.344240e+03 -4.245080e+01
      vertex  -2.808610e+02  1.352040e+03 -4.728930e+01
    endloop
  endfacet
  facet normal -3.306611e-01  6.740578e-01  6.605371e-01
    outer loop
      vertex  -2.870960e+02  1.344240e+03 -4.245080e+01
      vertex  -2.793760e+02  1.342410e+03 -3.671880e+01
      vertex  -2.808610e+02  1.352040e+03 -4.728930e+01
    endloop
  endfacet
  facet normal  4.060394e-01 -1.958924e-01 -8.926130e-01
    outer loop
      vertex  -2.347090e+02  1.329610e+03 -8.446860e+01
      vertex  -2.223860e+02  1.334260e+03 -7.988350e+01
      vertex  -2.457840e+02  1.305710e+03 -8.426140e+01
    endloop
  endfacet
  facet normal  5.574270e-01 -6.529105e-01 -5.128187e-01
    outer loop
      vertex  -2.000870e+02  1.349640e+03 -7.488070e+01
      vertex  -1.978900e+02  1.345020e+03 -6.661050e+01
      vertex  -2.176160e+02  1.332660e+03 -7.231590e+01
    endloop
  endfacet
  facet normal  5.626457e-01 -7.975939e-01 -2.174253e-01
    outer loop
      vertex  -2.077270e+02  1.336460e+03 -6.066500e+01
      vertex  -2.176160e+02  1.332660e+03 -7.231590e+01
      vertex  -1.978900e+02  1.345020e+03 -6.661050e+01
    endloop
  endfacet
  facet normal  2.508156e-01 -2.869833e-01 -9.245172e-01
    outer loop
      vertex  -2.457840e+02  1.305710e+03 -8.426140e+01
      vertex  -2.780930e+02  1.255640e+03 -7.748420e+01
      vertex  -2.533210e+02  1.305550e+03 -8.625650e+01
    endloop
  endfacet
  facet normal  1.250494e-01 -1.948076e-01 -9.728374e-01
    outer loop
      vertex  -3.116740e+02  1.256690e+03 -7.635840e+01
      vertex  -2.935977e+02  1.276201e+03 -7.794180e+01
      vertex  -3.008050e+02  1.244920e+03 -7.260440e+01
    endloop
  endfacet
  facet normal  8.661717e-01 -4.426852e-01 -2.318976e-01
    outer loop
      vertex  -2.210670e+02  1.318090e+03 -4.508780e+01
      vertex  -2.421450e+02  1.277530e+03 -4.638960e+01
      vertex  -2.337590e+02  1.304580e+03 -6.670410e+01
    endloop
  endfacet
  facet normal  5.122843e-01 -8.569685e-01  5.630077e-02
    outer loop
      vertex  -2.902460e+02  1.306230e+03 -5.422900e+01
      vertex  -2.527660e+02  1.328170e+03 -6.130650e+01
      vertex  -2.467440e+02  1.332100e+03 -5.628260e+01
    endloop
  endfacet
  facet normal -4.167816e-01  5.395962e-01  7.315251e-01
    outer loop
      vertex  -2.240600e+02  1.331490e+03 -5.398480e+01
      vertex  -2.600400e+02  1.315020e+03 -6.233540e+01
      vertex  -2.351050e+02  1.315620e+03 -4.857140e+01
    endloop
  endfacet
  facet normal  4.941648e-01 -8.016033e-01 -3.365016e-01
    outer loop
      vertex  -1.978900e+02  1.345020e+03 -6.661050e+01
      vertex  -2.014770e+02  1.332070e+03 -4.102890e+01
      vertex  -2.077270e+02  1.336460e+03 -6.066500e+01
    endloop
  endfacet
  facet normal  2.341459e-01 -2.772179e-01 -9.318401e-01
    outer loop
      vertex  -2.780930e+02  1.255640e+03 -7.748420e+01
      vertex  -2.457840e+02  1.305710e+03 -8.426140e+01
      vertex  -2.635350e+02  1.268480e+03 -7.764600e+01
    endloop
  endfacet
  facet normal -4.284083e-01  7.176251e-01  5.490726e-01
    outer loop
      vertex  -2.035360e+02  1.331190e+03 -3.757900e+01
      vertex  -2.240600e+02  1.331490e+03 -5.398480e+01
      vertex  -2.175805e+02  1.320766e+03 -3.491356e+01
    endloop
  endfacet
  facet normal  7.384192e-01 -6.096489e-01 -2.882105e-01
    outer loop
      vertex  -2.222040e+02  1.349350e+03 -6.467460e+01
      vertex  -2.108990e+02  1.363140e+03 -6.488020e+01
      vertex  -2.039850e+02  1.368310e+03 -5.810210e+01
    endloop
  endfacet
  facet normal  3.472519e-01  4.111488e-01 -8.428361e-01
    outer loop
      vertex  -2.042370e+02  1.373800e+03 -5.693530e+01
      vertex  -2.108990e+02  1.363140e+03 -6.488020e+01
      vertex  -2.142220e+02  1.369060e+03 -6.336140e+01
    endloop
  endfacet
  facet normal  6.104087e-01  1.913754e-01 -7.686200e-01
    outer loop
      vertex  -2.039850e+02  1.368310e+03 -5.810210e+01
      vertex  -2.108990e+02  1.363140e+03 -6.488020e+01
      vertex  -2.042370e+02  1.373800e+03 -5.693530e+01
    endloop
  endfacet
  facet normal  1.349511e-01 -1.380365e-01 -9.811901e-01
    outer loop
      vertex  -1.501544e+02  1.392703e+03 -5.786599e+01
      vertex  -1.657820e+02  1.383350e+03 -5.869950e+01
      vertex  -1.619230e+02  1.392060e+03 -5.939410e+01
    endloop
  endfacet
  facet normal  5.105762e-01 -7.211776e-01  4.682038e-01
    outer loop
      vertex  -2.902460e+02  1.306230e+03 -5.422900e+01
      vertex  -2.834855e+02  1.302601e+03 -6.719136e+01
      vertex  -2.527660e+02  1.328170e+03 -6.130650e+01
    endloop
  endfacet
  facet normal  7.409009e-01  1.719887e-01 -6.492193e-01
    outer loop
      vertex  -1.941260e+02  1.388680e+03 -4.145450e+01
      vertex  -2.039850e+02  1.368310e+03 -5.810210e+01
      vertex  -2.042370e+02  1.373800e+03 -5.693530e+01
    endloop
  endfacet
  facet normal  8.472775e-01 -5.305498e-01  2.525581e-02
    outer loop
      vertex  -1.828950e+02  1.360780e+03 -6.130070e+01
      vertex  -1.749670e+02  1.373730e+03 -5.522800e+01
      vertex  -2.014770e+02  1.332070e+03 -4.102890e+01
    endloop
  endfacet
  facet normal  3.384374e-03  3.051493e-01  9.522985e-01
    outer loop
      vertex  -1.880010e+02  1.353710e+03 -4.485040e+01
      vertex  -1.862880e+02  1.367090e+03 -4.914390e+01
      vertex  -2.035360e+02  1.331190e+03 -3.757900e+01
    endloop
  endfacet
  facet normal  6.103125e-01 -4.323826e-01  6.637500e-01
    outer loop
      vertex  -1.862880e+02  1.367090e+03 -4.914390e+01
      vertex  -1.749670e+02  1.373730e+03 -5.522800e+01
      vertex  -1.701750e+02  1.387130e+03 -5.090510e+01
    endloop
  endfacet
  facet normal -1.718801e-01  2.225367e-01  9.596534e-01
    outer loop
      vertex  -1.862880e+02  1.367090e+03 -4.914390e+01
      vertex  -1.701750e+02  1.387130e+03 -5.090510e+01
      vertex  -1.861800e+02  1.379320e+03 -5.196060e+01
    endloop
  endfacet
  facet normal  1.691813e-01  4.684025e-02 -9.844713e-01
    outer loop
      vertex  -2.513140e+02  1.352240e+03 -8.014970e+01
      vertex  -2.327580e+02  1.353790e+03 -7.688710e+01
      vertex  -2.510440e+02  1.342410e+03 -8.057100e+01
    endloop
  endfacet
  facet normal  8.154553e-01 -4.417667e-01  3.739984e-01
    outer loop
      vertex  -2.035360e+02  1.331190e+03 -3.757900e+01
      vertex  -2.014770e+02  1.332070e+03 -4.102890e+01
      vertex  -1.880010e+02  1.353710e+03 -4.485040e+01
    endloop
  endfacet
  facet normal -2.850787e-01  7.998871e-01 -5.281201e-01
    outer loop
      vertex  -2.105800e+02  1.373800e+03 -5.510980e+01
      vertex  -2.010130e+02  1.387130e+03 -4.008460e+01
      vertex  -1.941260e+02  1.388680e+03 -4.145450e+01
    endloop
  endfacet
  facet normal -1.781298e-01  7.649714e-01 -6.189414e-01
    outer loop
      vertex  -2.105800e+02  1.373800e+03 -5.510980e+01
      vertex  -1.941260e+02  1.388680e+03 -4.145450e+01
      vertex  -2.042370e+02  1.373800e+03 -5.693530e+01
    endloop
  endfacet
  facet normal -4.739542e-01  2.740607e-01 -8.368143e-01
    outer loop
      vertex  -3.136220e+02  1.295170e+03 -7.371350e+01
      vertex  -3.285499e+02  1.289900e+03 -6.698457e+01
      vertex  -3.021750e+02  1.327480e+03 -6.961520e+01
    endloop
  endfacet
  facet normal -1.665924e-01  3.588956e-01 -9.183904e-01
    outer loop
      vertex  -2.675990e+02  1.338800e+03 -8.213700e+01
      vertex  -2.758630e+02  1.338880e+03 -8.060670e+01
      vertex  -2.675120e+02  1.351880e+03 -7.704130e+01
    endloop
  endfacet
  facet normal -6.302185e-02 -1.440350e-01 -9.875638e-01
    outer loop
      vertex  -3.136220e+02  1.295170e+03 -7.371350e+01
      vertex  -2.978780e+02  1.313600e+03 -7.740620e+01
      vertex  -2.861256e+02  1.302876e+03 -7.659206e+01
    endloop
  endfacet
  facet normal  2.247066e-01 -1.470790e-01  9.632625e-01
    outer loop
      vertex  -2.010130e+02  1.387130e+03 -4.008460e+01
      vertex  -2.163440e+02  1.363150e+03 -4.016970e+01
      vertex  -1.941260e+02  1.388680e+03 -4.145450e+01
    endloop
  endfacet
  facet normal -5.204217e-01  4.828154e-01  7.043085e-01
    outer loop
      vertex  -2.928820e+02  1.285430e+03 -6.631830e+01
      vertex  -2.600400e+02  1.315020e+03 -6.233540e+01
      vertex  -2.820470e+02  1.303540e+03 -7.072690e+01
    endloop
  endfacet
  facet normal  4.240198e-01 -3.264991e-01  8.447518e-01
    outer loop
      vertex  -1.941260e+02  1.388680e+03 -4.145450e+01
      vertex  -2.163440e+02  1.363150e+03 -4.016970e+01
      vertex  -2.134590e+02  1.361080e+03 -4.241790e+01
    endloop
  endfacet
  facet normal  3.046278e-01 -4.632350e-01  8.322351e-01
    outer loop
      vertex  -3.024840e+02  1.274950e+03 -6.716040e+01
      vertex  -2.902460e+02  1.306230e+03 -5.422900e+01
      vertex  -3.071210e+02  1.293670e+03 -5.504320e+01
    endloop
  endfacet
  facet normal -1.640798e-01  5.960593e-01 -7.859969e-01
    outer loop
      vertex  -2.513140e+02  1.352240e+03 -8.014970e+01
      vertex  -2.675120e+02  1.351880e+03 -7.704130e+01
      vertex  -2.484605e+02  1.363152e+03 -7.247038e+01
    endloop
  endfacet
  facet normal -5.052583e-01  3.201801e-01  8.013731e-01
    outer loop
      vertex  -2.136380e+02  1.372200e+03 -4.207940e+01
      vertex  -2.163440e+02  1.363150e+03 -4.016970e+01
      vertex  -2.010130e+02  1.387130e+03 -4.008460e+01
    endloop
  endfacet
  facet normal  8.522900e-01 -5.182820e-01  7.060818e-02
    outer loop
      vertex  -1.880010e+02  1.353710e+03 -4.485040e+01
      vertex  -2.014770e+02  1.332070e+03 -4.102890e+01
      vertex  -1.749670e+02  1.373730e+03 -5.522800e+01
    endloop
  endfacet
  facet normal -6.401339e-01  4.964313e-01  5.863315e-01
    outer loop
      vertex  -1.862880e+02  1.367090e+03 -4.914390e+01
      vertex  -1.957740e+02  1.355080e+03 -4.933180e+01
      vertex  -2.035360e+02  1.331190e+03 -3.757900e+01
    endloop
  endfacet
  facet normal  6.758069e-02 -2.935001e-01 -9.535673e-01
    outer loop
      vertex  -2.780930e+02  1.255640e+03 -7.748420e+01
      vertex  -2.930650e+02  1.245180e+03 -7.532580e+01
      vertex  -2.870360e+02  1.260260e+03 -7.954000e+01
    endloop
  endfacet
  facet normal  3.350706e-02 -9.730363e-01 -2.282053e-01
    outer loop
      vertex  -2.035360e+02  1.331190e+03 -3.757900e+01
      vertex  -2.077270e+02  1.336460e+03 -6.066500e+01
      vertex  -2.014770e+02  1.332070e+03 -4.102890e+01
    endloop
  endfacet
  facet normal  6.486662e-01 -7.079453e-01 -2.793663e-01
    outer loop
      vertex  -2.077270e+02  1.336460e+03 -6.066500e+01
      vertex  -2.035360e+02  1.331190e+03 -3.757900e+01
      vertex  -2.210670e+02  1.318090e+03 -4.508780e+01
    endloop
  endfacet
  facet normal -6.325851e-01  4.095093e-01  6.573722e-01
    outer loop
      vertex  -2.175805e+02  1.320766e+03 -3.491356e+01
      vertex  -2.351050e+02  1.315620e+03 -4.857140e+01
      vertex  -2.267460e+02  1.308260e+03 -3.594270e+01
    endloop
  endfacet
  facet normal  8.052331e-01 -5.799814e-01 -1.233746e-01
    outer loop
      vertex  -2.267460e+02  1.308260e+03 -3.594270e+01
      vertex  -2.210670e+02  1.318090e+03 -4.508780e+01
      vertex  -2.175805e+02  1.320766e+03 -3.491356e+01
    endloop
  endfacet
  facet normal  5.967688e-01 -8.023863e-01  6.563580e-03
    outer loop
      vertex  -2.035360e+02  1.331190e+03 -3.757900e+01
      vertex  -2.175805e+02  1.320766e+03 -3.491356e+01
      vertex  -2.210670e+02  1.318090e+03 -4.508780e+01
    endloop
  endfacet
  facet normal -4.977384e-01  5.923805e-01  6.335154e-01
    outer loop
      vertex  -2.089590e+02  1.349740e+03 -5.918530e+01
      vertex  -2.240600e+02  1.331490e+03 -5.398480e+01
      vertex  -2.035360e+02  1.331190e+03 -3.757900e+01
    endloop
  endfacet
  facet normal -5.947123e-01  5.974092e-01  5.379773e-01
    outer loop
      vertex  -2.351050e+02  1.315620e+03 -4.857140e+01
      vertex  -2.175805e+02  1.320766e+03 -3.491356e+01
      vertex  -2.240600e+02  1.331490e+03 -5.398480e+01
    endloop
  endfacet
  facet normal  8.853663e-01 -4.618171e-01  5.340069e-02
    outer loop
      vertex  -2.210670e+02  1.318090e+03 -4.508780e+01
      vertex  -2.267460e+02  1.308260e+03 -3.594270e+01
      vertex  -2.421450e+02  1.277530e+03 -4.638960e+01
    endloop
  endfacet
  facet normal -6.824228e-01  3.374854e-01  6.483846e-01
    outer loop
      vertex  -2.267460e+02  1.308260e+03 -3.594270e+01
      vertex  -2.351050e+02  1.315620e+03 -4.857140e+01
      vertex  -2.364310e+02  1.290330e+03 -3.680350e+01
    endloop
  endfacet
  facet normal -4.378871e-01  3.980546e-01  8.061063e-01
    outer loop
      vertex  -2.351050e+02  1.315620e+03 -4.857140e+01
      vertex  -2.562765e+02  1.305506e+03 -5.507753e+01
      vertex  -2.364310e+02  1.290330e+03 -3.680350e+01
    endloop
  endfacet
  facet normal  9.021345e-01 -4.227487e-01 -8.623724e-02
    outer loop
      vertex  -2.414640e+02  1.277730e+03 -4.024580e+01
      vertex  -2.421450e+02  1.277530e+03 -4.638960e+01
      vertex  -2.267460e+02  1.308260e+03 -3.594270e+01
    endloop
  endfacet
  facet normal  7.634912e-01 -4.353064e-01  4.770636e-01
    outer loop
      vertex  -2.364310e+02  1.290330e+03 -3.680350e+01
      vertex  -2.414640e+02  1.277730e+03 -4.024580e+01
      vertex  -2.267460e+02  1.308260e+03 -3.594270e+01
    endloop
  endfacet
  facet normal  7.292649e-01 -4.354840e-01  5.277561e-01
    outer loop
      vertex  -2.364310e+02  1.290330e+03 -3.680350e+01
      vertex  -2.485880e+02  1.267550e+03 -3.880180e+01
      vertex  -2.414640e+02  1.277730e+03 -4.024580e+01
    endloop
  endfacet
  facet normal  8.219579e-01 -5.647790e-01  7.355297e-02
    outer loop
      vertex  -2.485880e+02  1.267550e+03 -3.880180e+01
      vertex  -2.634610e+02  1.245080e+03 -4.513270e+01
      vertex  -2.414640e+02  1.277730e+03 -4.024580e+01
    endloop
  endfacet
  facet normal -4.178018e-01  2.773941e-01  8.651556e-01
    outer loop
      vertex  -2.928820e+02  1.285430e+03 -6.631830e+01
      vertex  -3.025720e+02  1.261280e+03 -6.325460e+01
      vertex  -2.562765e+02  1.305506e+03 -5.507753e+01
    endloop
  endfacet
  facet normal  8.421946e-01 -4.654632e-01 -2.721257e-01
    outer loop
      vertex  -2.337590e+02  1.304580e+03 -6.670410e+01
      vertex  -2.421450e+02  1.277530e+03 -4.638960e+01
      vertex  -2.553060e+02  1.255410e+03 -4.928560e+01
    endloop
  endfacet
  facet normal  7.498108e-01 -4.791508e-01 -4.562876e-01
    outer loop
      vertex  -2.513990e+02  1.284680e+03 -7.720490e+01
      vertex  -2.310560e+02  1.315170e+03 -7.579330e+01
      vertex  -2.615860e+02  1.253230e+03 -6.091910e+01
    endloop
  endfacet
  facet normal  4.750807e-01 -5.344536e-01  6.990406e-01
    outer loop
      vertex  -2.898980e+02  1.218540e+03 -4.745680e+01
      vertex  -2.634610e+02  1.245080e+03 -4.513270e+01
      vertex  -2.834170e+02  1.227510e+03 -4.500340e+01
    endloop
  endfacet
  facet normal  4.790117e-02 -1.574869e-01  9.863586e-01
    outer loop
      vertex  -3.147200e+02  1.303870e+03 -4.717830e+01
      vertex  -3.275080e+02  1.286680e+03 -4.930190e+01
      vertex  -3.218270e+02  1.284580e+03 -4.991310e+01
    endloop
  endfacet
  facet normal  4.494792e-01 -5.050976e-01  7.367800e-01
    outer loop
      vertex  -2.485880e+02  1.267550e+03 -3.880180e+01
      vertex  -2.834170e+02  1.227510e+03 -4.500340e+01
      vertex  -2.634610e+02  1.245080e+03 -4.513270e+01
    endloop
  endfacet
  facet normal -6.503529e-02  9.631193e-01 -2.610967e-01
    outer loop
      vertex  -2.484605e+02  1.363152e+03 -7.247038e+01
      vertex  -2.479310e+02  1.364610e+03 -6.722360e+01
      vertex  -2.254500e+02  1.366800e+03 -6.474470e+01
    endloop
  endfacet
  facet normal -3.151968e-01 -2.365888e-01 -9.190630e-01
    outer loop
      vertex  -2.930650e+02  1.245180e+03 -7.532580e+01
      vertex  -3.155310e+02  1.212710e+03 -5.926240e+01
      vertex  -3.008050e+02  1.244920e+03 -7.260440e+01
    endloop
  endfacet
  facet normal -5.764662e-01  2.391017e-01  7.813559e-01
    outer loop
      vertex  -2.485880e+02  1.267550e+03 -3.880180e+01
      vertex  -2.364310e+02  1.290330e+03 -3.680350e+01
      vertex  -2.602770e+02  1.265960e+03 -4.693910e+01
    endloop
  endfacet
  facet normal  3.922507e-01 -3.645494e-01 -8.445373e-01
    outer loop
      vertex  -3.155310e+02  1.212710e+03 -5.926240e+01
      vertex  -3.444710e+02  1.195140e+03 -6.511960e+01
      vertex  -3.288753e+02  1.223559e+03 -7.014332e+01
    endloop
  endfacet
  facet normal  6.017591e-01 -5.860474e-01 -5.426182e-01
    outer loop
      vertex  -2.705130e+02  1.241410e+03 -5.805310e+01
      vertex  -2.779040e+02  1.246020e+03 -7.122860e+01
      vertex  -2.615860e+02  1.253230e+03 -6.091910e+01
    endloop
  endfacet
  facet normal -3.749675e-01  4.212918e-01  8.257800e-01
    outer loop
      vertex  -3.029990e+02  1.209580e+03 -4.459580e+01
      vertex  -3.056910e+02  1.219880e+03 -5.107300e+01
      vertex  -3.271370e+02  1.217490e+03 -5.959180e+01
    endloop
  endfacet
  facet normal -1.040276e-01  9.006402e-01  4.219306e-01
    outer loop
      vertex  -1.701750e+02  1.387130e+03 -5.090510e+01
      vertex  -1.501544e+02  1.392703e+03 -5.786599e+01
      vertex  -1.619230e+02  1.392060e+03 -5.939410e+01
    endloop
  endfacet
  facet normal  2.502253e-01 -9.580471e-01  1.397609e-01
    outer loop
      vertex  -3.233500e+02  1.193060e+03 -5.276840e+01
      vertex  -3.305790e+02  1.191100e+03 -5.326190e+01
      vertex  -3.343330e+02  1.189580e+03 -5.696040e+01
    endloop
  endfacet
  facet normal -7.117623e-01  5.372575e-02  7.003627e-01
    outer loop
      vertex  -3.343330e+02  1.189580e+03 -5.696040e+01
      vertex  -3.305790e+02  1.191100e+03 -5.326190e+01
      vertex  -3.388123e+02  1.201207e+03 -6.240455e+01
    endloop
  endfacet
  facet normal  1.611289e-01 -7.544575e-01  6.362636e-01
    outer loop
      vertex  -3.233500e+02  1.193060e+03 -5.276840e+01
      vertex  -3.049629e+02  1.203990e+03 -4.446507e+01
      vertex  -3.305790e+02  1.191100e+03 -5.326190e+01
    endloop
  endfacet
  facet normal -4.453475e-01  2.633468e-01  8.557535e-01
    outer loop
      vertex  -3.305790e+02  1.191100e+03 -5.326190e+01
      vertex  -3.029990e+02  1.209580e+03 -4.459580e+01
      vertex  -3.271370e+02  1.217490e+03 -5.959180e+01
    endloop
  endfacet
  facet normal  5.656859e-01 -6.588757e-01 -4.958653e-01
    outer loop
      vertex  -2.223860e+02  1.334260e+03 -7.988350e+01
      vertex  -2.000870e+02  1.349640e+03 -7.488070e+01
      vertex  -2.176160e+02  1.332660e+03 -7.231590e+01
    endloop
  endfacet
  facet normal  2.001749e-01 -4.645275e-01 -8.626379e-01
    outer loop
      vertex  -3.024220e+02  1.221010e+03 -6.448160e+01
      vertex  -2.930650e+02  1.245180e+03 -7.532580e+01
      vertex  -2.780930e+02  1.255640e+03 -7.748420e+01
    endloop
  endfacet
  facet normal -4.523978e-01  3.870201e-01  8.034623e-01
    outer loop
      vertex  -3.056910e+02  1.219880e+03 -5.107300e+01
      vertex  -3.029990e+02  1.209580e+03 -4.459580e+01
      vertex  -2.743750e+02  1.251810e+03 -4.882060e+01
    endloop
  endfacet
  facet normal  6.838346e-01 -4.977567e-01 -5.334871e-01
    outer loop
      vertex  -2.513990e+02  1.284680e+03 -7.720490e+01
      vertex  -2.615860e+02  1.253230e+03 -6.091910e+01
      vertex  -2.635350e+02  1.268480e+03 -7.764600e+01
    endloop
  endfacet
  facet normal -8.793554e-04  2.368679e-02  9.997191e-01
    outer loop
      vertex  -3.049629e+02  1.203990e+03 -4.446507e+01
      vertex  -2.834170e+02  1.227510e+03 -4.500340e+01
      vertex  -3.029990e+02  1.209580e+03 -4.459580e+01
    endloop
  endfacet
  facet normal  6.684093e-01 -6.023061e-01  4.364130e-01
    outer loop
      vertex  -3.049629e+02  1.203990e+03 -4.446507e+01
      vertex  -2.898980e+02  1.218540e+03 -4.745680e+01
      vertex  -2.834170e+02  1.227510e+03 -4.500340e+01
    endloop
  endfacet
  facet normal  6.834109e-01 -7.250602e-01 -8.507199e-02
    outer loop
      vertex  -3.049629e+02  1.203990e+03 -4.446507e+01
      vertex  -3.031200e+02  1.206680e+03 -5.259180e+01
      vertex  -2.898980e+02  1.218540e+03 -4.745680e+01
    endloop
  endfacet
  facet normal  4.066470e-01 -5.950109e-01 -6.932533e-01
    outer loop
      vertex  -3.233500e+02  1.193060e+03 -5.276840e+01
      vertex  -3.024220e+02  1.221010e+03 -6.448160e+01
      vertex  -3.031200e+02  1.206680e+03 -5.259180e+01
    endloop
  endfacet
  facet normal -3.911292e-01  1.586012e-01  9.065669e-01
    outer loop
      vertex  -3.029990e+02  1.209580e+03 -4.459580e+01
      vertex  -3.305790e+02  1.191100e+03 -5.326190e+01
      vertex  -3.049629e+02  1.203990e+03 -4.446507e+01
    endloop
  endfacet
  facet normal  5.533710e-01 -8.200383e-01 -1.460059e-01
    outer loop
      vertex  -3.031200e+02  1.206680e+03 -5.259180e+01
      vertex  -3.049629e+02  1.203990e+03 -4.446507e+01
      vertex  -3.233500e+02  1.193060e+03 -5.276840e+01
    endloop
  endfacet
  facet normal  7.248710e-01 -6.563492e-01 -2.092073e-01
    outer loop
      vertex  -2.705130e+02  1.241410e+03 -5.805310e+01
      vertex  -2.553060e+02  1.255410e+03 -4.928560e+01
      vertex  -2.634610e+02  1.245080e+03 -4.513270e+01
    endloop
  endfacet
  facet normal -6.966662e-01  5.129497e-01  5.015364e-01
    outer loop
      vertex  -3.140508e+02  1.321664e+03 -5.649766e+01
      vertex  -3.259770e+02  1.300940e+03 -5.186790e+01
      vertex  -3.125960e+02  1.312590e+03 -4.519600e+01
    endloop
  endfacet
  facet normal -5.633153e-01  3.760528e-01  7.357038e-01
    outer loop
      vertex  -2.485880e+02  1.267550e+03 -3.880180e+01
      vertex  -2.602770e+02  1.265960e+03 -4.693910e+01
      vertex  -2.834170e+02  1.227510e+03 -4.500340e+01
    endloop
  endfacet
  facet normal  8.435246e-02  4.497961e-02 -9.954203e-01
    outer loop
      vertex  -2.510440e+02  1.342410e+03 -8.057100e+01
      vertex  -2.675990e+02  1.338800e+03 -8.213700e+01
      vertex  -2.513140e+02  1.352240e+03 -8.014970e+01
    endloop
  endfacet
  facet normal  8.055128e-01 -5.679799e-01  1.689614e-01
    outer loop
      vertex  -2.553060e+02  1.255410e+03 -4.928560e+01
      vertex  -2.414640e+02  1.277730e+03 -4.024580e+01
      vertex  -2.634610e+02  1.245080e+03 -4.513270e+01
    endloop
  endfacet
  facet normal  4.179989e-01 -4.199566e-01 -8.055516e-01
    outer loop
      vertex  -3.343330e+02  1.189580e+03 -5.696040e+01
      vertex  -3.444710e+02  1.195140e+03 -6.511960e+01
      vertex  -3.155310e+02  1.212710e+03 -5.926240e+01
    endloop
  endfacet
  facet normal -5.552608e-01  2.617687e-01  7.894065e-01
    outer loop
      vertex  -3.388123e+02  1.201207e+03 -6.240455e+01
      vertex  -3.305790e+02  1.191100e+03 -5.326190e+01
      vertex  -3.271370e+02  1.217490e+03 -5.959180e+01
    endloop
  endfacet
  facet normal -3.743418e-01  1.093472e-01  9.208211e-01
    outer loop
      vertex  -3.271370e+02  1.217490e+03 -5.959180e+01
      vertex  -3.306420e+02  1.221720e+03 -6.151900e+01
      vertex  -3.388123e+02  1.201207e+03 -6.240455e+01
    endloop
  endfacet
  facet normal -1.405091e-01 -1.324575e-01  9.811791e-01
    outer loop
      vertex  -3.388123e+02  1.201207e+03 -6.240455e+01
      vertex  -3.489030e+02  1.216900e+03 -6.173100e+01
      vertex  -3.507510e+02  1.196560e+03 -6.474150e+01
    endloop
  endfacet
  facet normal -2.268405e-01 -9.126358e-01 -3.400578e-01
    outer loop
      vertex  -3.444710e+02  1.195140e+03 -6.511960e+01
      vertex  -3.343330e+02  1.189580e+03 -5.696040e+01
      vertex  -3.507510e+02  1.196560e+03 -6.474150e+01
    endloop
  endfacet
  facet normal  3.048488e-01 -5.149827e-01 -8.011617e-01
    outer loop
      vertex  -3.024220e+02  1.221010e+03 -6.448160e+01
      vertex  -2.780930e+02  1.255640e+03 -7.748420e+01
      vertex  -2.779040e+02  1.246020e+03 -7.122860e+01
    endloop
  endfacet
  facet normal  5.526155e-01 -3.939848e-01 -7.344333e-01
    outer loop
      vertex  -2.513990e+02  1.284680e+03 -7.720490e+01
      vertex  -2.635350e+02  1.268480e+03 -7.764600e+01
      vertex  -2.457840e+02  1.305710e+03 -8.426140e+01
    endloop
  endfacet
  facet normal -4.664690e-01  4.124064e-01  7.825137e-01
    outer loop
      vertex  -2.600400e+02  1.315020e+03 -6.233540e+01
      vertex  -2.928820e+02  1.285430e+03 -6.631830e+01
      vertex  -2.562765e+02  1.305506e+03 -5.507753e+01
    endloop
  endfacet
  facet normal -5.368051e-01  8.292606e-01  1.554573e-01
    outer loop
      vertex  -2.136380e+02  1.372200e+03 -4.207940e+01
      vertex  -2.337810e+02  1.360750e+03 -5.055680e+01
      vertex  -2.410970e+02  1.355420e+03 -4.738770e+01
    endloop
  endfacet
  facet normal  2.476771e-01 -5.332870e-01  8.088641e-01
    outer loop
      vertex  -2.336060e+02  1.352680e+03 -4.178690e+01
      vertex  -2.134590e+02  1.361080e+03 -4.241790e+01
      vertex  -2.163440e+02  1.363150e+03 -4.016970e+01
    endloop
  endfacet
  facet normal -2.752610e-02  8.758077e-01  4.818747e-01
    outer loop
      vertex  -1.755840e+02  1.391000e+03 -5.824780e+01
      vertex  -1.701750e+02  1.387130e+03 -5.090510e+01
      vertex  -1.619230e+02  1.392060e+03 -5.939410e+01
    endloop
  endfacet
  facet normal  6.784760e-01 -4.338732e-01  5.928106e-01
    outer loop
      vertex  -1.749670e+02  1.373730e+03 -5.522800e+01
      vertex  -1.657820e+02  1.383350e+03 -5.869950e+01
      vertex  -1.701750e+02  1.387130e+03 -5.090510e+01
    endloop
  endfacet
  facet normal -8.061044e-01  1.875447e-01  5.612687e-01
    outer loop
      vertex  -3.275080e+02  1.286680e+03 -4.930190e+01
      vertex  -3.259770e+02  1.300940e+03 -5.186790e+01
      vertex  -3.393430e+02  1.270080e+03 -6.075270e+01
    endloop
  endfacet
  facet normal  4.706739e-01 -2.914739e-01  8.327719e-01
    outer loop
      vertex  -3.218270e+02  1.284580e+03 -4.991310e+01
      vertex  -3.071210e+02  1.293670e+03 -5.504320e+01
      vertex  -3.147200e+02  1.303870e+03 -4.717830e+01
    endloop
  endfacet
  facet normal -5.892568e-01  8.079444e-01 -1.480130e-03
    outer loop
      vertex  -2.337810e+02  1.360750e+03 -5.055680e+01
      vertex  -2.254500e+02  1.366800e+03 -6.474470e+01
      vertex  -2.410970e+02  1.355420e+03 -4.738770e+01
    endloop
  endfacet
  facet normal  6.320344e-01 -5.695659e-01  5.254781e-01
    outer loop
      vertex  -2.134590e+02  1.361080e+03 -4.241790e+01
      vertex  -2.250890e+02  1.345860e+03 -4.492650e+01
      vertex  -2.154030e+02  1.352610e+03 -4.926030e+01
    endloop
  endfacet
  facet normal -3.805686e-01  3.118370e-01  8.705890e-01
    outer loop
      vertex  -2.743750e+02  1.251810e+03 -4.882060e+01
      vertex  -3.271370e+02  1.217490e+03 -5.959180e+01
      vertex  -3.056910e+02  1.219880e+03 -5.107300e+01
    endloop
  endfacet
  facet normal -7.001052e-01  6.162975e-01 -3.605967e-01
    outer loop
      vertex  -3.021750e+02  1.327480e+03 -6.961520e+01
      vertex  -3.140508e+02  1.321664e+03 -5.649766e+01
      vertex  -2.850440e+02  1.348080e+03 -6.766780e+01
    endloop
  endfacet
  facet normal  6.127712e-01 -7.725805e-01  1.662250e-01
    outer loop
      vertex  -2.154030e+02  1.352610e+03 -4.926030e+01
      vertex  -2.250890e+02  1.345860e+03 -4.492650e+01
      vertex  -2.237670e+02  1.344760e+03 -5.491240e+01
    endloop
  endfacet
  facet normal  3.682624e-01 -5.050331e-01  7.805924e-01
    outer loop
      vertex  -2.463140e+02  1.336310e+03 -4.109180e+01
      vertex  -2.250890e+02  1.345860e+03 -4.492650e+01
      vertex  -2.521200e+02  1.337950e+03 -3.729170e+01
    endloop
  endfacet
  facet normal -5.734641e-01  2.043277e-01  7.933404e-01
    outer loop
      vertex  -3.259770e+02  1.300940e+03 -5.186790e+01
      vertex  -3.275080e+02  1.286680e+03 -4.930190e+01
      vertex  -3.125960e+02  1.312590e+03 -4.519600e+01
    endloop
  endfacet
  facet normal  7.018846e-01 -6.178213e-01 -3.544785e-01
    outer loop
      vertex  -2.880470e+02  1.228130e+03 -6.013170e+01
      vertex  -3.031200e+02  1.206680e+03 -5.259180e+01
      vertex  -2.779040e+02  1.246020e+03 -7.122860e+01
    endloop
  endfacet
  facet normal  3.571967e-01 -4.111739e-01  8.386576e-01
    outer loop
      vertex  -2.250890e+02  1.345860e+03 -4.492650e+01
      vertex  -2.134590e+02  1.361080e+03 -4.241790e+01
      vertex  -2.521200e+02  1.337950e+03 -3.729170e+01
    endloop
  endfacet
  facet normal -1.732788e-01  4.801995e-01  8.598738e-01
    outer loop
      vertex  -2.336060e+02  1.352680e+03 -4.178690e+01
      vertex  -2.521200e+02  1.337950e+03 -3.729170e+01
      vertex  -2.134590e+02  1.361080e+03 -4.241790e+01
    endloop
  endfacet
  facet normal -7.010053e-01  3.497719e-01  6.214912e-01
    outer loop
      vertex  -1.957740e+02  1.355080e+03 -4.933180e+01
      vertex  -1.960790e+02  1.370520e+03 -5.836540e+01
      vertex  -2.073920e+02  1.363700e+03 -6.728750e+01
    endloop
  endfacet
  facet normal -5.119314e-01 -5.276670e-02  8.574042e-01
    outer loop
      vertex  -3.416760e+02  1.244280e+03 -6.037060e+01
      vertex  -3.275080e+02  1.286680e+03 -4.930190e+01
      vertex  -3.465250e+02  1.247070e+03 -6.309410e+01
    endloop
  endfacet
  facet normal  7.863156e-01 -3.882160e-01  4.806206e-01
    outer loop
      vertex  -3.416760e+02  1.244280e+03 -6.037060e+01
      vertex  -3.326250e+02  1.267680e+03 -5.627730e+01
      vertex  -3.275080e+02  1.286680e+03 -4.930190e+01
    endloop
  endfacet
  facet normal  7.038666e-01 -6.845219e-01 -1.897408e-01
    outer loop
      vertex  -2.705130e+02  1.241410e+03 -5.805310e+01
      vertex  -2.634610e+02  1.245080e+03 -4.513270e+01
      vertex  -2.898980e+02  1.218540e+03 -4.745680e+01
    endloop
  endfacet
  facet normal -7.451973e-03 -4.766098e-02  9.988358e-01
    outer loop
      vertex  -3.416760e+02  1.244280e+03 -6.037060e+01
      vertex  -3.489030e+02  1.216900e+03 -6.173100e+01
      vertex  -3.388123e+02  1.201207e+03 -6.240455e+01
    endloop
  endfacet
  facet normal -2.840285e-01 -1.462334e-01  9.475989e-01
    outer loop
      vertex  -3.147200e+02  1.303870e+03 -4.717830e+01
      vertex  -3.000150e+02  1.316370e+03 -4.084170e+01
      vertex  -3.125960e+02  1.312590e+03 -4.519600e+01
    endloop
  endfacet
  facet normal -4.726104e-01  8.500857e-01  2.323656e-01
    outer loop
      vertex  -2.732070e+02  1.311100e+03 -8.040440e+01
      vertex  -2.861256e+02  1.302876e+03 -7.659206e+01
      vertex  -2.820470e+02  1.303540e+03 -7.072690e+01
    endloop
  endfacet
  facet normal  3.723156e-01 -2.977774e-01  8.790391e-01
    outer loop
      vertex  -3.416760e+02  1.244280e+03 -6.037060e+01
      vertex  -3.222710e+02  1.267480e+03 -6.073050e+01
      vertex  -3.326250e+02  1.267680e+03 -5.627730e+01
    endloop
  endfacet
  facet normal  4.369745e-01 -4.500477e-01 -7.787878e-01
    outer loop
      vertex  -2.327580e+02  1.353790e+03 -7.688710e+01
      vertex  -2.266560e+02  1.349920e+03 -7.122690e+01
      vertex  -2.510440e+02  1.342410e+03 -8.057100e+01
    endloop
  endfacet
  facet normal  4.741613e-01 -8.729600e-01  1.145072e-01
    outer loop
      vertex  -2.467440e+02  1.332100e+03 -5.628260e+01
      vertex  -2.527660e+02  1.328170e+03 -6.130650e+01
      vertex  -2.237670e+02  1.344760e+03 -5.491240e+01
    endloop
  endfacet
  facet normal -5.114278e-01  8.230460e-01 -2.470564e-01
    outer loop
      vertex  -2.142220e+02  1.369060e+03 -6.336140e+01
      vertex  -2.337810e+02  1.360750e+03 -5.055680e+01
      vertex  -2.105800e+02  1.373800e+03 -5.510980e+01
    endloop
  endfacet
  facet normal -7.000633e-01  6.882439e-01 -1.903462e-01
    outer loop
      vertex  -2.850440e+02  1.348080e+03 -6.766780e+01
      vertex  -3.140508e+02  1.321664e+03 -5.649766e+01
      vertex  -2.883390e+02  1.348500e+03 -5.403060e+01
    endloop
  endfacet
  facet normal  1.703725e-01 -3.884746e-01 -9.055721e-01
    outer loop
      vertex  -2.510440e+02  1.342410e+03 -8.057100e+01
      vertex  -2.549020e+02  1.335250e+03 -7.822530e+01
      vertex  -2.675990e+02  1.338800e+03 -8.213700e+01
    endloop
  endfacet
  facet normal -4.349575e-01  8.997576e-01  3.533079e-02
    outer loop
      vertex  -2.745040e+02  1.355840e+03 -6.579980e+01
      vertex  -2.808610e+02  1.352040e+03 -4.728930e+01
      vertex  -2.652910e+02  1.359810e+03 -5.348340e+01
    endloop
  endfacet
  facet normal  7.395469e-01 -6.026157e-01 -2.998744e-01
    outer loop
      vertex  -1.978900e+02  1.345020e+03 -6.661050e+01
      vertex  -1.884830e+02  1.358500e+03 -7.049990e+01
      vertex  -1.828950e+02  1.360780e+03 -6.130070e+01
    endloop
  endfacet
  facet normal  8.375736e-01 -5.260088e-01  1.475987e-01
    outer loop
      vertex  -2.039850e+02  1.368310e+03 -5.810210e+01
      vertex  -1.941260e+02  1.388680e+03 -4.145450e+01
      vertex  -2.154030e+02  1.352610e+03 -4.926030e+01
    endloop
  endfacet
  facet normal -6.453174e-01  4.363546e-01  6.270248e-01
    outer loop
      vertex  -2.073920e+02  1.363700e+03 -6.728750e+01
      vertex  -2.089590e+02  1.349740e+03 -5.918530e+01
      vertex  -1.957740e+02  1.355080e+03 -4.933180e+01
    endloop
  endfacet
  facet normal -4.490186e-01  8.930476e-01  2.912438e-02
    outer loop
      vertex  -2.883390e+02  1.348500e+03 -5.403060e+01
      vertex  -2.808610e+02  1.352040e+03 -4.728930e+01
      vertex  -2.745040e+02  1.355840e+03 -6.579980e+01
    endloop
  endfacet
  facet normal  4.455525e-01 -3.827385e-01 -8.093171e-01
    outer loop
      vertex  -2.223860e+02  1.334260e+03 -7.988350e+01
      vertex  -2.347090e+02  1.329610e+03 -8.446860e+01
      vertex  -2.000870e+02  1.349640e+03 -7.488070e+01
    endloop
  endfacet
  facet normal -2.515703e-01  2.712669e-01  9.290461e-01
    outer loop
      vertex  -2.136380e+02  1.372200e+03 -4.207940e+01
      vertex  -2.336060e+02  1.352680e+03 -4.178690e+01
      vertex  -2.163440e+02  1.363150e+03 -4.016970e+01
    endloop
  endfacet
  facet normal -2.218179e-01  9.371428e-01  2.693700e-01
    outer loop
      vertex  -2.142220e+02  1.369060e+03 -6.336140e+01
      vertex  -2.254500e+02  1.366800e+03 -6.474470e+01
      vertex  -2.337810e+02  1.360750e+03 -5.055680e+01
    endloop
  endfacet
  facet normal  6.371638e-01 -5.883079e-01 -4.979119e-01
    outer loop
      vertex  -2.000870e+02  1.349640e+03 -7.488070e+01
      vertex  -1.884830e+02  1.358500e+03 -7.049990e+01
      vertex  -1.978900e+02  1.345020e+03 -6.661050e+01
    endloop
  endfacet
  facet normal -1.134655e-01  6.454912e-01 -7.552924e-01
    outer loop
      vertex  -1.844940e+02  1.373610e+03 -7.177120e+01
      vertex  -1.755840e+02  1.391000e+03 -5.824780e+01
      vertex  -1.619230e+02  1.392060e+03 -5.939410e+01
    endloop
  endfacet
  facet normal  6.348772e-01 -2.296724e-01 -7.376866e-01
    outer loop
      vertex  -1.884830e+02  1.358500e+03 -7.049990e+01
      vertex  -1.844940e+02  1.373610e+03 -7.177120e+01
      vertex  -1.657820e+02  1.383350e+03 -5.869950e+01
    endloop
  endfacet
  facet normal  3.356552e-01 -6.437688e-01  6.876753e-01
    outer loop
      vertex  -2.732690e+02  1.335930e+03 -3.471170e+01
      vertex  -2.902460e+02  1.306230e+03 -5.422900e+01
      vertex  -2.572280e+02  1.329940e+03 -4.814900e+01
    endloop
  endfacet
  facet normal -9.105070e-01  4.099370e-01 -5.411671e-02
    outer loop
      vertex  -3.393430e+02  1.270080e+03 -6.075270e+01
      vertex  -3.259770e+02  1.300940e+03 -5.186790e+01
      vertex  -3.219120e+02  1.309046e+03 -5.885759e+01
    endloop
  endfacet
  facet normal -6.212425e-01  7.768949e-01  1.024311e-01
    outer loop
      vertex  -2.242660e+02  1.351600e+03 -7.785500e+01
      vertex  -2.073920e+02  1.363700e+03 -6.728750e+01
      vertex  -2.047460e+02  1.366930e+03 -7.573850e+01
    endloop
  endfacet
  facet normal -7.020252e-01  7.018467e-01  1.207141e-01
    outer loop
      vertex  -1.960790e+02  1.370520e+03 -5.836540e+01
      vertex  -1.861800e+02  1.379320e+03 -5.196060e+01
      vertex  -1.755840e+02  1.391000e+03 -5.824780e+01
    endloop
  endfacet
  facet normal -4.914815e-01  8.708475e-01 -8.404121e-03
    outer loop
      vertex  -2.136380e+02  1.372200e+03 -4.207940e+01
      vertex  -2.105800e+02  1.373800e+03 -5.510980e+01
      vertex  -2.337810e+02  1.360750e+03 -5.055680e+01
    endloop
  endfacet
  facet normal -4.821207e-02 -1.280357e-01 -9.905970e-01
    outer loop
      vertex  -2.675990e+02  1.338800e+03 -8.213700e+01
      vertex  -2.861256e+02  1.302876e+03 -7.659206e+01
      vertex  -2.978780e+02  1.313600e+03 -7.740620e+01
    endloop
  endfacet
  facet normal -4.037001e-01  2.866940e-01  8.688111e-01
    outer loop
      vertex  -2.602770e+02  1.265960e+03 -4.693910e+01
      vertex  -2.743750e+02  1.251810e+03 -4.882060e+01
      vertex  -2.834170e+02  1.227510e+03 -4.500340e+01
    endloop
  endfacet
  facet normal  5.499804e-01 -6.426691e-01 -5.333837e-01
    outer loop
      vertex  -2.779040e+02  1.246020e+03 -7.122860e+01
      vertex  -2.705130e+02  1.241410e+03 -5.805310e+01
      vertex  -2.880470e+02  1.228130e+03 -6.013170e+01
    endloop
  endfacet
  facet normal  5.750638e-01 -6.906297e-01 -4.385569e-01
    outer loop
      vertex  -2.705130e+02  1.241410e+03 -5.805310e+01
      vertex  -2.898980e+02  1.218540e+03 -4.745680e+01
      vertex  -2.880470e+02  1.228130e+03 -6.013170e+01
    endloop
  endfacet
  facet normal -4.937866e-01  5.039282e-01 -7.086826e-01
    outer loop
      vertex  -2.758630e+02  1.338880e+03 -8.060670e+01
      vertex  -2.920180e+02  1.327870e+03 -7.717940e+01
      vertex  -2.850440e+02  1.348080e+03 -6.766780e+01
    endloop
  endfacet
  facet normal -5.244864e-01  2.874740e-01 -8.014192e-01
    outer loop
      vertex  -3.021750e+02  1.327480e+03 -6.961520e+01
      vertex  -2.978780e+02  1.313600e+03 -7.740620e+01
      vertex  -3.136220e+02  1.295170e+03 -7.371350e+01
    endloop
  endfacet
  facet normal -3.801890e-01  2.324624e-01  8.952193e-01
    outer loop
      vertex  -2.562765e+02  1.305506e+03 -5.507753e+01
      vertex  -3.025720e+02  1.261280e+03 -6.325460e+01
      vertex  -2.743750e+02  1.251810e+03 -4.882060e+01
    endloop
  endfacet
  facet normal  6.658232e-01 -5.533007e-01 -5.005375e-01
    outer loop
      vertex  -2.108990e+02  1.363140e+03 -6.488020e+01
      vertex  -2.222040e+02  1.349350e+03 -6.467460e+01
      vertex  -2.266560e+02  1.349920e+03 -7.122690e+01
    endloop
  endfacet
  facet normal  4.195764e-01 -4.177141e-01  8.058974e-01
    outer loop
      vertex  -3.024840e+02  1.274950e+03 -6.716040e+01
      vertex  -3.071210e+02  1.293670e+03 -5.504320e+01
      vertex  -3.222710e+02  1.267480e+03 -6.073050e+01
    endloop
  endfacet
  facet normal -2.959478e-01 -1.082367e-01  9.490520e-01
    outer loop
      vertex  -3.125960e+02  1.312590e+03 -4.519600e+01
      vertex  -3.000150e+02  1.316370e+03 -4.084170e+01
      vertex  -2.941320e+02  1.327800e+03 -3.770360e+01
    endloop
  endfacet
  facet normal -1.024530e-01 -6.004883e-03 -9.947197e-01
    outer loop
      vertex  -2.861256e+02  1.302876e+03 -7.659206e+01
      vertex  -3.236950e+02  1.264820e+03 -7.249280e+01
      vertex  -3.136220e+02  1.295170e+03 -7.371350e+01
    endloop
  endfacet
  facet normal -6.512008e-01  2.191751e-01 -7.265671e-01
    outer loop
      vertex  -2.776286e+02  1.299543e+03 -8.521301e+01
      vertex  -2.935977e+02  1.276201e+03 -7.794180e+01
      vertex  -2.861256e+02  1.302876e+03 -7.659206e+01
    endloop
  endfacet
  facet normal  2.179526e-01 -2.576945e-01 -9.413237e-01
    outer loop
      vertex  -2.549020e+02  1.335250e+03 -7.822530e+01
      vertex  -2.861256e+02  1.302876e+03 -7.659206e+01
      vertex  -2.675990e+02  1.338800e+03 -8.213700e+01
    endloop
  endfacet
  facet normal -1.442953e-01  9.276706e-01 -3.443924e-01
    outer loop
      vertex  -2.142220e+02  1.369060e+03 -6.336140e+01
      vertex  -2.290060e+02  1.362730e+03 -7.421810e+01
      vertex  -2.254500e+02  1.366800e+03 -6.474470e+01
    endloop
  endfacet
  facet normal  4.051753e-01  4.338838e-01 -8.047222e-01
    outer loop
      vertex  -2.108990e+02  1.363140e+03 -6.488020e+01
      vertex  -2.290060e+02  1.362730e+03 -7.421810e+01
      vertex  -2.142220e+02  1.369060e+03 -6.336140e+01
    endloop
  endfacet
  facet normal -1.506266e-02  9.207262e-01 -3.899185e-01
    outer loop
      vertex  -2.484605e+02  1.363152e+03 -7.247038e+01
      vertex  -2.254500e+02  1.366800e+03 -6.474470e+01
      vertex  -2.290060e+02  1.362730e+03 -7.421810e+01
    endloop
  endfacet
  facet normal -2.897574e-01  2.519671e-01 -9.233381e-01
    outer loop
      vertex  -2.265130e+02  1.346000e+03 -8.256800e+01
      vertex  -2.347090e+02  1.329610e+03 -8.446860e+01
      vertex  -2.423280e+02  1.336060e+03 -8.031750e+01
    endloop
  endfacet
  facet normal  4.430812e-01 -3.764002e-01 -8.136350e-01
    outer loop
      vertex  -1.967510e+02  1.360230e+03 -7.796310e+01
      vertex  -2.000870e+02  1.349640e+03 -7.488070e+01
      vertex  -2.347090e+02  1.329610e+03 -8.446860e+01
    endloop
  endfacet
  facet normal -4.650994e-01  6.718105e-01 -5.765008e-01
    outer loop
      vertex  -2.265130e+02  1.346000e+03 -8.256800e+01
      vertex  -2.242660e+02  1.351600e+03 -7.785500e+01
      vertex  -2.047460e+02  1.366930e+03 -7.573850e+01
    endloop
  endfacet
  facet normal -5.825045e-01  8.032174e-01  1.246207e-01
    outer loop
      vertex  -2.073920e+02  1.363700e+03 -6.728750e+01
      vertex  -1.960790e+02  1.370520e+03 -5.836540e+01
      vertex  -2.047460e+02  1.366930e+03 -7.573850e+01
    endloop
  endfacet
  facet normal  3.984937e-01 -7.167825e-01  5.722113e-01
    outer loop
      vertex  -1.701750e+02  1.387130e+03 -5.090510e+01
      vertex  -1.657820e+02  1.383350e+03 -5.869950e+01
      vertex  -1.501544e+02  1.392703e+03 -5.786599e+01
    endloop
  endfacet
  facet normal -6.281847e-01  7.579739e-01 -1.756688e-01
    outer loop
      vertex  -2.423280e+02  1.336060e+03 -8.031750e+01
      vertex  -2.514340e+02  1.330520e+03 -7.165890e+01
      vertex  -2.242660e+02  1.351600e+03 -7.785500e+01
    endloop
  endfacet
  facet normal -4.305876e-01  5.978251e-01  6.761653e-01
    outer loop
      vertex  -2.240600e+02  1.331490e+03 -5.398480e+01
      vertex  -2.184360e+02  1.353150e+03 -6.955390e+01
      vertex  -2.600400e+02  1.315020e+03 -6.233540e+01
    endloop
  endfacet
  facet normal  1.468810e-01 -8.066357e-01  5.725074e-01
    outer loop
      vertex  -2.463140e+02  1.336310e+03 -4.109180e+01
      vertex  -2.521200e+02  1.337950e+03 -3.729170e+01
      vertex  -2.732690e+02  1.335930e+03 -3.471170e+01
    endloop
  endfacet
  facet normal  7.269793e-01 -5.246873e-01  4.429497e-01
    outer loop
      vertex  -2.154030e+02  1.352610e+03 -4.926030e+01
      vertex  -1.941260e+02  1.388680e+03 -4.145450e+01
      vertex  -2.134590e+02  1.361080e+03 -4.241790e+01
    endloop
  endfacet
  facet normal  2.563381e-01 -1.270911e-01 -9.581955e-01
    outer loop
      vertex  -2.533210e+02  1.305550e+03 -8.625650e+01
      vertex  -2.347090e+02  1.329610e+03 -8.446860e+01
      vertex  -2.457840e+02  1.305710e+03 -8.426140e+01
    endloop
  endfacet
  facet normal  5.329427e-01 -4.621990e-01  7.087624e-01
    outer loop
      vertex  -3.071210e+02  1.293670e+03 -5.504320e+01
      vertex  -3.218270e+02  1.284580e+03 -4.991310e+01
      vertex  -3.222710e+02  1.267480e+03 -6.073050e+01
    endloop
  endfacet
  facet normal -1.836434e-01  3.578931e-01 -9.155259e-01
    outer loop
      vertex  -2.513140e+02  1.352240e+03 -8.014970e+01
      vertex  -2.675990e+02  1.338800e+03 -8.213700e+01
      vertex  -2.675120e+02  1.351880e+03 -7.704130e+01
    endloop
  endfacet
  facet normal  7.698773e-01 -5.172923e-01 -3.737614e-01
    outer loop
      vertex  -2.337590e+02  1.304580e+03 -6.670410e+01
      vertex  -2.310560e+02  1.315170e+03 -7.579330e+01
      vertex  -2.176160e+02  1.332660e+03 -7.231590e+01
    endloop
  endfacet
  facet normal  7.143350e-01 -4.408695e-01 -5.434700e-01
    outer loop
      vertex  -2.223860e+02  1.334260e+03 -7.988350e+01
      vertex  -2.176160e+02  1.332660e+03 -7.231590e+01
      vertex  -2.310560e+02  1.315170e+03 -7.579330e+01
    endloop
  endfacet
  facet normal  6.411040e-01 -4.276991e-01 -6.372277e-01
    outer loop
      vertex  -2.223860e+02  1.334260e+03 -7.988350e+01
      vertex  -2.310560e+02  1.315170e+03 -7.579330e+01
      vertex  -2.457840e+02  1.305710e+03 -8.426140e+01
    endloop
  endfacet
  facet normal  3.051535e-01 -6.386447e-01  7.064095e-01
    outer loop
      vertex  -2.902460e+02  1.306230e+03 -5.422900e+01
      vertex  -2.732690e+02  1.335930e+03 -3.471170e+01
      vertex  -3.000150e+02  1.316370e+03 -4.084170e+01
    endloop
  endfacet
  facet normal -5.282750e-01  5.039162e-01 -6.833696e-01
    outer loop
      vertex  -2.850440e+02  1.348080e+03 -6.766780e+01
      vertex  -2.920180e+02  1.327870e+03 -7.717940e+01
      vertex  -3.021750e+02  1.327480e+03 -6.961520e+01
    endloop
  endfacet
  facet normal -4.452484e-01  4.250532e-01  7.880887e-01
    outer loop
      vertex  -2.351050e+02  1.315620e+03 -4.857140e+01
      vertex  -2.600400e+02  1.315020e+03 -6.233540e+01
      vertex  -2.562765e+02  1.305506e+03 -5.507753e+01
    endloop
  endfacet
  facet normal  7.695954e-01 -5.452196e-01 -3.323529e-01
    outer loop
      vertex  -1.657820e+02  1.383350e+03 -5.869950e+01
      vertex  -1.828950e+02  1.360780e+03 -6.130070e+01
      vertex  -1.884830e+02  1.358500e+03 -7.049990e+01
    endloop
  endfacet
  facet normal  3.774919e-01 -2.272127e-01  8.977050e-01
    outer loop
      vertex  -3.222710e+02  1.267480e+03 -6.073050e+01
      vertex  -3.171697e+02  1.247148e+03 -6.802173e+01
      vertex  -3.024840e+02  1.274950e+03 -6.716040e+01
    endloop
  endfacet
  facet normal  4.056808e-01 -7.453934e-01  5.289724e-01
    outer loop
      vertex  -3.147200e+02  1.303870e+03 -4.717830e+01
      vertex  -3.022950e+02  1.307940e+03 -5.097220e+01
      vertex  -3.000150e+02  1.316370e+03 -4.084170e+01
    endloop
  endfacet
  facet normal -7.490749e-02  1.314015e-01 -9.884951e-01
    outer loop
      vertex  -2.347090e+02  1.329610e+03 -8.446860e+01
      vertex  -2.533210e+02  1.305550e+03 -8.625650e+01
      vertex  -2.776286e+02  1.299543e+03 -8.521301e+01
    endloop
  endfacet
  facet normal -3.162396e-01  9.217917e-01 -2.242603e-01
    outer loop
      vertex  -2.479310e+02  1.364610e+03 -6.722360e+01
      vertex  -2.484605e+02  1.363152e+03 -7.247038e+01
      vertex  -2.745040e+02  1.355840e+03 -6.579980e+01
    endloop
  endfacet
  facet normal -4.695933e-01  2.484364e-01 -8.472081e-01
    outer loop
      vertex  -3.272810e+02  1.273690e+03 -7.244140e+01
      vertex  -3.285499e+02  1.289900e+03 -6.698457e+01
      vertex  -3.136220e+02  1.295170e+03 -7.371350e+01
    endloop
  endfacet
  facet normal -8.527973e-01  5.128190e-01  9.876004e-02
    outer loop
      vertex  -3.140508e+02  1.321664e+03 -5.649766e+01
      vertex  -3.219120e+02  1.309046e+03 -5.885759e+01
      vertex  -3.259770e+02  1.300940e+03 -5.186790e+01
    endloop
  endfacet
  facet normal  3.699513e-01 -8.979455e-01  2.383905e-01
    outer loop
      vertex  -2.467440e+02  1.332100e+03 -5.628260e+01
      vertex  -2.463140e+02  1.336310e+03 -4.109180e+01
      vertex  -2.572280e+02  1.329940e+03 -4.814900e+01
    endloop
  endfacet
  facet normal -1.881872e-01  1.243991e-01  9.742230e-01
    outer loop
      vertex  -2.941320e+02  1.327800e+03 -3.770360e+01
      vertex  -2.732690e+02  1.335930e+03 -3.471170e+01
      vertex  -2.793760e+02  1.342410e+03 -3.671880e+01
    endloop
  endfacet
  facet normal -1.054925e-02  8.405681e-01  5.416031e-01
    outer loop
      vertex  -2.703784e+02  1.351936e+03 -4.255048e+01
      vertex  -2.410970e+02  1.355420e+03 -4.738770e+01
      vertex  -2.254500e+02  1.366800e+03 -6.474470e+01
    endloop
  endfacet
  facet normal -4.414240e-02 -2.433022e-01  9.689456e-01
    outer loop
      vertex  -2.941320e+02  1.327800e+03 -3.770360e+01
      vertex  -3.000150e+02  1.316370e+03 -4.084170e+01
      vertex  -2.732690e+02  1.335930e+03 -3.471170e+01
    endloop
  endfacet
  facet normal  7.412989e-01 -5.973397e-01  3.060412e-01
    outer loop
      vertex  -1.828950e+02  1.360780e+03 -6.130070e+01
      vertex  -1.657820e+02  1.383350e+03 -5.869950e+01
      vertex  -1.749670e+02  1.373730e+03 -5.522800e+01
    endloop
  endfacet
  facet normal -2.176074e-01  3.333392e-01 -9.173505e-01
    outer loop
      vertex  -2.776286e+02  1.299543e+03 -8.521301e+01
      vertex  -2.423280e+02  1.336060e+03 -8.031750e+01
      vertex  -2.347090e+02  1.329610e+03 -8.446860e+01
    endloop
  endfacet
  facet normal -5.998091e-02  5.849293e-01 -8.088633e-01
    outer loop
      vertex  -2.290060e+02  1.362730e+03 -7.421810e+01
      vertex  -2.513140e+02  1.352240e+03 -8.014970e+01
      vertex  -2.484605e+02  1.363152e+03 -7.247038e+01
    endloop
  endfacet
  facet normal  1.072400e-01 -2.235027e-01 -9.687859e-01
    outer loop
      vertex  -2.780930e+02  1.255640e+03 -7.748420e+01
      vertex  -2.870360e+02  1.260260e+03 -7.954000e+01
      vertex  -2.533210e+02  1.305550e+03 -8.625650e+01
    endloop
  endfacet
  facet normal -7.307200e-01  5.346315e-01 -4.245202e-01
    outer loop
      vertex  -3.021750e+02  1.327480e+03 -6.961520e+01
      vertex  -3.219120e+02  1.309046e+03 -5.885759e+01
      vertex  -3.140508e+02  1.321664e+03 -5.649766e+01
    endloop
  endfacet
  facet normal -3.622352e-01  2.776292e-01  8.897796e-01
    outer loop
      vertex  -3.025720e+02  1.261280e+03 -6.325460e+01
      vertex  -3.271370e+02  1.217490e+03 -5.959180e+01
      vertex  -2.743750e+02  1.251810e+03 -4.882060e+01
    endloop
  endfacet
  facet normal  6.348428e-01 -3.927641e-01 -6.653653e-01
    outer loop
      vertex  -2.513990e+02  1.284680e+03 -7.720490e+01
      vertex  -2.457840e+02  1.305710e+03 -8.426140e+01
      vertex  -2.310560e+02  1.315170e+03 -7.579330e+01
    endloop
  endfacet
  facet normal -3.513062e-01 -5.087923e-02 -9.348771e-01
    outer loop
      vertex  -2.776286e+02  1.299543e+03 -8.521301e+01
      vertex  -2.870360e+02  1.260260e+03 -7.954000e+01
      vertex  -2.935977e+02  1.276201e+03 -7.794180e+01
    endloop
  endfacet
  facet normal  1.387614e-01 -8.323016e-01  5.366744e-01
    outer loop
      vertex  -2.463140e+02  1.336310e+03 -4.109180e+01
      vertex  -2.732690e+02  1.335930e+03 -3.471170e+01
      vertex  -2.572280e+02  1.329940e+03 -4.814900e+01
    endloop
  endfacet
  facet normal -3.159834e-01  9.462770e-01 -6.866033e-02
    outer loop
      vertex  -2.479310e+02  1.364610e+03 -6.722360e+01
      vertex  -2.745040e+02  1.355840e+03 -6.579980e+01
      vertex  -2.652910e+02  1.359810e+03 -5.348340e+01
    endloop
  endfacet
  facet normal  3.313873e-01 -5.105302e-01  7.934364e-01
    outer loop
      vertex  -3.222710e+02  1.267480e+03 -6.073050e+01
      vertex  -3.218270e+02  1.284580e+03 -4.991310e+01
      vertex  -3.326250e+02  1.267680e+03 -5.627730e+01
    endloop
  endfacet
  facet normal  6.973545e-01 -6.834568e-01 -2.158321e-01
    outer loop
      vertex  -2.861256e+02  1.302876e+03 -7.659206e+01
      vertex  -2.549020e+02  1.335250e+03 -7.822530e+01
      vertex  -2.834855e+02  1.302601e+03 -6.719136e+01
    endloop
  endfacet
  facet normal -6.289483e-01  4.518618e-01  6.326492e-01
    outer loop
      vertex  -3.125960e+02  1.312590e+03 -4.519600e+01
      vertex  -2.941320e+02  1.327800e+03 -3.770360e+01
      vertex  -2.870960e+02  1.344240e+03 -4.245080e+01
    endloop
  endfacet
  facet normal -2.932179e-01  2.170289e-01  9.310864e-01
    outer loop
      vertex  -1.957740e+02  1.355080e+03 -4.933180e+01
      vertex  -1.862880e+02  1.367090e+03 -4.914390e+01
      vertex  -1.861800e+02  1.379320e+03 -5.196060e+01
    endloop
  endfacet
  facet normal -1.162372e-01  9.741979e-01  1.934616e-01
    outer loop
      vertex  -2.254500e+02  1.366800e+03 -6.474470e+01
      vertex  -2.479310e+02  1.364610e+03 -6.722360e+01
      vertex  -2.652910e+02  1.359810e+03 -5.348340e+01
    endloop
  endfacet
  facet normal  9.299316e-02  4.544990e-01  8.858797e-01
    outer loop
      vertex  -2.793760e+02  1.342410e+03 -3.671880e+01
      vertex  -2.521200e+02  1.337950e+03 -3.729170e+01
      vertex  -2.703784e+02  1.351936e+03 -4.255048e+01
    endloop
  endfacet
  facet normal -2.406083e-02 -3.388186e-01  9.405440e-01
    outer loop
      vertex  -3.218270e+02  1.284580e+03 -4.991310e+01
      vertex  -3.275080e+02  1.286680e+03 -4.930190e+01
      vertex  -3.326250e+02  1.267680e+03 -5.627730e+01
    endloop
  endfacet
  facet normal  3.801095e-01 -3.703479e-01  8.475607e-01
    outer loop
      vertex  -3.071210e+02  1.293670e+03 -5.504320e+01
      vertex  -3.022950e+02  1.307940e+03 -5.097220e+01
      vertex  -3.147200e+02  1.303870e+03 -4.717830e+01
    endloop
  endfacet
  facet normal -8.101658e-01  1.966816e-01  5.522208e-01
    outer loop
      vertex  -3.393430e+02  1.270080e+03 -6.075270e+01
      vertex  -3.465250e+02  1.247070e+03 -6.309410e+01
      vertex  -3.275080e+02  1.286680e+03 -4.930190e+01
    endloop
  endfacet
  facet normal -7.535617e-01  6.501802e-01 -9.700691e-02
    outer loop
      vertex  -2.105800e+02  1.373800e+03 -5.510980e+01
      vertex  -2.136380e+02  1.372200e+03 -4.207940e+01
      vertex  -2.010130e+02  1.387130e+03 -4.008460e+01
    endloop
  endfacet
  facet normal -4.724551e-01  4.251361e-01  7.720398e-01
    outer loop
      vertex  -2.941320e+02  1.327800e+03 -3.770360e+01
      vertex  -2.793760e+02  1.342410e+03 -3.671880e+01
      vertex  -2.870960e+02  1.344240e+03 -4.245080e+01
    endloop
  endfacet
  facet normal -4.890992e-01  5.085422e-01 -7.086373e-01
    outer loop
      vertex  -2.675120e+02  1.351880e+03 -7.704130e+01
      vertex  -2.758630e+02  1.338880e+03 -8.060670e+01
      vertex  -2.850440e+02  1.348080e+03 -6.766780e+01
    endloop
  endfacet
  facet normal  4.148467e-01 -5.928850e-01 -6.902097e-01
    outer loop
      vertex  -3.031200e+02  1.206680e+03 -5.259180e+01
      vertex  -3.024220e+02  1.221010e+03 -6.448160e+01
      vertex  -2.779040e+02  1.246020e+03 -7.122860e+01
    endloop
  endfacet
  facet normal  4.335345e-01 -8.714865e-01  2.292577e-01
    outer loop
      vertex  -2.463140e+02  1.336310e+03 -4.109180e+01
      vertex  -2.467440e+02  1.332100e+03 -5.628260e+01
      vertex  -2.250890e+02  1.345860e+03 -4.492650e+01
    endloop
  endfacet
  facet normal  6.257010e-01 -2.279505e-01 -7.460140e-01
    outer loop
      vertex  -1.844940e+02  1.373610e+03 -7.177120e+01
      vertex  -1.884830e+02  1.358500e+03 -7.049990e+01
      vertex  -1.967510e+02  1.360230e+03 -7.796310e+01
    endloop
  endfacet
  facet normal  5.706556e-01 -3.900960e-01 -7.226183e-01
    outer loop
      vertex  -1.884830e+02  1.358500e+03 -7.049990e+01
      vertex  -2.000870e+02  1.349640e+03 -7.488070e+01
      vertex  -1.967510e+02  1.360230e+03 -7.796310e+01
    endloop
  endfacet
  facet normal  3.138213e-03 -1.542359e-01 -9.880291e-01
    outer loop
      vertex  -3.191970e+02  1.239260e+03 -7.366140e+01
      vertex  -3.230140e+02  1.242860e+03 -7.423550e+01
      vertex  -3.116740e+02  1.256690e+03 -7.635840e+01
    endloop
  endfacet
  facet normal  7.325241e-01 -6.209062e-01 -2.790768e-01
    outer loop
      vertex  -2.553060e+02  1.255410e+03 -4.928560e+01
      vertex  -2.705130e+02  1.241410e+03 -5.805310e+01
      vertex  -2.615860e+02  1.253230e+03 -6.091910e+01
    endloop
  endfacet
  facet normal  4.884893e-01 -1.833625e-01  8.530864e-01
    outer loop
      vertex  -3.171697e+02  1.247148e+03 -6.802173e+01
      vertex  -3.222710e+02  1.267480e+03 -6.073050e+01
      vertex  -3.290730e+02  1.243040e+03 -6.208870e+01
    endloop
  endfacet
  facet normal -3.146918e-01  6.159303e-01  7.222180e-01
    outer loop
      vertex  -2.410970e+02  1.355420e+03 -4.738770e+01
      vertex  -2.521200e+02  1.337950e+03 -3.729170e+01
      vertex  -2.336060e+02  1.352680e+03 -4.178690e+01
    endloop
  endfacet
  facet normal  4.222131e-01 -4.883303e-01 -7.637208e-01
    outer loop
      vertex  -2.780930e+02  1.255640e+03 -7.748420e+01
      vertex  -2.635350e+02  1.268480e+03 -7.764600e+01
      vertex  -2.779040e+02  1.246020e+03 -7.122860e+01
    endloop
  endfacet
  facet normal -5.606511e-01  3.217499e-01  7.629859e-01
    outer loop
      vertex  -3.171697e+02  1.247148e+03 -6.802173e+01
      vertex  -3.025720e+02  1.261280e+03 -6.325460e+01
      vertex  -2.928820e+02  1.285430e+03 -6.631830e+01
    endloop
  endfacet
  facet normal -3.729664e-01  6.788288e-01  6.325248e-01
    outer loop
      vertex  -1.861800e+02  1.379320e+03 -5.196060e+01
      vertex  -1.701750e+02  1.387130e+03 -5.090510e+01
      vertex  -1.755840e+02  1.391000e+03 -5.824780e+01
    endloop
  endfacet
  facet normal  3.394912e-01  1.206923e-01 -9.328339e-01
    outer loop
      vertex  -1.967510e+02  1.360230e+03 -7.796310e+01
      vertex  -1.970750e+02  1.368480e+03 -7.701360e+01
      vertex  -1.844940e+02  1.373610e+03 -7.177120e+01
    endloop
  endfacet
  facet normal -2.942150e-01  6.855708e-01  6.659056e-01
    outer loop
      vertex  -2.808610e+02  1.352040e+03 -4.728930e+01
      vertex  -2.793760e+02  1.342410e+03 -3.671880e+01
      vertex  -2.703784e+02  1.351936e+03 -4.255048e+01
    endloop
  endfacet
  facet normal -4.223691e-01 -8.336918e-02 -9.025818e-01
    outer loop
      vertex  -2.870360e+02  1.260260e+03 -7.954000e+01
      vertex  -2.930650e+02  1.245180e+03 -7.532580e+01
      vertex  -2.935977e+02  1.276201e+03 -7.794180e+01
    endloop
  endfacet
  facet normal -6.201618e-01  7.677845e-01 -1.609544e-01
    outer loop
      vertex  -2.732070e+02  1.311100e+03 -8.040440e+01
      vertex  -2.514340e+02  1.330520e+03 -7.165890e+01
      vertex  -2.423280e+02  1.336060e+03 -8.031750e+01
    endloop
  endfacet
  facet normal -2.171609e-01  1.099074e-01 -9.699286e-01
    outer loop
      vertex  -3.236950e+02  1.264820e+03 -7.249280e+01
      vertex  -2.861256e+02  1.302876e+03 -7.659206e+01
      vertex  -2.935977e+02  1.276201e+03 -7.794180e+01
    endloop
  endfacet
  facet normal -3.264117e-01  2.253008e-01  9.179842e-01
    outer loop
      vertex  -3.024840e+02  1.274950e+03 -6.716040e+01
      vertex  -2.928820e+02  1.285430e+03 -6.631830e+01
      vertex  -2.834855e+02  1.302601e+03 -6.719136e+01
    endloop
  endfacet
  facet normal -1.790417e-01  2.173502e-01  9.595327e-01
    outer loop
      vertex  -2.743750e+02  1.251810e+03 -4.882060e+01
      vertex  -3.029990e+02  1.209580e+03 -4.459580e+01
      vertex  -2.834170e+02  1.227510e+03 -4.500340e+01
    endloop
  endfacet
  facet normal -1.393925e-01 -3.599313e-01 -9.225070e-01
    outer loop
      vertex  -3.155310e+02  1.212710e+03 -5.926240e+01
      vertex  -2.930650e+02  1.245180e+03 -7.532580e+01
      vertex  -3.024220e+02  1.221010e+03 -6.448160e+01
    endloop
  endfacet
  facet normal -3.450655e-01  2.225570e-01  9.118103e-01
    outer loop
      vertex  -2.602770e+02  1.265960e+03 -4.693910e+01
      vertex  -2.562765e+02  1.305506e+03 -5.507753e+01
      vertex  -2.743750e+02  1.251810e+03 -4.882060e+01
    endloop
  endfacet
  facet normal  6.059107e-01 -5.514656e-01 -5.733742e-01
    outer loop
      vertex  -2.615860e+02  1.253230e+03 -6.091910e+01
      vertex  -2.779040e+02  1.246020e+03 -7.122860e+01
      vertex  -2.635350e+02  1.268480e+03 -7.764600e+01
    endloop
  endfacet
  facet normal -2.236019e-01  1.287562e-01 -9.661388e-01
    outer loop
      vertex  -2.935977e+02  1.276201e+03 -7.794180e+01
      vertex  -3.116740e+02  1.256690e+03 -7.635840e+01
      vertex  -3.236950e+02  1.264820e+03 -7.249280e+01
    endloop
  endfacet
  facet normal  1.881081e-01 -4.480292e-01 -8.740052e-01
    outer loop
      vertex  -3.191970e+02  1.239260e+03 -7.366140e+01
      vertex  -3.008050e+02  1.244920e+03 -7.260440e+01
      vertex  -3.155310e+02  1.212710e+03 -5.926240e+01
    endloop
  endfacet
  facet normal -1.261506e-01  3.592272e-02  9.913605e-01
    outer loop
      vertex  -3.171697e+02  1.247148e+03 -6.802173e+01
      vertex  -2.928820e+02  1.285430e+03 -6.631830e+01
      vertex  -3.024840e+02  1.274950e+03 -6.716040e+01
    endloop
  endfacet
  facet normal -2.183370e-01  8.372173e-01  5.013943e-01
    outer loop
      vertex  -2.808610e+02  1.352040e+03 -4.728930e+01
      vertex  -2.703784e+02  1.351936e+03 -4.255048e+01
      vertex  -2.652910e+02  1.359810e+03 -5.348340e+01
    endloop
  endfacet
  facet normal  7.366098e-01 -6.497851e-01 -1.875774e-01
    outer loop
      vertex  -2.237670e+02  1.344760e+03 -5.491240e+01
      vertex  -2.222040e+02  1.349350e+03 -6.467460e+01
      vertex  -2.154030e+02  1.352610e+03 -4.926030e+01
    endloop
  endfacet
  facet normal -6.613910e-01  7.498153e-01 -1.840747e-02
    outer loop
      vertex  -2.820470e+02  1.303540e+03 -7.072690e+01
      vertex  -2.514340e+02  1.330520e+03 -7.165890e+01
      vertex  -2.732070e+02  1.311100e+03 -8.040440e+01
    endloop
  endfacet
  facet normal -2.930628e-01  1.353887e-01 -9.464587e-01
    outer loop
      vertex  -2.758630e+02  1.338880e+03 -8.060670e+01
      vertex  -2.978780e+02  1.313600e+03 -7.740620e+01
      vertex  -2.920180e+02  1.327870e+03 -7.717940e+01
    endloop
  endfacet
  facet normal -1.382315e-01  3.134901e-01  9.394764e-01
    outer loop
      vertex  -3.271370e+02  1.217490e+03 -5.959180e+01
      vertex  -3.171697e+02  1.247148e+03 -6.802173e+01
      vertex  -3.306420e+02  1.221720e+03 -6.151900e+01
    endloop
  endfacet
  facet normal -3.934952e-01  8.274950e-01 -4.005166e-01
    outer loop
      vertex  -2.850440e+02  1.348080e+03 -6.766780e+01
      vertex  -2.484605e+02  1.363152e+03 -7.247038e+01
      vertex  -2.675120e+02  1.351880e+03 -7.704130e+01
    endloop
  endfacet
  facet normal -2.970169e-01  3.086782e-01  9.036032e-01
    outer loop
      vertex  -3.507510e+02  1.196560e+03 -6.474150e+01
      vertex  -3.343330e+02  1.189580e+03 -5.696040e+01
      vertex  -3.388123e+02  1.201207e+03 -6.240455e+01
    endloop
  endfacet
  facet normal -2.360726e-01 -3.142668e-03 -9.717304e-01
    outer loop
      vertex  -3.490028e+02  1.220119e+03 -6.524240e+01
      vertex  -3.288753e+02  1.223559e+03 -7.014332e+01
      vertex  -3.507510e+02  1.196560e+03 -6.474150e+01
    endloop
  endfacet
  facet normal -8.805676e-02 -1.263406e-01 -9.880709e-01
    outer loop
      vertex  -3.444710e+02  1.195140e+03 -6.511960e+01
      vertex  -3.507510e+02  1.196560e+03 -6.474150e+01
      vertex  -3.288753e+02  1.223559e+03 -7.014332e+01
    endloop
  endfacet
  facet normal  4.485970e-01 -9.133011e-03  8.936875e-01
    outer loop
      vertex  -3.290730e+02  1.243040e+03 -6.208870e+01
      vertex  -3.306420e+02  1.221720e+03 -6.151900e+01
      vertex  -3.171697e+02  1.247148e+03 -6.802173e+01
    endloop
  endfacet
  facet normal -9.923407e-01  7.571226e-02  9.760928e-02
    outer loop
      vertex  -3.507510e+02  1.196560e+03 -6.474150e+01
      vertex  -3.489030e+02  1.216900e+03 -6.173100e+01
      vertex  -3.490028e+02  1.220119e+03 -6.524240e+01
    endloop
  endfacet
  facet normal -9.911129e-01  8.282347e-02  1.040934e-01
    outer loop
      vertex  -3.490028e+02  1.220119e+03 -6.524240e+01
      vertex  -3.489030e+02  1.216900e+03 -6.173100e+01
      vertex  -3.465250e+02  1.247070e+03 -6.309410e+01
    endloop
  endfacet
  facet normal  7.400014e-01 -6.451986e-01 -1.900438e-01
    outer loop
      vertex  -2.154030e+02  1.352610e+03 -4.926030e+01
      vertex  -2.222040e+02  1.349350e+03 -6.467460e+01
      vertex  -2.039850e+02  1.368310e+03 -5.810210e+01
    endloop
  endfacet
  facet normal -2.114298e-01 -1.408570e-01 -9.671901e-01
    outer loop
      vertex  -3.490028e+02  1.220119e+03 -6.524240e+01
      vertex  -3.230140e+02  1.242860e+03 -7.423550e+01
      vertex  -3.288753e+02  1.223559e+03 -7.014332e+01
    endloop
  endfacet
  facet normal -2.633210e-01  6.819993e-02 -9.622945e-01
    outer loop
      vertex  -3.116740e+02  1.256690e+03 -7.635840e+01
      vertex  -3.230140e+02  1.242860e+03 -7.423550e+01
      vertex  -3.236950e+02  1.264820e+03 -7.249280e+01
    endloop
  endfacet
  facet normal -3.774818e-02 -1.962785e-01 -9.798213e-01
    outer loop
      vertex  -3.230140e+02  1.242860e+03 -7.423550e+01
      vertex  -3.191970e+02  1.239260e+03 -7.366140e+01
      vertex  -3.288753e+02  1.223559e+03 -7.014332e+01
    endloop
  endfacet
  facet normal  4.893491e-02  6.526412e-01 -7.560853e-01
    outer loop
      vertex  -1.844940e+02  1.373610e+03 -7.177120e+01
      vertex  -1.970750e+02  1.368480e+03 -7.701360e+01
      vertex  -1.855690e+02  1.378700e+03 -6.744720e+01
    endloop
  endfacet
  facet normal -8.496846e-01  3.345473e-01 -4.075713e-01
    outer loop
      vertex  -3.393430e+02  1.270080e+03 -6.075270e+01
      vertex  -3.285499e+02  1.289900e+03 -6.698457e+01
      vertex  -3.438310e+02  1.251950e+03 -6.627800e+01
    endloop
  endfacet
  facet normal -3.863415e-01  3.278255e-02 -9.217730e-01
    outer loop
      vertex  -3.490028e+02  1.220119e+03 -6.524240e+01
      vertex  -3.438310e+02  1.251950e+03 -6.627800e+01
      vertex  -3.272810e+02  1.273690e+03 -7.244140e+01
    endloop
  endfacet
  facet normal  1.366420e-01  1.641111e-02  9.904845e-01
    outer loop
      vertex  -3.306420e+02  1.221720e+03 -6.151900e+01
      vertex  -3.290730e+02  1.243040e+03 -6.208870e+01
      vertex  -3.416760e+02  1.244280e+03 -6.037060e+01
    endloop
  endfacet
  facet normal  1.258364e-01 -8.992640e-02  9.879668e-01
    outer loop
      vertex  -3.416760e+02  1.244280e+03 -6.037060e+01
      vertex  -3.290730e+02  1.243040e+03 -6.208870e+01
      vertex  -3.222710e+02  1.267480e+03 -6.073050e+01
    endloop
  endfacet
  facet normal -4.547235e-01  7.593473e-02  8.873897e-01
    outer loop
      vertex  -3.489030e+02  1.216900e+03 -6.173100e+01
      vertex  -3.416760e+02  1.244280e+03 -6.037060e+01
      vertex  -3.465250e+02  1.247070e+03 -6.309410e+01
    endloop
  endfacet
  facet normal  1.926808e-01  8.356330e-02 -9.776970e-01
    outer loop
      vertex  -3.230140e+02  1.242860e+03 -7.423550e+01
      vertex  -3.272810e+02  1.273690e+03 -7.244140e+01
      vertex  -3.236950e+02  1.264820e+03 -7.249280e+01
    endloop
  endfacet
  facet normal -3.337593e-01  8.660393e-03 -9.426185e-01
    outer loop
      vertex  -3.272810e+02  1.273690e+03 -7.244140e+01
      vertex  -3.230140e+02  1.242860e+03 -7.423550e+01
      vertex  -3.490028e+02  1.220119e+03 -6.524240e+01
    endloop
  endfacet
  facet normal -8.406307e-01  1.193963e-01 -5.282846e-01
    outer loop
      vertex  -3.438310e+02  1.251950e+03 -6.627800e+01
      vertex  -3.490028e+02  1.220119e+03 -6.524240e+01
      vertex  -3.465250e+02  1.247070e+03 -6.309410e+01
    endloop
  endfacet
  facet normal -9.054031e-01  3.119075e-01 -2.880260e-01
    outer loop
      vertex  -3.465250e+02  1.247070e+03 -6.309410e+01
      vertex  -3.393430e+02  1.270080e+03 -6.075270e+01
      vertex  -3.438310e+02  1.251950e+03 -6.627800e+01
    endloop
  endfacet
endsolid vcg
