# This file uses centimeters as units for non-parametric coordinates.

mtllib R_Radius.mtl
g default
v -381.941986 1210.660034 -38.529701
v -562.484009 1066.510010 43.906502
v -555.541992 1059.829956 30.670097
v -533.476013 1059.199951 27.255800
v -549.184021 1068.660034 23.302900
v -524.930481 1088.630005 15.504350
v -535.213013 1088.020020 32.577801
v -554.075012 1078.270020 44.420101
v -552.382996 1063.949951 39.079102
v -563.466003 1073.569946 38.269001
v -541.387024 1051.530029 27.769400
v -536.544006 1053.229980 40.314800
v -534.429993 1057.109985 48.361698
v -481.517517 1134.830078 -3.548081
v -460.447235 1149.020020 3.436612
v -399.596008 1190.880005 -11.778701
v -420.795990 1173.719971 -22.752501
v -406.412994 1172.619995 -20.929350
v -455.511505 1138.280029 -0.586388
v -381.312012 1193.260010 -34.860901
v -419.008514 1169.309937 -8.180835
v -400.252991 1177.859985 -12.821300
v -393.299011 1187.689941 -11.482300
v -392.994995 1196.880005 -31.588602
v -379.549011 1194.959961 -21.164900
v -385.674988 1203.079956 -21.535101
v -376.183014 1204.489990 -18.076799
v -367.933014 1203.780029 -21.882401
v -367.606995 1197.780029 -35.363400
v -381.431000 1214.380005 -29.833200
v -378.440002 1199.729980 -42.492901
v -438.103760 1166.864990 -15.751101
v -452.523987 1160.910034 -3.553320
v -463.756012 1152.612549 -5.854048
v -463.269989 1142.599976 -8.990080
v -418.083527 1177.109985 -6.663540
v -506.644257 1102.449951 9.310980
v -512.882996 1087.329956 25.118099
v -524.945007 1075.410034 22.054199
v -540.434021 1084.010010 22.580500
v -537.327026 1090.729980 29.476200
v -523.643982 1079.839966 31.866699
v -520.734009 1101.819946 24.981501
v -480.425995 1141.280029 4.600790
v -480.657013 1119.405029 7.840540
v -531.702026 1062.250000 40.783001
vn -0.357669 -0.664341 0.656296
vn -0.153107 -0.118665 0.981059
vn -0.241225 -0.453640 0.857917
vn -0.311413 -0.002075 0.950273
vn -0.192279 0.026728 0.980976
vn -0.277112 0.279550 0.919272
vn -0.557225 0.279883 -0.781771
vn -0.516494 0.270937 -0.812297
vn -0.459562 0.229007 -0.858114
vn -0.745119 -0.149853 -0.649878
vn -0.791627 -0.413138 -0.450160
vn -0.647995 -0.731639 -0.211674
vn -0.238625 -0.493476 -0.836385
vn -0.512333 -0.208242 -0.833157
vn -0.414412 -0.179761 -0.892159
vn 0.385181 -0.332734 -0.860769
vn 0.043935 -0.280478 -0.958854
vn -0.102798 -0.191923 -0.976011
vn 0.751793 -0.578242 -0.316929
vn 0.783982 -0.616299 -0.074490
vn 0.793710 -0.583336 -0.172463
vn 0.884814 -0.450422 -0.119264
vn 0.913954 -0.404256 -0.035577
vn 0.866990 -0.439432 -0.235008
vn -0.404200 0.117946 -0.907034
vn -0.177899 -0.136142 -0.974586
vn -0.297204 0.043211 -0.953836
vn -0.555999 0.780079 -0.286953
vn -0.654102 0.714638 -0.247878
vn -0.583479 0.812032 -0.012497
vn 0.482480 0.552822 0.679412
vn 0.427193 0.529139 0.733156
vn 0.332087 0.513560 0.791185
vn -0.386323 -0.618216 0.684517
vn -0.648924 -0.750824 0.123130
vn -0.628164 -0.772277 0.094864
vn -0.212574 -0.859167 0.465451
vn -0.230778 -0.929473 0.287787
vn -0.604225 -0.747139 0.276938
vn -0.358289 -0.701047 0.616573
vn -0.604225 -0.747139 0.276938
vn -0.488399 -0.759460 0.429752
vn -0.636954 -0.767443 -0.072940
vn -0.368620 -0.928252 -0.049675
vn -0.474364 -0.725944 0.497981
vn 0.690208 -0.708436 0.147418
vn 0.677517 -0.726175 -0.116798
vn 0.042899 -0.917529 0.395348
vn 0.806540 -0.591163 0.004475
vn 0.994861 -0.051197 0.087348
vn 0.929267 0.115427 0.350912
vn 0.505731 0.184786 0.842669
vn 0.453726 0.146084 0.879086
vn 0.311198 0.291744 0.904456
vn -0.674806 0.736763 -0.042632
vn -0.708827 0.631787 -0.313704
vn -0.584238 0.758919 0.287590
vn -0.397106 0.782350 0.479829
vn -0.070884 0.472219 0.878627
vn -0.155200 0.560436 0.813526
vn 0.531471 -0.367474 0.763218
vn 0.542629 -0.407402 0.734559
vn 0.397416 -0.245990 0.884053
vn 0.637786 -0.767594 0.063478
vn 0.697246 -0.716451 -0.023395
vn 0.428336 -0.786102 -0.445614
vn 0.530425 -0.780886 0.329949
vn 0.435788 -0.818404 0.374571
vn 0.482338 -0.869569 0.105829
vn 0.607671 -0.772340 0.185006
vn 0.600162 -0.635296 0.486009
vn 0.600973 -0.794463 0.087516
vn 0.069430 0.226027 0.971644
vn 0.259081 -0.252904 0.932157
vn 0.303869 -0.163822 0.938523
vn 0.303869 -0.163822 0.938523
vn 0.259081 -0.252904 0.932157
vn 0.438115 -0.505130 0.743571
vn -0.531533 0.841029 0.100710
vn -0.589070 0.803167 -0.088990
vn -0.501137 0.829597 0.246233
vn -0.547050 0.527651 -0.649862
vn -0.557770 0.502395 -0.660676
vn -0.415420 0.199370 -0.887512
vn -0.682355 -0.312186 -0.661008
vn -0.735106 0.012443 -0.677838
vn -0.822814 -0.040715 -0.566851
vn -0.296041 -0.332411 -0.895468
vn -0.463391 -0.415444 -0.782735
vn -0.194584 -0.550880 -0.811584
vn 0.003641 -0.752246 -0.658872
vn 0.235306 -0.768458 -0.595066
vn 0.112663 -0.902456 -0.415789
vn 0.184624 0.137813 0.973099
vn 0.084396 0.438935 0.894547
vn 0.305081 0.265922 0.914446
vn 0.600978 -0.337954 0.724301
vn 0.268870 -0.190362 0.944177
vn 0.334871 -0.438184 0.834180
vn 0.746977 -0.636171 0.193165
vn 0.606156 -0.753410 0.254848
vn 0.642902 -0.765559 -0.024427
vn 0.624184 0.719264 -0.305047
vn 0.547235 0.132854 -0.826368
vn 0.669541 0.717341 -0.192708
vn 0.694364 0.557347 -0.455218
vn 0.539406 0.734828 -0.411180
vn 0.615537 0.602022 -0.508609
vn -0.807775 0.585074 0.072034
vn -0.548677 0.660192 0.512933
vn -0.818067 0.429302 0.382708
vn -0.739675 0.649878 -0.174756
vn -0.866767 0.404868 -0.291198
vn -0.916830 0.398195 0.029369
vn 0.804251 0.526543 -0.275558
vn 0.719643 0.542858 -0.432920
vn 0.676289 0.639560 -0.365508
vn -0.452369 0.106740 0.885420
vn -0.293394 0.192210 0.936470
vn -0.471828 0.380318 0.795447
vn -0.286531 -0.071025 0.955435
vn -0.235089 0.133017 0.962829
vn -0.048306 -0.186026 0.981357
vn 0.669615 -0.492487 0.555942
vn 0.643669 -0.688107 0.334961
vn 0.603775 -0.509985 0.612675
vn -0.225301 -0.230870 -0.946540
vn -0.068586 -0.431124 -0.899682
vn -0.208895 -0.206771 -0.955829
vn -0.592662 0.787902 0.167221
vn -0.687082 0.719456 -0.101493
vn -0.650643 0.743422 -0.154879
vn 0.144333 0.666329 0.731555
vn 0.031929 0.715071 0.698323
vn 0.325551 0.533192 0.780847
vn 0.383330 -0.691394 0.612399
vn 0.303791 -0.466697 0.830605
vn 0.415693 -0.552587 0.722389
vn 0.792654 -0.527635 0.305452
vn 0.722906 -0.610532 0.323509
vn 0.743399 -0.492567 0.452477
vn -0.005071 -0.443761 -0.896131
vn 0.125930 -0.620353 -0.774147
vn 0.173022 -0.620160 -0.765157
vn 0.549707 -0.790310 -0.270615
vn 0.672193 -0.739952 -0.025048
vn 0.485164 -0.836458 -0.254862
vn 0.147018 -0.563256 -0.813098
vn 0.158773 -0.595220 -0.787721
vn 0.284309 -0.710581 -0.643617
vn -0.211033 0.636347 0.741975
vn -0.228083 0.639174 0.734462
vn -0.374340 0.784564 0.494296
vn -0.514917 0.838845 0.176635
vn -0.596188 0.794828 -0.113172
vn -0.404849 0.774037 0.486790
vn -0.557220 0.495320 -0.666456
vn -0.540583 0.546388 -0.639711
vn -0.418645 0.244801 -0.874534
vn 0.083305 0.206794 0.974831
vn 0.315219 -0.106413 0.943034
vn 0.283257 -0.121010 0.951379
vn 0.083305 0.206794 0.974831
vn 0.104218 0.181737 0.977809
vn -0.157494 0.538432 0.827821
vn -0.575881 0.804577 -0.144974
vn -0.557556 0.812218 -0.171559
vn -0.499881 0.852570 0.152460
vn -0.540583 0.546388 -0.639711
vn -0.510194 0.499477 -0.700161
vn -0.408989 0.254241 -0.876407
vn 0.107380 -0.531945 -0.839943
vn -0.044721 -0.326721 -0.944062
vn -0.077660 -0.299132 -0.951046
vn 0.088189 -0.489740 -0.867397
vn 0.306993 -0.681046 -0.664779
vn 0.337922 -0.683974 -0.646521
vn -0.279269 -0.121901 -0.952444
vn -0.467947 0.108123 -0.877118
vn -0.491455 0.133612 -0.860593
vn -0.236580 -0.195819 -0.951675
vn -0.215224 -0.205612 -0.954674
vn -0.458405 0.095266 -0.883623
vn -0.194682 -0.240862 -0.950833
vn -0.216492 -0.217083 -0.951844
vn -0.464464 0.085142 -0.881489
vn 0.214036 -0.569680 -0.793507
vn 0.327805 -0.653445 -0.682315
vn 0.435980 -0.685237 -0.583414
vn 0.153076 -0.489703 -0.858347
vn -0.025285 -0.358269 -0.933276
vn 0.156003 -0.501534 -0.850956
vn 0.789758 -0.603025 0.112437
vn 0.761441 -0.644698 -0.067611
vn 0.778054 -0.615447 0.125927
vn 0.312532 0.140899 0.939399
vn 0.241630 0.207949 0.947825
vn 0.273058 0.181573 0.944707
vn 0.591589 -0.295284 0.750220
vn 0.568672 -0.341397 0.748371
vn 0.483639 -0.157138 0.861047
vn 0.101564 0.316906 0.943003
vn 0.120200 0.296217 0.947527
vn 0.314634 0.096370 0.944308
vn -0.679737 0.733294 -0.015393
vn -0.711076 0.633506 -0.305026
vn -0.670946 0.741193 0.021553
vn -0.663004 0.659216 -0.354769
vn -0.672174 0.653187 -0.348610
vn -0.666910 0.739137 -0.094383
vn -0.481474 0.743232 0.464531
vn -0.147425 0.534853 0.831984
vn -0.492220 0.740676 0.457295
vn 0.648331 -0.706879 0.282823
vn 0.484961 -0.264682 0.833520
vn 0.485947 -0.214045 0.847373
vn 0.681267 -0.720743 -0.128078
vn 0.680199 -0.708770 -0.187014
vn 0.481917 -0.675354 -0.558259
vn 0.481883 -0.791498 -0.375925
vn 0.648331 -0.706879 0.282823
vn 0.526938 -0.788739 -0.316587
vn -0.350471 0.123471 -0.928399
vn -0.526145 0.496550 -0.690369
vn -0.372741 0.116682 -0.920570
vn -0.501137 0.829597 0.246233
vn -0.589070 0.803167 -0.088990
vn -0.552356 0.828504 0.092110
vn -0.711076 0.633506 -0.305026
vn -0.708439 0.627451 -0.323139
vn -0.670946 0.741193 0.021553
vn -0.268572 0.685694 0.676530
vn 0.063662 0.425658 0.902642
vn -0.024606 0.484870 0.874240
vn 0.268416 0.220853 0.937644
vn 0.212840 0.268113 0.939582
vn 0.281667 0.237743 0.929592
vn 0.364066 0.352918 0.861919
vn 0.426282 0.388791 0.816778
vn 0.392705 0.412161 0.822135
vn -0.370028 0.923392 0.102111
vn -0.180675 0.900215 0.396194
vn 0.205481 0.694332 0.689696
vn -0.576722 0.431111 -0.693927
vn -0.577294 0.658385 -0.482972
vn -0.578479 0.486314 -0.654875
vn -0.025285 -0.358269 -0.933276
vn -0.068999 -0.323363 -0.943756
vn 0.156003 -0.501534 -0.850956
vn -0.016197 -0.292541 -0.956116
vn -0.003001 -0.333839 -0.942625
vn 0.099072 -0.353775 -0.930069
vn 0.913954 -0.404256 -0.035577
vn 0.872372 -0.483248 -0.073741
vn 0.866990 -0.439432 -0.235008
vn -0.669429 0.123332 -0.732567
vn -0.860596 -0.245444 -0.446241
vn -0.719274 0.134728 -0.681537
vn -0.675841 0.703261 0.220596
vn -0.462325 0.661930 0.590003
vn -0.602011 0.794902 0.075590
vn 0.439102 0.882145 0.170321
vn 0.458261 0.806031 0.374581
vn 0.632542 0.718148 -0.290093
s off
g R_Radius:mmGroup0
usemtl initialShadingGroup
f 9//1 13//2 2//3
f 2//4 13//5 8//6
f 10//7 40//8 5//9
f 10//10 3//11 2//12
f 11//13 3//14 5//15
f 4//16 11//17 5//18
f 12//19 4//20 46//21
f 39//22 42//23 4//24
f 40//25 6//26 5//27
f 41//28 10//29 8//30
f 46//31 8//32 13//33
f 13//34 9//35 12//36
f 9//37 2//38 3//39
f 9//40 3//41 12//42
f 3//43 11//44 12//45
f 11//46 4//47 12//48
f 12//49 46//50 13//51
f 46//52 42//53 7//54
f 43//55 40//56 41//57
f 44//58 15//59 33//60
f 19//61 21//62 36//63
f 29//64 22//65 20//66
f 22//67 21//68 18//69
f 18//70 21//71 19//72
f 16//73 36//74 23//75
f 23//76 36//77 22//78
f 26//79 32//80 16//81
f 32//82 24//83 17//84
f 31//85 24//86 1//87
f 24//88 31//89 20//90
f 20//91 31//92 29//93
f 25//94 26//95 23//96
f 28//97 27//98 25//99
f 28//100 25//101 29//102
f 29//103 31//104 1//105
f 28//106 29//107 30//108
f 24//109 26//110 30//111
f 30//112 1//113 24//114
f 1//115 30//116 29//117
f 26//118 27//119 30//120
f 27//121 26//122 25//123
f 23//124 29//125 25//126
f 24//127 20//128 17//129
f 26//130 24//131 32//132
f 26//133 16//134 23//135
f 22//136 36//137 21//138
f 22//139 29//140 23//141
f 17//142 20//143 18//144
f 20//145 22//146 18//147
f 35//148 18//149 19//150
f 36//151 16//152 33//153
f 33//154 34//155 44//156
f 14//157 34//158 35//159
f 15//160 19//161 36//162
f 15//163 36//164 33//165
f 32//166 34//167 33//168
f 34//169 32//170 35//171
f 18//172 35//173 17//174
f 35//175 19//176 37//177
f 6//178 40//179 14//180
f 37//181 6//182 14//183
f 35//184 37//185 14//186
f 39//187 37//188 45//189
f 4//190 6//191 39//192
f 42//193 39//194 38//195
f 38//196 43//197 42//198
f 38//199 45//200 15//201
f 15//202 43//203 38//204
f 44//205 14//206 43//207
f 34//208 14//209 44//210
f 43//211 15//212 44//213
f 45//214 19//215 15//216
f 45//217 38//218 39//219
f 19//220 45//221 37//222
f 35//223 32//224 17//225
f 16//226 32//227 33//228
f 14//229 40//230 43//231
f 41//232 7//233 43//234
f 42//235 43//236 7//237
f 7//238 8//239 46//240
f 41//241 8//242 7//243
f 10//244 41//245 40//246
f 6//247 37//248 39//249
f 5//250 6//251 4//252
f 42//253 46//254 4//255
f 5//256 3//257 10//258
f 10//259 2//260 8//261
f 30//262 27//263 28//264
