v -638.776  916.918  100.797
v -652.75 929.564 96.0088
v -647.982   924.93  107.134
v -664.075   928.22  101.593
v -677.736   925.94  93.7319
v -667.909  944.305  100.347
v -627.317  932.873  85.7304
v -645.113  933.804  90.1775
v -626.041  934.898  95.0139
v -606.433  929.245  110.623
v -608.899  924.047  101.604
v -620.091  930.269  100.409
v -602.987   930.31  94.8197
v -656.609  935.393  92.5443
v -614.815    937.6   108.82
v -676.495  941.135  86.3774
v -658.714  939.396  82.6942
v -594.332  940.767  83.1767
v -637.122  939.948   100.42
v -663.109  953.063   73.698
v -614.383  946.203  91.9583
v -593.691  944.129  96.7844
v -654.419  947.116   88.183
v -648.34 944.655 82.8317
v -617.66  946.34 72.6747
v -640.454  946.761  84.9412
v -609.321  957.562  85.0149
v -622.778  961.771    90.23
v -654.869  956.107   94.228
v -644.396  949.272  74.8426
v -590.281  950.149  76.0314
v -597.506  956.364  97.8728
v -581.122   958.18    83.34
v -608.216  959.466  90.0427
v -651.302   965.58  62.9287
v -658.69 970.322 79.1821
v -633.663  956.865  78.4849
v -624.75 965.936 69.2481
v -643.213  968.695  87.7683
v -627.407  965.785  67.3541
v -637.991  965.082  79.2402
v -672.424   960.05  84.3559
v -680.076   963.37  75.2533
v -681.197  952.115  89.6704
v -610.809  968.916  61.4834
v -609.702  962.056  85.7069
v  -602.5 967.617 77.2512
v -588.663  969.997   89.308
v -691.712  966.062  93.5469
v -623.562  966.259   81.932
v -582.431  966.419  84.5483
v -584.169  966.661  66.2157
v -660.784  975.835  84.5086
v -613.502  973.401  84.6586
v -607.753  966.549  89.6817
v -605.187  968.899  82.9428
v -572.483  971.205  83.1152
v -664.68 973.544 72.5239
v -568.487  971.429  76.3236
v -654.75 976.999 76.4271
v -617.776  975.261  63.2195
v -687.619  967.949  93.5609
v -686.283  975.722  87.9281
v -634.715  980.047  81.2896
v -635.036  980.782  55.3209
v -651.717  980.324  78.6818
v -611.427  971.481  59.9832
v -593.611  978.308  89.4043
v -549.107  990.415  68.8287
v -666.508  995.719  84.7348
v -666.463  991.315  63.3916
v -650.534  982.586   69.984
v -674.507  995.414  76.1196
v -553.327  997.201  85.1149
v -645.555  1003.46  82.9289
v -636.853  998.242  63.2814
v -638.062  996.707  76.6133
v -621.341  994.073  49.0913
v -613.772  1007.22  84.4475
v -587.82 1002.11 82.0693
v -547.675  1012.96  43.3184
v -566.578  1019.92  32.9477
v -648.07 1010.48 55.8465
v -631.806  1010.96  79.0575
v -534.778  1019.14  54.4538
v -546.799  1030.97  80.3425
v -644.539   1023.9  75.3953
v -639.271     1018  53.2864
v -627.455  1023.85  81.5034
v -561.587  1028.89  82.2963
v -588.189  1043.76  32.3022
v -588.784  1026.46   81.916
v -549.637  1034.79  22.8155
v -621.933   1027.6  83.3065
v -509.133  1043.38  30.1847
v -628.928  1049.08  69.8733
v -592.955  1040.57  93.1905
v -519.333  1041.72  20.7755
v -613.133  1059.55  49.6523
v -525.394   1040.7  61.4911
v -574.894  1051.09  90.6082
v -622.256   1042.7  85.1676
v -655.128  1035.12  105.966
v -673.88 1050.51 117.634
v -646.692  1048.43  115.334
v -615.248  1051.64  92.3124
v -675.615  1048.07  104.563
v -642.286  1037.74  97.3054
v -611.106  1056.97    95.31
v -512.123  1041.63  44.7459
v -641.807  1044.54  90.3482
v -548.367  1058.03   71.868
v -633.638  1046.15  99.8542
v -650.49 1048.56 85.9502
v -474.162  1062.58  19.2267
v -640.247  1054.82  109.374
v -527.564  1059.13  7.41461
v -495.955  1058.97  8.46748
v -629.741  1065.03  100.095
v -653.606  1059.71  91.6365
v -655.212  1060.47  110.686
v -470.117  1064.55  24.5979
v -629.101  1072.33  76.7867
v -497.984  1063.27  47.0057
v -467.215  1073.73  39.3827
v -647.225  1064.13  99.6192
v -587.219  1075.02  82.6854
v -610.048  1069.91  91.6769
v -551.832  1077.22  13.5755
v -506.057  1075.37 -4.44259
v -581.604  1068.37  40.7612
v -572.188  1077.47  60.7947
v -497.744  1070.38  53.3152
v -439.959  1080.91  9.21238
v -482.251  1086.96     48.8
v -595.236  1075.47  66.5512
v -533.256  1084.55  57.5329
v -452.871   1086.1 -11.2705
v -531.222  1095.59  1.71684
v -551.297  1091.46  44.9409
v -551.498  1094.29  32.1343
v -419.462  1099.05  25.0581
v -464.874  1102.72 -26.0456
v  -424.35  1098.58 -12.4383
v -432.145  1085.42  6.74938
v -507.149  1103.22  50.1046
v -422.998  1102.28  31.2497
v -504.978   1124.3  34.3622
v -506.613  1113.53 -11.9895
v -417.882  1122.83  37.9318
v -482.092  1133.09 -26.0426
v -425.513  1111.07 -29.3426
v -531.485  1112.86  20.7003
v -394.797  1111.11  -13.132
v -403.464  1131.07  -43.565
v -524.557  1117.32  27.2457
v  -519.65  1109.86 -2.37258
v -482.812  1121.04  43.1928
v -439.334  1152.01  34.8759
v -442.201  1117.95 -38.0816
v -381.018  1119.57  13.5285
v -503.948   1132.7 -2.74257
v -506.939  1136.16   12.587
v -373.629  1130.58  19.1268
v -477.044  1154.15  -23.277
v -417.691  1136.96 -47.5403
v -462.132   1149.5 -37.2951
v -381.511  1137.54  27.8847
v -477.782  1151.01  27.3279
v -363.852  1143.32 -38.6221
v -339.864   1148.7 -13.1953
v -376.993  1153.29  27.3575
v -331.549  1163.91  3.13812
v -488.46 1153.22 3.07581
v -389.855  1158.11 -57.7629
v -419.666  1169.06 -51.0876
v -343.143  1182.19 -68.4627
v -332.489  1157.06 -21.6323
v -427.356     1191  20.2094
v -416.272  1169.28  30.1444
v -318.462   1173.1 -38.4367
v -445.868  1183.17 -34.4816
v -335.883  1177.48  10.7321
v -455.129  1179.16 -20.8119
v -424.483  1202.71 -42.3439
v -354.447  1185.52 -70.9987
v -453.521  1187.25  -15.207
v -441.599  1187.98  15.3996
v -316.11 1192.13 2.66985
v -286.279  1207.64 -27.0715
v -294.541  1202.37 -43.2941
v -440.754  1201.31 -8.43766
v -341.145   1194.5  11.5357
v -318.277  1205.57 -71.2893
v -339.485  1205.03 -73.2679
v -354.412  1213.97  6.71187
v -415.197  1212.99  8.10247
v -302.362  1213.15  6.09858
v  -419.97  1222.35 -13.4624
v -421.726  1218.55 -30.7199
v  -386.24   1211.8 -57.0491
v -376.959  1230.83  7.09816
v -349.245  1221.01 -71.1838
v -409.212  1216.13 -49.0279
v -333.022  1214.24  12.5677
v -126.865  1206.89 -56.5596
v -138.986  1210.91 -78.1243
v -152.065  1208.64 -36.0135
v -155.923  1214.91 -7.68529
v -139.937  1213.28  5.93487
v -321.195  1254.09 -82.4569
v -157.686  1216.42 -50.3624
v -398.704  1241.31 -42.0669
v -384.325  1238.23 -60.0648
v  -290.42  1211.54 -51.1558
v -105.031  1220.73  36.1449
v -124.842  1218.89  56.2264
v -268.622  1231.03 -17.3211
v -157.762  1221.04  22.9323
v -122.416  1220.49 -87.4005
v -355.424  1223.35  4.72198
v -92.5011  1219.28 -39.9903
v -276.677  1252.69  20.9935
v -282.736  1239.28 -75.2227
v -128.837  1233.88 -98.9541
v -119.669  1226.12  71.2037
v -86.3413  1225.33 -6.11079
v  -169.18  1264.39 -28.7943
v -146.327  1234.03 -91.3806
v -142.157  1229.37  59.7456
v -81.5974  1230.17  23.3339
v -73.7485  1235.39 -78.5356
v -378.409  1245.32 0.472446
v -273.004  1233.67 -67.9974
v -83.0621  1229.46 -10.1756
v -348.983  1271.89 -60.0545
v -291.378  1240.03 -79.1822
v -114.09 1234.29 82.9406
v -72.4298  1241.41  29.1155
v -368.771  1265.63 -19.7318
v -327.181  1262.45  18.5834
v -168.194  1299.93 -5.66102
v -72.2277  1235.34 -40.0055
v -266.049  1245.63  8.55755
v -238.901  1269.78 -2.09438
v  -258.03  1245.31 -60.0787
v -160.427  1245.93 -73.0659
v -154.398  1300.46  47.6548
v -88.6432  1235.43 -97.0071
v -90.8739  1245.91 -112.573
v -126.27 1245.38  81.487
v -116.953  1242.45  85.0502
v -111.815  1238.76  89.1142
v  -118.93  1257.42 -120.306
v -102.354  1246.99  96.3115
v -90.812 1257.08 104.798
v -51.5883  1261.29 -95.0481
v -265.006  1259.27 -82.4231
v -46.5776  1281.64 -11.2143
v -351.215  1257.12  3.33316
v -353.979  1268.61 -7.06176
v -142.258  1283.08  70.3077
v -111.505  1259.72  101.315
v -59.3746  1279.88 -121.304
v  -351.95  1278.55 -44.2083
v -153.811  1267.51 -96.3794
v -236.66  1289.5 24.8965
v -249.416  1262.59 -65.2467
v -119.379  1265.68  94.1133
v -296.396  1293.03 -83.9673
v -98.2665  1264.67  112.728
v -96.3242  1263.56 -125.993
v -85.3956  1269.88   115.56
v -240.312  1268.85 -23.9982
v -71.0252  1281.94  108.344
v -227.713   1280.3  11.6647
v -180.539  1296.45 -50.6692
v -270.578   1288.4  29.7123
v -55.531 1276.79  52.665
v -39.5983  1289.24 -104.683
v -134.329  1306.99  100.573
v -262.933  1287.77 -90.5499
v -232.313  1283.32 -16.7915
v -112.096  1295.98 -132.941
v -41.8205  1276.65 -90.9834
v  -328.05  1297.32 -67.7762
v -234.182  1307.66  29.2647
v -224.319  1283.23 -8.14599
v -335.044  1294.42 -23.8817
v -307.317  1303.62  8.87586
v -182.052  1303.51  -79.745
v -289.88 1297.47 23.7369
v -52.6893  1294.72   60.493
v -38.1374  1294.98 -44.7602
v -36.6224  1305.36  -97.612
v -226.458  1317.35 -86.4842
v  -219.25  1310.96 -45.5232
v -47.7153  1311.89  18.5892
v -93.397  1307.6 119.952
v -245.394  1338.77  21.7651
v -219.891  1319.51 -76.7184
v -191.251  1313.51 -19.8122
v -185.289   1318.4 -41.4441
v -153.187  1311.08  78.4682
v -158.918  1305.05  55.4113
v -66.9375  1322.24 -138.175
v -198.036  1307.37  14.5766
v -74.1266  1312.66  106.518
v -312.158  1316.47  -73.741
v -268.818  1322.91 -92.1879
v -178.709  1326.26 -99.8862
v -98.5962   1311.8 -138.793
v -40.7997  1352.24 -56.8296
v -307.183  1336.09 -37.0736
v -288.359  1328.03   4.0767
v -170.664  1317.19  20.0378
v -225.954  1339.92  27.6477
v -178.428  1313.23 -4.73072
v -305.182  1338.02 -61.8504
v -179.668  1331.63  36.4835
v -137.148  1328.64 -125.867
v -69.4168  1325.47  81.5772
v -60.2405  1325.86  56.4936
v -195.424  1324.42 -40.6516
v -194.184  1336.76 -69.1802
v -144.607  1319.23  92.3031
v -105.006  1328.15  111.724
v -45.6088  1337.53 -118.052
v -196.195  1328.15  28.9092
v -215.457  1352.86 -91.7077
v -60.4453  1357.75  24.0528
v -197.353  1345.12 -85.3147
v -206.785   1346.2 -84.7724
v -127.686  1363.31 -127.829
v -179.967  1352.73  50.1213
v  -81.354  1348.53 -143.453
v -282.837  1347.81 -78.4345
v -163.119  1362.13 -118.505
v -95.1776  1350.15  94.2691
v -116.997  1349.22   101.25
v -236.843  1347.02  25.9722
v -139.853  1361.27  86.6563
v -265.965  1368.58 -61.4671
v -169.969  1396.58  52.1041
v -47.3983   1378.5 -77.6951
v -276.846  1363.74 -35.9134
v -277.921  1348.62  -79.784
v -60.8592  1350.87 -135.458
v -268.779  1355.86 -3.48186
v -244.922  1341.66  21.4666
v -204.356  1357.96 -91.5463
v -92.8978  1378.92 -142.307
v -237.748  1363.13  -88.491
v -209.369  1376.75  39.8837
v -182.495  1386.92 -113.015
v -127.98 1372.34 85.4422
v -209.793   1372.4 -94.5576
v -55.8743  1389.87 -101.029
v -51.2064  1373.82 -26.3567
v -98.5386  1394.98  51.5428
v -62.9562  1394.04 -117.136
v -110.414   1395.9  61.8449
v -201.151  1412.43  36.9458
v -89.1023  1405.13  27.7689
v -262.398  1400.63    -41.1
v -251.794  1406.82 -2.53204
v -156.418  1395.07  62.0889
v -104.952  1422.25 -132.807
v -225.496  1414.42  22.2562
v  -252.69  1418.04 -22.2974
v -206.717  1415.56 -92.1818
v  -115.77  1405.62 -134.221
v -72.3383  1423.51 -14.8823
v -246.865  1413.52 -59.7693
v -135.379  1428.33 -126.855
v -110.438  1440.23 -128.646
v -146.954  1426.08  44.3826
v -170.73 1420.33 41.8587
v -115.943  1416.18  46.5355
v -92.4981  1440.69 -119.218
v -68.4963  1430.08 -50.8041
v -77.9191  1438.75  -96.338
v -242.839  1431.35 -28.7603
v -201.355  1442.87   11.877
v -222.559  1443.34 -48.0549
v -187.837   1440.1 -88.7773
v -117.31 1452.03 3.76363
v -74.4351  1435.76 -37.2598
v -209.967  1452.14 -22.0818
v -149.856  1445.54 -109.739
v -97.2161  1459.85  -100.88
v  -173.72   1460.2 -56.9913
v -146.338  1453.53  15.3277
v -115.999  1461.16  -114.45
v -127.246  1483.62 -65.6857
v -115.448  1475.06 -89.1522
v -182.804  1460.46 -29.3546
v -127.526  1468.47 -14.1741
v -141.948  1468.36 -7.75921
v -130.417   1473.5 -92.3005
v -138.698  1481.61 -57.5902
v -135.002  1481.43 -42.6396
vn  0.125559 -0.950997  -0.28256
vn -0.890146  0.404169  0.210444
vn 0.0344511 0.0138844   0.99931
vn  0.246442 -0.442458  0.862263
vn  -0.42437 -0.797234 -0.429335
vn -0.34461 0.417966 0.840564
vn  0.465702 -0.765125  -0.44464
vn -0.326214 -0.460305 -0.825653
vn  0.698119 -0.231942  0.677371
vn 0.465539   -0.251 0.848689
vn -0.0210716  -0.997197 -0.0717969
vn -0.724725  -0.49004 -0.484391
vn  0.543423 -0.789751 -0.284579
vn  0.794361 -0.574723  0.196685
vn -0.512264  0.482541   0.71045
vn   -0.92294   0.382814 -0.0404302
vn 0.0759807 -0.695376 -0.714618
vn 0.0191736  -0.65734  -0.75335
vn 0.0810275  0.359552    0.9296
vn -0.550978 -0.166612 -0.817719
vn  -0.84055    0.0156 -0.541509
vn  0.843165 -0.320955  0.431347
vn  0.732878 -0.234057  0.638833
vn   0.82245 -0.552832  0.133989
vn  0.113389 -0.579764 -0.806856
vn -0.834172  0.302888 -0.460886
vn  0.633418 -0.772313 0.0481081
vn -0.369387  0.596208  0.712804
vn 0.0984725  0.375565   0.92155
vn  0.438581 -0.784272 -0.438821
vn -0.141757 -0.495075 -0.857208
vn 0.199621 0.441319 0.874865
vn  0.856125 -0.463191  0.229138
vn -0.558804    0.6089  0.563009
vn -0.389559 -0.205865 -0.897699
vn -0.71396 0.641062 0.281604
vn -0.880192 -0.324984   -0.3459
vn -0.380574 -0.368554 -0.848134
vn 0.312424  0.21247 0.925877
vn  0.246917 -0.613185 -0.750357
vn  0.336845 -0.296507  0.893655
vn  0.582683 -0.770039 -0.259845
vn -0.608212 -0.223093  -0.76178
vn   0.13876 -0.716915  0.683212
vn  0.106261 -0.734259 -0.670501
vn 0.016708 0.204997  0.97862
vn  0.150468 -0.761304 -0.630695
vn 0.119587 0.157254 0.980291
vn -0.919826 -0.222043 -0.323446
vn -0.507823  0.320629   0.79957
vn  0.260518 -0.169968   0.95039
vn  0.256129 -0.655814 -0.710145
vn  0.476333 -0.248748  0.843345
vn  -0.154186 -0.0466703   0.986939
vn -0.572586  0.602415  0.556095
vn -0.249046  0.438995  0.863284
vn  0.644802 -0.502228  0.576192
vn  0.272327 -0.600683 -0.751677
vn  0.632789 -0.736326 -0.239587
vn  -0.107641  -0.993855 -0.0258097
vn -0.0440615  -0.567764  -0.822012
vn  0.169833 0.0670616  0.983188
vn  -0.888322   0.450834 -0.0873643
vn -0.14564 0.170097 0.974606
vn -0.180256  -0.26262 -0.947913
vn 0.142116 -0.12961 0.981328
vn -0.00830104   -0.513042   -0.858323
vn -0.0630858  0.0869817    0.99421
vn  0.727524 -0.651155 -0.216116
vn -0.323782   0.51555   0.79333
vn -0.251877 -0.223702 -0.941549
vn -0.239183 -0.265808 -0.933883
vn  -0.79974   0.53398 -0.274374
vn  0.510436 -0.135474  0.849177
vn  0.163426 0.0610631  0.984664
vn -0.387815 -0.167518 -0.906387
vn  -0.0697619 -0.00555569    0.997548
vn  -0.25403 -0.264776 -0.930249
vn -0.118783 0.0875063  0.989057
vn -0.0234246   0.156286   0.987434
vn  0.385379 -0.692973  -0.60932
vn -0.0134273  -0.446358  -0.894754
vn -0.559939  0.370509 -0.741075
vn -0.0273501  -0.166878   0.985598
vn  0.833282 -0.504807  0.225414
vn  0.635633 -0.013874  0.771867
vn -0.685732  0.666722  0.291984
vn -0.594248  0.161505   -0.7879
vn -0.195509  0.117616  0.973624
vn  0.118021 0.0269355  0.992646
vn  -0.375491 -0.0259164  -0.926464
vn 0.00440207  -0.272147   0.962246
vn -0.0889136  -0.497282  -0.863021
vn -0.149654 -0.413865  0.897953
vn  0.505946 -0.829646 -0.236019
vn -0.907053  0.267551 -0.325072
vn 0.0371043 -0.366779  0.929568
vn  0.203722 -0.709093 -0.675044
vn -0.570393  0.407507 -0.713155
vn   0.546835 -0.0959493   0.831724
vn 0.350627 0.200811 0.914732
vn -0.187575  -0.85497  0.483572
vn -0.128719 -0.917509   0.37631
vn -0.559471  0.290445  0.776295
vn 0.344721 -0.31715 0.883506
vn -0.230202 -0.437832  0.869086
vn -0.663568  -0.43242 -0.610484
vn 0.0925038 -0.981788 -0.165938
vn 0.0930596 0.0567457  0.994042
vn  0.609878 -0.688387  0.392648
vn   -0.2789 -0.787801 -0.549168
vn 0.405596 0.394978 0.824308
vn   0.68245 -0.375905  0.626863
vn  -0.56373 -0.284777 -0.775313
vn  0.407738 -0.882309  -0.23512
vn  0.54138 0.197434 0.817268
vn -0.205726 -0.361419 -0.909424
vn  0.212454 -0.769626 -0.602112
vn 0.269161 0.494088 0.826698
vn -0.597313  0.701277 -0.389137
vn -0.113127  0.832932  0.541689
vn  0.554558 -0.794257  0.248236
vn -0.416795  0.847969  -0.32746
vn  0.516967 -0.407574  0.752747
vn  0.467843 -0.561327  0.682667
vn -0.260569  0.956137   0.13381
vn 0.228802 0.773289 0.591332
vn 0.0595562  0.796071  0.602265
vn -0.551664  0.144926 -0.821379
vn -0.233429 -0.360106 -0.903235
vn  -0.50482  0.713601 -0.485726
vn -0.0644917   0.911223   0.406834
vn     0.28463 -0.00245678    0.958634
vn  0.455457 -0.881863 -0.121968
vn  0.174344 0.0391281  0.983907
vn -0.136708  0.975384 -0.173025
vn 0.0659942  0.384085  0.920936
vn  0.163706 -0.730684 -0.662798
vn -0.614512  0.180562 -0.767967
vn -0.431787  0.789978   0.43531
vn -0.708164  0.647029  -0.28259
vn  0.521125 -0.781964  0.341995
vn -0.200038 -0.404879  -0.89222
vn  0.323484 -0.788565 -0.522994
vn   0.513427  -0.857795 -0.0240987
vn 0.00296304   0.362205   0.932094
vn  0.448529 -0.481726  0.752836
vn -0.379858  0.678595  0.628663
vn  -0.485333 -0.0158796  -0.874185
vn   0.203152 -0.0217626   0.978905
vn -0.408868 -0.123758 -0.904163
vn  0.202734 -0.708311 -0.676161
vn -0.740034  0.591905 -0.319371
vn  0.472568 -0.823253 -0.314538
vn  0.223685 -0.669324 -0.708499
vn -0.534945  0.776625  0.332697
vn -0.719028  0.432573 -0.543947
vn -0.0984942   0.370114    0.92375
vn 0.0275435  0.225643  0.973821
vn -0.146729 -0.400201 -0.904605
vn  0.577174 -0.799867  0.164569
vn -0.732209  0.579086 -0.358509
vn -0.629988  0.765684  0.129779
vn   0.60283 -0.581923  0.545858
vn -0.696562  0.477608 -0.535437
vn -0.196482 -0.209206 -0.957929
vn -0.396999 0.0460624 -0.916662
vn   0.45823 -0.284235  0.842161
vn -0.456853  0.630515  0.627484
vn  0.425936 -0.743581 -0.515428
vn   0.621642  -0.782746 -0.0294975
vn 0.216578 0.130513 0.967502
vn  0.737705 -0.500126  0.453504
vn -0.686985  0.718917  0.105882
vn -0.114083 -0.307198 -0.944783
vn -0.325979 0.0435851 -0.944372
vn  0.360803 -0.601893 -0.712422
vn  0.661563 -0.734852 -0.149422
vn -0.178826  0.453387   0.87319
vn 0.101513 0.261124 0.959953
vn  0.688051 -0.696116 -0.204959
vn -0.654823  0.479342 -0.584326
vn  0.445907 -0.110109  0.888281
vn -0.717393  0.598297 -0.356915
vn -0.553151  0.320154 -0.769107
vn  -0.221851 -0.0768608  -0.972047
vn -0.739691  0.588262 -0.326811
vn -0.571146  0.695012  0.436751
vn  0.697894 -0.531273  0.480306
vn  0.728904 -0.675576   0.11089
vn  0.605531 -0.620895 -0.497816
vn -0.678129  0.713525  0.176136
vn 0.178474  0.13505 0.974632
vn  0.435154 -0.552521 -0.710888
vn -0.000390081    -0.196708    -0.980462
vn 0.014617 0.191677 0.981349
vn -0.512599  0.693897  0.505717
vn  0.524115 -0.576705   0.62667
vn -0.634558  0.741732  0.217187
vn -0.739972  0.613744 -0.275243
vn -0.372115 0.0703197 -0.925519
vn 0.0661704   0.31424  0.947035
vn -0.341478 0.0974615 -0.934823
vn -0.533734  0.192621 -0.823423
vn -0.0481242  -0.190914   0.980426
vn   0.225956  -0.972937 -0.0483507
vn -0.353529 -0.821741 -0.446944
vn -0.249427  -0.96831 0.0127543
vn  -0.88837 -0.456174 0.0519978
vn -0.098684 -0.985432  0.138508
vn  -0.27045 0.0324606 -0.962187
vn -0.920109 -0.357982 -0.158894
vn -0.665835  0.703796  -0.24766
vn -0.402452  0.239618 -0.883525
vn  0.549151 -0.675511 -0.492055
vn  0.377264 -0.908161  0.181429
vn -0.0203114  -0.981484   0.190464
vn  0.751527 -0.637666  0.169083
vn -0.930339  -0.26223  0.256328
vn   0.16949 -0.824085 -0.540516
vn -0.320175   0.18574  0.928972
vn    0.436745   -0.899585 -0.00100664
vn   0.20741 -0.392024  0.896269
vn  0.342652 -0.549271 -0.762162
vn  -0.14833 -0.631032 -0.761444
vn -0.0886702  -0.805524   0.585891
vn  0.545098 -0.836812 0.0511238
vn    -0.974  -0.21429 0.0735165
vn  -0.68302 -0.394561 -0.614659
vn -0.822177 -0.258103  0.507353
vn  0.556502 -0.792557  0.249319
vn  0.529117  -0.82727 -0.188836
vn -0.357441   0.60754  0.709317
vn  0.582251 -0.680278 -0.445203
vn  0.655892 -0.753151  0.050685
vn -0.516282  0.369956  -0.77239
vn 0.0773222 -0.268254  -0.96024
vn  0.418228 -0.827469  0.374673
vn  0.808965 -0.569623  0.145277
vn -0.599734  0.751017  0.276213
vn -0.358708  0.111372  0.926782
vn -0.956694 -0.170055  0.236258
vn  0.797486 -0.601638 0.0452484
vn  0.551134 -0.656685  0.514798
vn   0.71551 -0.686118  0.131486
vn  0.787884 -0.598538 -0.144882
vn  -0.91846 -0.322541 -0.228909
vn -0.939808 -0.179807   0.29057
vn  0.382374 -0.826592 -0.412959
vn  0.243251  -0.66936 -0.701987
vn -0.682558 -0.258408  0.683623
vn -0.566498 -0.471299  0.675986
vn -0.425388 -0.501225  0.753537
vn -0.391771 -0.371277 -0.841825
vn -0.103689 -0.575561  0.811159
vn  0.615929 -0.707265  0.346999
vn  0.769151 -0.613713 -0.178221
vn  0.272662  -0.32243 -0.906474
vn  0.903138 -0.419719 0.0904357
vn  -0.6121 0.329644 0.718797
vn -0.483898  0.579931  0.655379
vn -0.839989  -0.24206  0.485618
vn -0.543724 -0.396771  0.739552
vn  0.483847 -0.422409 -0.766461
vn -0.733046  0.658291 -0.171159
vn -0.644705 -0.275261 -0.713153
vn  0.332715 -0.444931  0.831467
vn  0.821669 -0.492999 -0.286028
vn -0.767519 -0.314382   0.55864
vn   -0.210114 -0.00834351   -0.977641
vn -0.399558 -0.227632  0.887996
vn  0.109777  -0.34976 -0.930385
vn  0.311021 -0.258428  0.914593
vn     0.8493   -0.52171 -0.0806709
vn 0.838119 -0.24436 0.487693
vn  0.638464 -0.724815  0.258856
vn  -0.944416  -0.328713 0.00519376
vn -0.0845557 -0.0399518   0.995617
vn  0.883309 -0.424447  0.199022
vn  0.782469 -0.201558 -0.589166
vn -0.573518 -0.142567  0.806692
vn 0.0405067 -0.157721 -0.986653
vn  0.765378 -0.602852 -0.225311
vn -0.442599 -0.189529 -0.876462
vn  0.928614 -0.370112 0.0263461
vn -0.686273  0.365771 -0.628682
vn  0.0449329 -0.0639397   0.996942
vn  0.576764 -0.752866 -0.317075
vn -0.704434   0.67225  0.227711
vn -0.593022  0.546829  0.591018
vn -0.879861 -0.363445 -0.306192
vn -0.369475  0.370661  0.852114
vn 0.954821 0.123901  0.27012
vn   0.994633 -0.0503989  0.0903587
vn   0.995639  0.0631245 -0.0686867
vn  0.559508 -0.394966 -0.728665
vn  0.677104 -0.649616 -0.345729
vn 0.982551 0.081089 0.167383
vn -0.0725389  0.0448178   0.996358
vn -0.359963  0.388151   0.84839
vn  0.853363 -0.487047 -0.185895
vn  0.500674 -0.830532 -0.244014
vn -0.883499 -0.450088  0.129808
vn -0.820751 -0.332565  0.464508
vn  -0.83931 -0.502974  0.206338
vn  0.422778 -0.190556 -0.885973
vn  0.415965 -0.805677  0.421732
vn   0.7446 0.340915 0.573888
vn -0.483838   0.25885 -0.836001
vn -0.216212  0.136691 -0.966731
vn -0.581311 -0.269989 -0.767583
vn -0.183322 -0.108934 -0.976999
vn 0.981835  0.15304 0.112155
vn -0.713962  0.638739  0.286828
vn  -0.5912 0.569595 0.571002
vn -0.525789 -0.787021  0.322713
vn -0.239414 -0.112074  0.964427
vn -0.199796 -0.979347 0.0309928
vn -0.740407  0.653053  -0.15912
vn -0.608226 -0.569077  0.553365
vn -0.409444 -0.118397 -0.904621
vn 0.814504 0.437243 0.381315
vn 0.908887 0.286855  0.30272
vn  0.229024 -0.840784 -0.490541
vn  -0.854034  -0.511733 -0.0935697
vn -0.639804  0.114308   0.75999
vn -0.104127  0.347231  0.931981
vn  0.901921  0.129072 -0.412163
vn  0.103845 -0.334778  0.936558
vn   0.0065418 0.000990135   -0.999978
vn 0.868874 0.358986 0.340861
vn -0.799241 -0.472327 -0.371645
vn  0.531866 -0.675268  -0.51101
vn  -0.320249 -0.0327608  -0.946767
vn -0.604434 -0.104847  0.789725
vn   0.110439 -0.0218542  -0.993643
vn -0.528111  0.500019 -0.686352
vn -0.409152 -0.118852 -0.904693
vn 0.602519 0.554355 0.574162
vn -0.245915  0.355032   0.90193
vn -0.502021 0.0659273  0.862339
vn -0.521578  0.255451  0.814064
vn -0.638567  0.456481 -0.619561
vn -0.533741   0.16985  0.828415
vn   0.956084   0.292374 -0.0205059
vn -0.840855  0.528639  0.116203
vn -0.272658   0.42613 -0.862595
vn  0.626335  0.248386 -0.738924
vn -0.711411  0.453747  0.536664
vn -0.623837  0.170719  0.762681
vn -0.474935  -0.31676 -0.821036
vn -0.175377 0.0338491 -0.983919
vn -0.340773  0.470684 -0.813837
vn -0.398471 0.0266065  0.916795
vn  -0.417524 -0.0132817  -0.908569
vn 0.00997276   0.589625   0.807616
vn -0.483371  0.115487 -0.867765
vn  0.904514  0.359432 -0.229486
vn 0.934356 0.306203 0.182257
vn 0.718424 0.501898 0.481628
vn 0.679872 0.363781 -0.63674
vn  0.27171  0.62685 0.730228
vn -0.431281  0.314556  0.845607
vn 0.681327 0.536308 0.498164
vn  -0.87843  0.418486 -0.230718
vn -0.777227  0.332744  0.534041
vn -0.329907   0.46799  0.819846
vn  0.326933  0.306867 -0.893839
vn -0.615233  0.420737  0.666685
vn -0.876017  0.476446  0.074787
vn -0.531385  0.265253 -0.804531
vn -0.274209 0.0643138 -0.959517
vn 0.832673 0.454879 0.315818
vn -0.669581  0.517915 -0.532376
vn -0.385774  0.294962 -0.874172
vn  0.227057  0.381306 -0.896131
vn 0.0446255  0.667794  0.743008
vn -0.245855  0.603771  0.758298
vn 0.422463 0.679385 0.599967
vn  0.612182  0.493567 -0.617758
vn    0.882509    0.470189 -0.00996041
vn  0.838329  0.499039 -0.219465
vn -0.646209  0.730773  0.219965
vn -0.360329  0.765758  0.532708
vn  -0.49051  0.807067 -0.328698
vn -0.469469  0.665317 -0.580476
vn 0.485323 0.709173 0.511405
vn 0.634679 0.750336 0.184871
vn -0.38277 0.913486 0.137949
vn  -0.45605   0.67726 -0.577354
vn  0.666814  0.739837 -0.089444
vn  -0.43632  0.852204 -0.288744
vn -0.0556778   0.761591   0.645662
vn -0.0574715   0.689817  -0.721699
vn 0.553178 0.826504 0.104335
vn 0.278082 0.895229 -0.34819
vn  -0.34667   0.93547 0.0686741
vn 0.532783 0.793117  0.29514
vn -0.172291    0.9114   0.37372
vn -0.442113  0.779658 -0.443475
vn -0.469407  0.864162 -0.181331
vn -0.257268  0.954908  0.148202
# mm_gid 0
g mmGroup0
f 1//1 2//2 3//3
f 4//4 5//5 6//6
f 7//7 8//8 1//1
f 1//1 9//9 7//7
f 10//10 11//11 12//12
f 11//11 10//10 13//13
f 14//14 5//5 4//4
f 2//2 1//1 8//8
f 12//12 15//15 10//10
f 11//11 13//13 12//12
f 6//6 5//5 16//16
f 17//17 5//5 14//14
f 3//3 9//9 1//1
f 12//12 13//13 18//18
f 19//19 9//9 3//3
f 20//20 5//5 17//17
f 14//14 4//4 6//6
f 3//3 2//2 19//19
f 21//21 15//15 12//12
f 18//18 21//21 12//12
f 22//22 13//13 10//10
f 13//13 22//22 18//18
f 23//23 14//14 6//6
f 14//14 24//24 17//17
f 8//8 7//7 25//25
f 16//16 5//5 20//20
f 2//2 8//8 26//26
f 27//27 21//21 18//18
f 24//24 14//14 23//23
f 26//26 28//28 2//2
f 2//2 28//28 19//19
f 26//26 8//8 25//25
f 6//6 29//29 23//23
f 30//30 17//17 24//24
f 9//9 27//27 7//7
f 7//7 27//27 25//25
f 27//27 18//18 31//31
f 32//32 22//22 10//10
f 32//32 10//10 15//15
f 33//33 18//18 22//22
f 31//31 18//18 33//33
f 27//27 9//9 19//19
f 34//34 15//15 21//21
f 20//20 17//17 35//35
f 17//17 30//30 35//35
f 24//24 23//23 30//30
f 36//36 16//16 20//20
f 37//37 25//25 38//38
f 34//34 32//32 15//15
f 33//33 22//22 32//32
f 39//39 23//23 29//29
f 30//30 40//40 35//35
f 41//41 30//30 23//23
f 30//30 41//41 37//37
f 25//25 37//37 26//26
f 26//26 37//37 28//28
f 34//34 21//21 27//27
f 42//42 43//43 44//44
f 6//6 16//16 36//36
f 40//40 30//30 37//37
f 27//27 19//19 28//28
f 38//38 25//25 45//45
f 36//36 20//20 35//35
f 29//29 6//6 36//36
f 23//23 39//39 41//41
f 34//34 27//27 46//46
f 27//27 31//31 47//47
f 48//48 33//33 32//32
f 44//44 43//43 49//49
f 37//37 50//50 28//28
f 27//27 28//28 46//46
f 51//51 33//33 48//48
f 52//52 31//31 33//33
f 53//53 42//42 44//44
f 41//41 50//50 37//37
f 37//37 38//38 40//40
f 54//54 28//28 50//50
f 55//55 34//34 46//46
f 25//25 27//27 47//47
f 56//56 32//32 34//34
f 47//47 31//31 52//52
f 57//57 33//33 51//51
f 58//58 43//43 42//42
f 47//47 45//45 25//25
f 55//55 56//56 34//34
f 59//59 33//33 57//57
f 60//60 58//58 42//42
f 39//39 29//29 36//36
f 61//61 38//38 45//45
f 54//54 46//46 28//28
f 46//46 56//56 55//55
f 32//32 56//56 48//48
f 47//47 52//52 45//45
f 59//59 52//52 33//33
f 49//49 62//62 44//44
f 42//42 53//53 60//60
f 61//61 40//40 38//38
f 49//49 63//63 62//62
f 36//36 35//35 60//60
f 39//39 36//36 64//64
f 65//65 35//35 40//40
f 54//54 56//56 46//46
f 54//54 48//48 56//56
f 49//49 43//43 63//63
f 66//66 60//60 53//53
f 60//60 64//64 36//36
f 54//54 50//50 41//41
f 67//67 61//61 45//45
f 68//68 51//51 48//48
f 69//69 52//52 59//59
f 63//63 70//70 62//62
f 43//43 58//58 71//71
f 72//72 58//58 60//60
f 66//66 64//64 60//60
f 64//64 41//41 39//39
f 54//54 41//41 64//64
f 54//54 64//64 68//68
f 54//54 68//68 48//48
f 73//73 63//63 43//43
f 53//53 44//44 62//62
f 72//72 60//60 35//35
f 65//65 40//40 61//61
f 57//57 51//51 74//74
f 59//59 57//57 69//69
f 75//75 53//53 62//62
f 76//76 72//72 35//35
f 68//68 74//74 51//51
f 70//70 75//75 62//62
f 77//77 68//68 64//64
f 70//70 63//63 73//73
f 43//43 71//71 73//73
f 71//71 58//58 72//72
f 77//77 64//64 66//66
f 76//76 35//35 65//65
f 57//57 74//74 69//69
f 65//65 61//61 78//78
f 77//77 66//66 53//53
f 61//61 67//67 78//78
f 79//79 68//68 77//77
f 80//80 68//68 79//79
f 76//76 65//65 78//78
f 45//45 52//52 67//67
f 77//77 53//53 75//75
f 76//76 71//71 72//72
f 52//52 69//69 81//81
f 82//82 67//67 52//52
f 73//73 71//71 83//83
f 83//83 71//71 76//76
f 79//79 77//77 84//84
f 85//85 69//69 74//74
f 81//81 69//69 85//85
f 75//75 84//84 77//77
f 86//86 85//85 74//74
f 73//73 83//83 87//87
f 88//88 76//76 78//78
f 84//84 75//75 89//89
f 90//90 74//74 68//68
f 76//76 88//88 83//83
f 82//82 52//52 81//81
f 82//82 78//78 67//67
f 90//90 68//68 80//80
f 70//70 73//73 87//87
f 87//87 75//75 70//70
f 88//88 78//78 91//91
f 92//92 90//90 80//80
f 87//87 89//89 75//75
f 89//89 80//80 79//79
f 83//83 88//88 87//87
f 82//82 81//81 93//93
f 84//84 89//89 79//79
f 92//92 80//80 89//89
f 78//78 82//82 91//91
f 94//94 92//92 89//89
f 90//90 86//86 74//74
f 81//81 85//85 95//95
f 88//88 96//96 87//87
f 92//92 97//97 90//90
f 98//98 93//93 81//81
f 95//95 98//98 81//81
f 89//89 87//87 96//96
f 88//88 91//91 99//99
f 92//92 94//94 97//97
f 86//86 100//100 85//85
f 101//101 90//90 97//97
f 94//94 89//89 102//102
f 82//82 93//93 91//91
f 103//103 104//104 105//105
f 102//102 89//89 96//96
f 102//102 106//106 94//94
f 103//103 107//107 104//104
f 103//103 108//108 107//107
f 108//108 103//103 105//105
f 94//94 109//109 97//97
f 100//100 110//110 85//85
f 95//95 85//85 110//110
f 108//108 102//102 111//111
f 112//112 90//90 101//101
f 107//107 108//108 111//111
f 113//113 108//108 105//105
f 102//102 114//114 111//111
f 113//113 102//102 108//108
f 106//106 109//109 94//94
f 101//101 97//97 109//109
f 112//112 86//86 90//90
f 95//95 110//110 115//115
f 114//114 107//107 111//111
f 102//102 96//96 114//114
f 105//105 116//116 113//113
f 99//99 96//96 88//88
f 112//112 100//100 86//86
f 98//98 117//117 93//93
f 118//118 98//98 95//95
f 115//115 118//118 95//95
f 119//119 102//102 113//113
f 107//107 114//114 120//120
f 104//104 121//121 105//105
f 113//113 116//116 119//119
f 117//117 98//98 118//118
f 115//115 110//110 122//122
f 121//121 116//116 105//105
f 102//102 119//119 106//106
f 120//120 104//104 107//107
f 119//119 109//109 106//106
f 93//93 117//117 91//91
f 104//104 120//120 121//121
f 123//123 114//114 96//96
f 100//100 124//124 110//110
f 125//125 122//122 110//110
f 121//121 120//120 126//126
f 123//123 120//120 114//114
f 109//109 127//127 101//101
f 127//127 112//112 101//101
f 119//119 116//116 121//121
f 109//109 119//119 128//128
f 91//91 117//117 129//129
f 130//130 117//117 118//118
f 110//110 124//124 125//125
f 120//120 123//123 126//126
f 126//126 119//119 121//121
f 123//123 96//96 99//99
f 99//99 91//91 131//131
f 128//128 127//127 109//109
f 112//112 127//127 132//132
f 133//133 124//124 100//100
f 119//119 126//126 123//123
f 123//123 128//128 119//119
f 99//99 131//131 123//123
f 117//117 130//130 129//129
f 115//115 134//134 118//118
f 91//91 129//129 131//131
f 115//115 122//122 134//134
f 135//135 124//124 133//133
f 123//123 131//131 136//136
f 123//123 127//127 128//128
f 123//123 136//136 127//127
f 132//132 136//136 131//131
f 132//132 137//137 112//112
f 137//137 100//100 112//112
f 134//134 138//138 118//118
f 127//127 136//136 132//132
f 138//138 130//130 118//118
f 125//125 134//134 122//122
f 130//130 139//139 129//129
f 125//125 124//124 135//135
f 132//132 131//131 140//140
f 140//140 137//137 132//132
f 137//137 133//133 100//100
f 135//135 133//133 137//137
f 131//131 141//141 140//140
f 131//131 129//129 141//141
f 142//142 134//134 125//125
f 143//143 130//130 138//138
f 144//144 138//138 134//134
f 144//144 134//134 145//145
f 142//142 145//145 134//134
f 146//146 135//135 137//137
f 129//129 139//139 141//141
f 147//147 142//142 125//125
f 140//140 148//148 137//137
f 148//148 146//146 137//137
f 130//130 149//149 139//139
f 125//125 135//135 150//150
f 130//130 151//151 149//149
f 130//130 143//143 151//151
f 144//144 152//152 138//138
f 153//153 141//141 139//139
f 154//154 144//144 145//145
f 155//155 152//152 144//144
f 141//141 156//156 140//140
f 157//157 153//153 139//139
f 140//140 156//156 148//148
f 157//157 139//139 149//149
f 146//146 158//158 135//135
f 159//159 150//150 135//135
f 160//160 143//143 138//138
f 147//147 125//125 150//150
f 154//154 155//155 144//144
f 160//160 138//138 152//152
f 161//161 145//145 142//142
f 156//156 141//141 153//153
f 147//147 161//161 142//142
f 159//159 135//135 158//158
f 161//161 154//154 145//145
f 153//153 157//157 162//162
f 146//146 148//148 158//158
f 151//151 143//143 160//160
f 160//160 152//152 155//155
f 153//153 162//162 163//163
f 164//164 161//161 147//147
f 165//165 157//157 149//149
f 160//160 166//166 167//167
f 160//160 155//155 166//166
f 147//147 150//150 168//168
f 164//164 147//147 168//168
f 163//163 156//156 153//153
f 148//148 156//156 163//163
f 151//151 165//165 149//149
f 157//157 165//165 162//162
f 169//169 158//158 148//148
f 167//167 151//151 160//160
f 170//170 155//155 154//154
f 171//171 170//170 154//154
f 161//161 171//171 154//154
f 161//161 164//164 171//171
f 172//172 168//168 150//150
f 171//171 164//164 173//173
f 148//148 163//163 174//174
f 174//174 163//163 162//162
f 165//165 151//151 167//167
f 175//175 166//166 155//155
f 148//148 174//174 169//169
f 167//167 166//166 176//176
f 174//174 162//162 165//165
f 177//177 155//155 170//170
f 170//170 171//171 178//178
f 179//179 158//158 169//169
f 180//180 150//150 159//159
f 175//175 155//155 177//177
f 177//177 170//170 181//181
f 173//173 164//164 168//168
f 178//178 181//181 170//170
f 166//166 175//175 176//176
f 167//167 182//182 165//165
f 180//180 172//172 150//150
f 172//172 183//183 168//168
f 178//178 171//171 173//173
f 174//174 165//165 184//184
f 165//165 182//182 184//184
f 173//173 168//168 183//183
f 167//167 176//176 185//185
f 175//175 177//177 186//186
f 178//178 173//173 181//181
f 158//158 179//179 159//159
f 159//159 179//179 180//180
f 176//176 175//175 186//186
f 174//174 184//184 187//187
f 174//174 188//188 169//169
f 189//189 173//173 183//183
f 188//188 179//179 169//169
f 189//189 181//181 173//173
f 185//185 182//182 167//167
f 181//181 189//189 190//190
f 190//190 191//191 181//181
f 187//187 192//192 174//174
f 172//172 193//193 183//183
f 191//191 177//177 181//181
f 185//185 184//184 182//182
f 193//193 172//172 180//180
f 177//177 194//194 195//195
f 193//193 189//189 183//183
f 188//188 174//174 192//192
f 185//185 187//187 184//184
f 196//196 193//193 180//180
f 177//177 195//195 186//186
f 188//188 197//197 179//179
f 193//193 198//198 189//189
f 188//188 192//192 199//199
f 187//187 185//185 200//200
f 201//201 185//185 176//176
f 191//191 194//194 177//177
f 190//190 189//189 198//198
f 202//202 196//196 180//180
f 192//192 187//187 200//200
f 197//197 188//188 199//199
f 186//186 203//203 176//176
f 201//201 204//204 185//185
f 198//198 193//193 205//205
f 186//186 195//195 203//203
f 205//205 193//193 196//196
f 206//206 207//207 208//208
f 200//200 199//199 192//192
f 179//179 202//202 180//180
f 176//176 203//203 201//201
f 209//209 210//210 208//208
f 206//206 208//208 210//210
f 203//203 195//195 211//211
f 212//212 209//209 208//208
f 212//212 208//208 207//207
f 204//204 213//213 185//185
f 204//204 201//201 214//214
f 191//191 190//190 215//215
f 216//216 206//206 217//217
f 215//215 194//194 191//191
f 218//218 190//190 198//198
f 210//210 209//209 219//219
f 217//217 206//206 210//210
f 206//206 220//220 207//207
f 221//221 196//196 202//202
f 219//219 217//217 210//210
f 222//222 206//206 216//216
f 201//201 203//203 214//214
f 223//223 198//198 205//205
f 195//195 194//194 224//224
f 207//207 220//220 225//225
f 226//226 216//216 217//217
f 227//227 222//222 216//216
f 185//185 213//213 200//200
f 212//212 228//228 209//209
f 229//229 207//207 225//225
f 219//219 230//230 217//217
f 230//230 226//226 217//217
f 216//216 231//231 227//227
f 232//232 206//206 222//222
f 233//233 202//202 179//179
f 234//234 215//215 190//190
f 212//212 207//207 229//229
f 227//227 235//235 222//222
f 233//233 179//179 197//197
f 214//214 203//203 236//236
f 219//219 209//209 228//228
f 204//204 214//214 213//213
f 195//195 224//224 237//237
f 226//226 238//238 216//216
f 235//235 227//227 239//239
f 197//197 199//199 240//240
f 205//205 196//196 241//241
f 224//224 194//194 215//215
f 242//242 219//219 228//228
f 232//232 222//222 243//243
f 196//196 221//221 241//241
f 244//244 198//198 223//223
f 245//245 218//218 198//198
f 234//234 190//190 246//246
f 212//212 229//229 247//247
f 219//219 248//248 230//230
f 249//249 250//250 220//220
f 249//249 220//220 206//206
f 206//206 232//232 249//249
f 239//239 227//227 231//231
f 243//243 222//222 235//235
f 213//213 199//199 200//200
f 213//213 240//240 199//199
f 233//233 197//197 240//240
f 190//190 218//218 246//246
f 251//251 226//226 230//230
f 238//238 226//226 252//252
f 239//239 243//243 235//235
f 211//211 195//195 237//237
f 224//224 215//215 234//234
f 226//226 251//251 252//252
f 220//220 250//250 225//225
f 245//245 198//198 244//244
f 238//238 252//252 253//253
f 254//254 225//225 250//250
f 253//253 255//255 238//238
f 238//238 256//256 216//216
f 249//249 232//232 257//257
f 224//224 258//258 237//237
f 224//224 234//234 258//258
f 248//248 219//219 242//242
f 256//256 238//238 255//255
f 256//256 231//231 216//216
f 214//214 236//236 213//213
f 258//258 234//234 246//246
f 229//229 225//225 254//254
f 257//257 250//250 249//249
f 243//243 239//239 259//259
f 243//243 257//257 232//232
f 221//221 260//260 241//241
f 240//240 261//261 233//233
f 203//203 211//211 236//236
f 230//230 262//262 251//251
f 263//263 252//252 251//251
f 263//263 255//255 253//253
f 256//256 239//239 231//231
f 250//250 257//257 264//264
f 236//236 265//265 213//213
f 261//261 221//221 202//202
f 258//258 211//211 237//237
f 266//266 247//247 229//229
f 260//260 221//221 261//261
f 244//244 223//223 267//267
f 263//263 253//253 252//252
f 261//261 202//202 233//233
f 268//268 258//258 246//246
f 251//251 269//269 263//263
f 263//263 256//256 255//255
f 212//212 247//247 228//228
f 254//254 266//266 229//229
f 211//211 258//258 270//270
f 271//271 256//256 263//263
f 254//254 250//250 272//272
f 271//271 273//273 256//256
f 257//257 243//243 259//259
f 218//218 274//274 246//246
f 274//274 218//218 245//245
f 262//262 230//230 248//248
f 274//274 268//268 246//246
f 273//273 275//275 256//256
f 264//264 272//272 250//250
f 276//276 244//244 267//267
f 276//276 245//245 244//244
f 228//228 247//247 277//277
f 269//269 251//251 262//262
f 278//278 223//223 205//205
f 278//278 267//267 223//223
f 239//239 256//256 279//279
f 280//280 264//264 257//257
f 281//281 271//271 263//263
f 282//282 270//270 258//258
f 283//283 274//274 245//245
f 254//254 284//284 266//266
f 239//239 279//279 259//259
f 280//280 257//257 285//285
f 286//286 236//236 211//211
f 287//287 267//267 278//278
f 288//288 283//283 245//245
f 279//279 256//256 275//275
f 205//205 241//241 278//278
f 259//259 285//285 257//257
f 289//289 261//261 240//240
f 236//236 286//286 265//265
f 241//241 260//260 290//290
f 276//276 288//288 245//245
f 247//247 291//291 277//277
f 292//292 278//278 241//241
f 247//247 266//266 291//291
f 261//261 289//289 290//290
f 260//260 261//261 290//290
f 254//254 272//272 284//284
f 279//279 275//275 293//293
f 213//213 265//265 289//289
f 213//213 289//289 240//240
f 290//290 292//292 241//241
f 294//294 285//285 259//259
f 280//280 285//285 295//295
f 295//295 285//285 294//294
f 296//296 282//282 258//258
f 297//297 283//283 288//288
f 259//259 279//279 298//298
f 296//296 258//258 268//268
f 297//297 274//274 283//283
f 299//299 273//273 271//271
f 278//278 292//292 300//300
f 268//268 274//274 301//301
f 302//302 297//297 288//288
f 276//276 302//302 288//288
f 228//228 277//277 303//303
f 269//269 262//262 304//304
f 298//298 279//279 293//293
f 303//303 242//242 228//228
f 305//305 262//262 248//248
f 281//281 299//299 271//271
f 306//306 272//272 264//264
f 302//302 276//276 307//307
f 307//307 276//276 267//267
f 299//299 275//275 273//273
f 308//308 293//293 275//275
f 286//286 211//211 309//309
f 282//282 310//310 270//270
f 296//296 268//268 301//301
f 291//291 266//266 311//311
f 262//262 305//305 304//304
f 281//281 269//269 304//304
f 263//263 269//269 281//281
f 284//284 272//272 312//312
f 211//211 270//270 309//309
f 270//270 310//310 309//309
f 275//275 299//299 308//308
f 294//294 259//259 298//298
f 313//313 295//295 294//294
f 314//314 315//315 289//289
f 248//248 242//242 316//316
f 280//280 306//306 264//264
f 292//292 290//290 315//315
f 300//300 317//317 278//278
f 317//317 287//287 278//278
f 274//274 297//297 301//301
f 316//316 242//242 318//318
f 319//319 265//265 286//286
f 290//290 289//289 315//315
f 242//242 303//303 318//318
f 304//304 305//305 320//320
f 284//284 321//321 311//311
f 322//322 293//293 308//308
f 307//307 318//318 302//302
f 266//266 284//284 311//311
f 293//293 322//322 323//323
f 319//319 289//289 265//265
f 324//324 297//297 302//302
f 325//325 303//303 277//277
f 318//318 307//307 316//316
f 281//281 304//304 326//326
f 327//327 299//299 281//281
f 280//280 328//328 306//306
f 309//309 319//319 286//286
f 303//303 302//302 318//318
f 305//305 248//248 320//320
f 326//326 327//327 281//281
f 308//308 299//299 327//327
f 272//272 306//306 312//312
f 313//313 294//294 298//298
f 328//328 280//280 295//295
f 267//267 329//329 307//307
f 324//324 302//302 303//303
f 296//296 330//330 282//282
f 287//287 329//329 267//267
f 298//298 293//293 331//331
f 331//331 293//293 323//323
f 325//325 277//277 291//291
f 324//324 303//303 325//325
f 316//316 307//307 320//320
f 248//248 316//316 320//320
f 329//329 287//287 317//317
f 311//311 332//332 291//291
f 291//291 332//332 325//325
f 333//333 301//301 297//297
f 324//324 333//333 297//297
f 321//321 284//284 334//334
f 312//312 334//334 284//284
f 319//319 314//314 289//289
f 329//329 320//320 307//307
f 320//320 335//335 304//304
f 306//306 336//336 312//312
f 309//309 310//310 337//337
f 333//333 296//296 301//301
f 329//329 317//317 320//320
f 338//338 311//311 321//321
f 322//322 308//308 339//339
f 319//319 309//309 337//337
f 324//324 325//325 333//333
f 333//333 330//330 296//296
f 335//335 320//320 317//317
f 327//327 326//326 340//340
f 341//341 317//317 300//300
f 282//282 330//330 310//310
f 325//325 332//332 333//333
f 335//335 326//326 304//304
f 340//340 326//326 342//342
f 327//327 339//339 308//308
f 319//319 337//337 343//343
f 326//326 335//335 344//344
f 326//326 344//344 342//342
f 345//345 295//295 313//313
f 314//314 319//319 346//346
f 310//310 347//347 337//337
f 339//339 327//327 340//340
f 328//328 348//348 306//306
f 330//330 347//347 310//310
f 336//336 306//306 348//348
f 322//322 331//331 323//323
f 298//298 331//331 313//313
f 343//343 337//337 347//347
f 314//314 349//349 315//315
f 315//315 300//300 292//292
f 349//349 300//300 315//315
f 300//300 350//350 341//341
f 330//330 333//333 351//351
f 333//333 332//332 351//351
f 311//311 351//351 332//332
f 334//334 338//338 321//321
f 336//336 348//348 352//352
f 347//347 330//330 353//353
f 354//354 335//335 317//317
f 355//355 351//351 311//311
f 355//355 311//311 338//338
f 339//339 331//331 322//322
f 314//314 346//346 349//349
f 349//349 350//350 300//300
f 339//339 340//340 356//356
f 343//343 347//347 353//353
f 330//330 351//351 357//357
f 342//342 356//356 340//340
f 353//353 330//330 357//357
f 317//317 341//341 354//354
f 328//328 358//358 348//348
f 331//331 359//359 313//313
f 319//319 343//343 346//346
f 344//344 335//335 354//354
f 336//336 352//352 312//312
f 339//339 360//360 331//331
f 361//361 348//348 358//358
f 328//328 295//295 345//345
f 362//362 339//339 356//356
f 357//357 343//343 353//353
f 341//341 350//350 363//363
f 354//354 341//341 363//363
f 331//331 360//360 364//364
f 345//345 313//313 359//359
f 365//365 346//346 343//343
f 358//358 328//328 345//345
f 366//366 349//349 346//346
f 351//351 355//355 357//357
f 355//355 338//338 334//334
f 367//367 342//342 344//344
f 360//360 339//339 362//362
f 352//352 334//334 312//312
f 348//348 361//361 368//368
f 350//350 369//369 363//363
f 342//342 367//367 356//356
f 355//355 334//334 352//352
f 348//348 368//368 352//352
f 346//346 365//365 370//370
f 366//366 346//346 370//370
f 343//343 357//357 371//371
f 371//371 357//357 355//355
f 355//355 352//352 372//372
f 363//363 344//344 354//354
f 345//345 359//359 373//373
f 365//365 343//343 374//374
f 350//350 349//349 366//366
f 355//355 375//375 371//371
f 372//372 352//352 368//368
f 368//368 361//361 376//376
f 356//356 377//377 362//362
f 378//378 367//367 344//344
f 375//375 355//355 372//372
f 360//360 362//362 379//379
f 380//380 376//376 361//361
f 365//365 374//374 370//370
f 350//350 366//366 369//369
f 377//377 356//356 367//367
f 373//373 359//359 331//331
f 373//373 381//381 345//345
f 343//343 371//371 374//374
f 364//364 360//360 379//379
f 344//344 363//363 378//378
f 362//362 377//377 379//379
f 380//380 361//361 382//382
f 373//373 331//331 364//364
f 382//382 361//361 358//358
f 370//370 374//374 383//383
f 378//378 377//377 367//367
f 381//381 358//358 345//345
f 363//363 369//369 384//384
f 372//372 368//368 375//375
f 374//374 385//385 383//383
f 366//366 370//370 383//383
f 374//374 371//371 386//386
f 366//366 383//383 369//369
f 384//384 378//378 363//363
f 364//364 387//387 373//373
f 373//373 388//388 381//381
f 382//382 358//358 381//381
f 375//375 368//368 376//376
f 374//374 386//386 385//385
f 375//375 386//386 371//371
f 389//389 383//383 385//385
f 386//386 375//375 390//390
f 391//391 382//382 381//381
f 381//381 388//388 391//391
f 384//384 369//369 383//383
f 379//379 387//387 364//364
f 387//387 388//388 373//373
f 384//384 383//383 389//389
f 385//385 386//386 392//392
f 378//378 384//384 393//393
f 394//394 390//390 375//375
f 377//377 387//387 379//379
f 394//394 375//375 376//376
f 382//382 391//391 380//380
f 388//388 395//395 391//391
f 387//387 377//377 393//393
f 385//385 392//392 389//389
f 377//377 378//378 393//393
f 394//394 376//376 380//380
f 386//386 390//390 392//392
f 391//391 395//395 396//396
f 392//392 397//397 389//389
f 398//398 388//388 387//387
f 394//394 380//380 391//391
f 384//384 399//399 393//393
f 393//393 399//399 387//387
f 389//389 397//397 399//399
f 399//399 384//384 389//389
f 390//390 400//400 392//392
f 398//398 387//387 399//399
f 396//396 394//394 391//391
f 390//390 394//394 400//400
f 395//395 388//388 398//398
f 392//392 400//400 401//401
f 396//396 400//400 394//394
f 402//402 397//397 392//392
f 398//398 399//399 402//402
f 395//395 398//398 402//402
f 399//399 397//397 402//402
f 402//402 392//392 401//401
f 400//400 395//395 401//401
f 395//395 400//400 396//396
f 401//401 395//395 402//402
