v -188.048  1377.05 -52.3811
v -185.569   1378.7  -67.447
v -175.584     1391 -58.2476
v -189.287  1364.01 -48.5796
v -202.134   1331.5  -40.726
v -213.925  1357.57 -69.7202
v -251.434  1330.52 -71.6587
v -221.951  1353.02 -81.1851
v -219.611  1345.86 -49.2273
v -235.086  1347.49  -76.779
v -254.902  1335.25 -78.2251
v -234.709  1329.61 -84.4684
v -196.751  1360.23 -77.9629
v -315.531  1212.71 -59.2622
v -343.174  1199.12  -63.418
v -328.994  1188.53 -51.1453
v  -260.04  1315.02 -63.7338
v -283.151   1302.5 -67.7664
v -300.911  1277.17 -66.9533
v -290.246  1306.23 -54.2288
v -277.629  1299.54 -85.2128
v -263.608  1318.88 -80.9465
v -285.804  1303.16 -76.7881
v -201.625  1368.96 -76.4142
v -282.047  1303.54 -72.1253
v -285.776  1350.54 -50.8425
v -304.161  1315.33 -39.9012
v -316.871  1318.83 -56.9352
v -254.082  1326.92 -62.4202
v -317.053  1247.19  -67.985
v -302.572  1261.28 -63.2544
v -328.094  1213.65 -58.7702
v -302.422  1221.01 -64.4814
v -321.883  1240.04 -74.6043
v  -290.68  1217.26 -45.4537
v -281.379  1240.14 -68.5932
v  -303.12  1206.68 -52.5916
v -330.779   1235.2 -61.9622
v -341.676  1244.28 -60.3704
v -293.757  1276.46 -78.1096
v -300.805  1244.92 -72.6042
v -287.839  1251.18 -78.0086
v -247.888  1308.03 -86.3164
v  -269.74  1353.55 -48.5383
v -265.291  1359.81 -53.4832
v  -225.45   1366.8 -64.7445
v  -328.55   1289.9 -66.9844
v -302.175  1327.48  -69.615
v   -328.5   1297.6 -54.2802
v -162.823  1391.77 -59.4103
v -221.067  1318.09 -45.0876
v -217.097  1334.74 -75.5207
v -234.059  1307.57 -73.0783
v -204.046  1368.23  -59.945
v -239.102   1358.7 -78.2035
v -248.435  1335.88  -46.462
v -236.431  1290.33 -36.8033
v -260.277  1265.96 -46.9389
v  -256.29  1305.55 -55.0956
v -182.895  1360.78 -61.3005
v -197.988  1344.64 -63.0478
v -241.097  1364.02 -54.3515
v -326.078  1284.33 -47.9942
v -306.559  1305.03 -49.6407
v -347.942  1244.49 -64.2897
v -330.694  1267.49 -71.3288
v -193.048  1354.42 -73.0934
v  -244.26  1272.66 -44.6089
v -259.539  1273.37  -77.956
v -230.067  1326.99 -54.0519
v -221.998  1317.34 -36.6334
v -194.033  1388.86 -50.7151
v  -208.36  1372.99 -58.9197
v -176.711  1371.68 -52.8867
v -170.175  1387.13 -50.9049
v -313.622  1295.17 -73.7133
v -285.567  1329.93  -80.056
v -267.599   1338.8 -82.1368
v -267.512  1351.88 -77.0411
v -224.599  1367.28 -52.4943
v -246.025  1365.06 -70.5595
v -248.588  1267.55 -38.8016
v -263.461  1245.08 -45.1325
v -261.654  1248.63 -55.6561
v -162.665  1387.36 -57.4857
v -304.748  1204.59 -43.6585
v -274.375  1251.81 -48.8204
v -281.418  1352.09 -66.9889
v -328.243   1264.8  -59.094
v -352.993  1207.36 -63.5182
v -277.277  1336.26 -38.0576
vn -0.645046  0.650406  0.401109
vn -0.536611  0.814822 -0.219347
vn -0.499087  0.866247 0.0230011
vn -0.455713  0.314726  0.832631
vn -0.00881788    0.163971    0.986426
vn -0.56931 0.595354 0.566956
vn -0.610004  0.752777   0.24743
vn -0.423314  0.629094 -0.651955
vn  0.626834 -0.727864  0.278016
vn  0.534468 -0.491403 -0.687653
vn  0.537021 -0.652253 -0.534952
vn   0.109969 0.00177087  -0.993933
vn    0.322271 -0.00916843   -0.946603
vn  0.154151 -0.401815 -0.902653
vn   0.11569 -0.950222 -0.289299
vn -0.0576388  -0.977264  -0.204042
vn -0.481595  0.546419  0.685195
vn  0.709435  -0.69987 0.0829673
vn 0.0574743 -0.074061  0.995596
vn  0.421307 -0.633497  0.648986
vn -0.204923  0.067169 -0.976471
vn -0.505899   0.62213 -0.597512
vn  -0.100101 -0.0287727  -0.994561
vn -0.400339  0.800225 -0.446507
vn -0.556028  0.666535  0.496552
vn -0.574223  0.673289  0.465779
vn -0.33991 0.127283 0.931805
vn -0.788185  0.613923  0.043164
vn  0.567348 -0.822451 0.0411127
vn 0.0732231 0.0521254  0.995952
vn -0.40504 0.266962 0.874456
vn -0.387513  0.294406  0.873589
vn  0.220753 -0.512819 -0.829629
vn  -0.03486 -0.177938 -0.983424
vn  0.598151 -0.699629  0.390814
vn  0.537603 -0.597333 -0.595127
vn  0.562621 -0.681308 -0.468271
vn   0.115372 -0.0154677   0.993202
vn -0.0327586  -0.117737   0.992504
vn  -0.219039 0.00891954  -0.975675
vn -0.00351525   -0.282408   -0.959288
vn 0.0198357 -0.263893 -0.964348
vn  0.282767 -0.241427 -0.928308
vn 0.0363311  0.524035  0.850921
vn -0.24585 0.950935 0.187831
vn  -0.144827   0.989117 -0.0259148
vn -0.723186  0.358604 -0.590259
vn -0.606114  0.437921 -0.663967
vn -0.862117  0.361456  0.355112
vn  0.419533  0.274354 -0.865287
vn  0.778013 -0.588462 -0.220017
vn  0.674423 -0.578794 -0.458422
vn  0.794713 -0.473338 -0.379977
vn   0.73536 -0.359579 -0.574412
vn  0.121591  0.403148 -0.907021
vn  0.260463 -0.257271  0.930576
vn -0.465078  0.293803  0.835094
vn -0.510832  0.267179  0.817109
vn -0.433348  0.314416  0.844602
vn  0.789795 -0.598498 -0.134254
vn   0.63613 -0.705639 -0.312109
vn -0.139795  0.650536  0.746499
vn -0.138736 -0.204217  0.969045
vn  0.434645 -0.492143  0.754241
vn  -0.968135   0.240645 -0.0693208
vn -0.299066 0.0662809 -0.951928
vn  0.634531 -0.486461 -0.600605
vn  0.864459 -0.480785 -0.146823
vn  0.568518 -0.460712 -0.681566
vn -0.470272  0.542583  0.696023
vn 0.0386936  0.211365  0.976641
vn 0.326274 0.195126 0.924917
vn -0.174752  0.838276 -0.516483
vn 0.743156 -0.40815 0.530219
vn  0.10261 0.273899 0.956269
vn -0.316194  0.107883 -0.942541
vn -0.342815  0.213685 -0.914777
vn  0.0434226 -0.0200494  -0.998856
vn -0.307537  0.562685 -0.767337
vn -0.178808  0.369972  0.911673
vn -0.232644  0.926227 -0.296615
vn  -0.103568 -0.0196644   0.994428
vn  0.759255 -0.638133  0.127743
vn  0.733923 -0.563853 -0.378718
vn   0.851862  -0.516175 -0.0888539
vn -0.291648   0.18515  0.938435
vn -0.362404  0.271423  0.891623
vn -0.551632  0.750589 -0.363756
vn   0.42746 -0.322254  0.844648
vn   -0.50802 -0.0501611  -0.859883
vn   0.113825 -0.0849431   0.989863
# mm_gid 0
g mmGroup0
f 1//1 2//2 3//3
f 4//4 5//5 6//6
f 7//7 8//8 6//6
f 9//9 10//10 11//11
f 12//12 13//13 8//8
f 14//14 15//15 16//16
f 17//17 7//7 6//6
f 18//18 19//19 20//20
f 21//21 22//22 23//23
f 24//24 2//2 1//1
f 19//19 18//18 25//25
f 26//26 27//27 28//28
f 29//29 11//11 18//18
f 30//30 31//31 32//32
f 14//14 16//16 33//33
f 34//34 15//15 14//14
f 35//35 36//36 37//37
f 38//38 15//15 39//39
f 40//40 34//34 41//41
f 21//21 42//42 43//43
f 9//9 11//11 29//29
f 44//44 45//45 46//46
f 28//28 47//47 48//48
f 49//49 47//47 28//28
f 50//50 3//3 2//2
f 51//51 52//52 53//53
f 10//10 54//54 55//55
f 9//9 29//29 56//56
f 20//20 56//56 29//29
f 42//42 40//40 41//41
f 57//57 58//58 59//59
f 18//18 23//23 25//25
f 13//13 24//24 8//8
f 60//60 61//61 5//5
f 9//9 54//54 10//10
f 44//44 62//62 56//56
f 63//63 27//27 64//64
f 64//64 27//27 20//20
f 47//47 65//65 66//66
f 25//25 7//7 17//17
f 61//61 52//52 51//51
f 52//52 12//12 43//43
f 61//61 67//67 52//52
f 68//68 51//51 53//53
f 43//43 42//42 69//69
f 70//70 5//5 71//71
f 18//18 20//20 29//29
f 54//54 72//72 73//73
f 74//74 60//60 5//5
f 4//4 74//74 5//5
f 74//74 4//4 75//75
f 75//75 4//4 1//1
f 47//47 76//76 48//48
f 77//77 78//78 79//79
f 77//77 76//76 23//23
f 17//17 19//19 25//25
f 80//80 72//72 9//9
f 20//20 19//19 64//64
f 79//79 55//55 81//81
f 5//5 61//61 51//51
f 71//71 5//5 51//51
f 70//70 6//6 5//5
f 71//71 51//51 68//68
f 70//70 71//71 57//57
f 59//59 70//70 57//57
f 68//68 57//57 71//71
f 82//82 57//57 68//68
f 83//83 82//82 68//68
f 31//31 19//19 59//59
f 68//68 53//53 84//84
f 53//53 69//69 84//84
f 35//35 82//82 83//83
f 14//14 42//42 41//41
f 57//57 82//82 58//58
f 85//85 75//75 50//50
f 86//86 16//16 32//32
f 86//86 32//32 87//87
f 37//37 86//86 35//35
f 33//33 16//16 37//37
f 86//86 37//37 16//16
f 49//49 28//28 27//27
f 58//58 82//82 35//35
f 78//78 10//10 55//55
f 68//68 84//84 83//83
f 16//16 15//15 32//32
f 38//38 32//32 15//15
f 42//42 33//33 36//36
f 19//19 17//17 59//59
f 73//73 80//80 62//62
f 75//75 3//3 50//50
f 85//85 74//74 75//75
f 46//46 73//73 62//62
f 28//28 48//48 88//88
f 63//63 49//49 27//27
f 56//56 80//80 9//9
f 1//1 4//4 6//6
f 63//63 39//39 65//65
f 89//89 39//39 63//63
f 83//83 84//84 35//35
f 90//90 39//39 15//15
f 23//23 22//22 25//25
f 28//28 88//88 26//26
f 11//11 10//10 78//78
f 26//26 88//88 45//45
f 67//67 61//61 60//60
f 72//72 54//54 9//9
f 12//12 52//52 67//67
f 50//50 67//67 85//85
f 20//20 91//91 56//56
f 6//6 8//8 24//24
f 23//23 78//78 77//77
f 87//87 58//58 35//35
f 35//35 84//84 36//36
f 77//77 48//48 76//76
f 31//31 59//59 87//87
f 64//64 19//19 89//89
f 66//66 23//23 76//76
f 40//40 21//21 23//23
f 23//23 11//11 78//78
f 55//55 73//73 46//46
f 55//55 54//54 73//73
f 46//46 81//81 55//55
f 12//12 8//8 22//22
f 67//67 13//13 12//12
f 1//1 6//6 24//24
f 7//7 22//22 8//8
f 6//6 70//70 17//17
f 63//63 64//64 89//89
f 78//78 55//55 79//79
f 53//53 52//52 43//43
f 91//91 20//20 27//27
f 77//77 88//88 48//48
f 17//17 70//70 59//59
f 60//60 85//85 67//67
f 30//30 89//89 19//19
f 43//43 12//12 21//21
f 47//47 66//66 76//76
f 62//62 44//44 46//46
f 85//85 60//60 74//74
f 22//22 21//21 12//12
f 32//32 31//31 87//87
f 43//43 69//69 53//53
f 42//42 21//21 40//40
f 88//88 81//81 45//45
f 11//11 23//23 18//18
f 91//91 27//27 26//26
f 81//81 46//46 45//45
f 56//56 91//91 44//44
f 65//65 49//49 63//63
f 80//80 73//73 72//72
f 77//77 79//79 88//88
f 33//33 37//37 36//36
f 67//67 50//50 13//13
f 89//89 30//30 38//38
f 56//56 62//62 80//80
f 69//69 42//42 36//36
f 31//31 30//30 19//19
f 75//75 1//1 3//3
f 24//24 13//13 50//50
f 91//91 26//26 44//44
f 23//23 66//66 40//40
f 86//86 87//87 35//35
f 42//42 14//14 33//33
f 59//59 58//58 87//87
f 36//36 84//84 69//69
f 41//41 34//34 14//14
f 44//44 26//26 45//45
f 7//7 25//25 22//22
f 30//30 32//32 38//38
f 81//81 88//88 79//79
f 34//34 90//90 15//15
f 34//34 40//40 66//66
f 24//24 50//50 2//2
f 47//47 49//49 65//65
f 65//65 90//90 66//66
f 38//38 39//39 89//89
f 39//39 90//90 65//65
f 34//34 66//66 90//90
