v -344.237  1199.49  188.314
v -350.257  1201.68  188.057
v -350.731  1211.66  186.995
v -293.538  1188.91 -66.1877
v -290.079   1193.7 -60.1558
v -296.066  1193.42 -60.9184
v -303.291  1187.67 -58.8387
v -285.645  1175.68 -63.0483
v -295.764  1172.99 -59.3001
v   -290.9  1171.49 -55.2012
v -283.894  1178.66 -59.5234
v -298.894  1177.37 -62.0795
v -282.989  1182.07 -66.7297
v  -283.76  1188.76 -64.4985
v -343.349  1210.66  188.502
v -342.195  1213.28  182.041
v -339.519  1205.87    185.7
v -341.802  1201.76  173.598
v -349.373  1196.75  178.386
v -350.959  1197.19  175.501
v -356.088  1203.19  190.513
v -353.908  1203.11  171.918
v -351.797  1213.31  182.256
v -309.009  1181.68 -41.9534
v -309.921  1178.43 -26.5646
v -288.497  1177.13 -40.6151
v -298.542  1175.11 -38.4968
v -290.416  1189.21 -49.2733
v -291.922  1192.93 -46.1838
v -287.536  1190.34   -59.34
v -287.477  1191.84 -41.3077
v -281.731  1181.39 -31.5759
v -276.432  1200.53 -39.0421
v -276.827  1188.52 -30.7998
v -297.355  1196.85 -42.6085
v -293.972  1200.68 -38.2166
v -304.106   1202.2 -39.9305
v -302.936  1195.27   -43.71
v  -284.94   1203.7 -33.7932
v -295.326   1197.3  -20.233
v -300.183   1202.4  -28.654
v -308.739  1204.65 -22.9005
v -308.312  1193.65 -32.0672
v -315.687  1189.54 -21.4447
v -317.468  1184.23 -17.8383
v -292.054  1185.07 -18.7674
v -306.255  1179.52 -19.5183
v -309.91 1201.54 11.1163
v -316.273  1205.84  36.9489
v -311.809  1201.99 -11.1072
v  -297.13  1195.58 -11.2204
v  -300.09  1188.35 -2.21093
v -312.688  1192.65  34.0257
v -308.071  1185.17  9.18886
v -321.314  1186.33  12.9408
v -326.941   1191.7  17.0316
v -325.081  1188.49  16.3644
v -347.214  1195.67  156.307
v -349.581  1204.94  155.322
v -338.162  1193.27  147.922
v -345.788  1208.39  156.107
v -344.219  1195.71  132.655
v -343.435  1208.98  159.821
v -339.694  1202.45  162.206
v -334.051  1205.14  129.299
v -330.866  1197.35  130.422
v -316.751  1189.45  49.1137
v -321.956  1190.11  74.1006
v -327.458  1203.99  102.289
v -323.533  1203.87  83.7949
v -329.178  1193.54  116.526
v -324.321   1206.2  62.3815
v -328.135  1196.38  30.8177
v -331.025  1206.06  102.809
v -332.797  1202.48  80.2608
v -320.254  1204.05  63.4684
v -338.109  1194.69  91.7024
v -335.324  1190.49  92.7346
v -331.612  1193.27   44.297
v -344.836  1201.92  133.026
v -338.832  1191.61  113.953
v -328.832   1188.6   88.393
v -318.51 1186.24 35.4055
vn  0.417626 -0.644369  0.640607
vn 0.00453415  -0.499862   0.866093
vn -0.0774396     0.4758   0.876138
vn -0.258266  0.206885 -0.943662
vn   0.36133  0.869236 -0.337445
vn -0.367257  0.852993 -0.370843
vn  -0.85934  0.242327 -0.450347
vn   0.21404 -0.743927 -0.633055
vn -0.469862 -0.864925 -0.176448
vn  0.345967 -0.930573  0.119754
vn   0.966382 -0.0398041    0.25401
vn -0.588254 -0.375758 -0.716074
vn   0.175015 -0.0627412  -0.982565
vn  0.91436 0.381669 0.135182
vn 0.288588 0.360849 0.886851
vn   0.628834   0.776529 -0.0396315
vn   0.983818 -0.0841119   0.158199
vn  0.760126 -0.627001   0.17052
vn  0.186461 -0.958832  0.214181
vn  -0.779858   -0.62254 -0.0653139
vn -0.962332 -0.164934  0.216133
vn    -0.9811 -0.0928882  -0.169748
vn -0.617009  0.771392 -0.155741
vn -0.936745 -0.143678 -0.319163
vn   -0.454593   -0.890683 -0.00546739
vn  0.757511 -0.632944  0.159875
vn 0.0985008 -0.961068  0.258159
vn  0.964901  0.242868 0.0999067
vn 0.732026 0.680934 0.021627
vn 0.877529 0.351784 0.325868
vn  0.622826 0.0477163 -0.780904
vn    0.7011 -0.664273 -0.259231
vn  0.610592  0.158684 -0.775884
vn 0.710634 0.196987 0.675422
vn  0.200506  0.901325 -0.383941
vn 0.0500337   0.77726 -0.627187
vn -0.163637  0.894987 -0.414995
vn -0.817264  0.469016 -0.334818
vn 0.386011 0.808619 0.443994
vn 0.568966 0.526583 0.631656
vn  0.23755 0.956294 0.170503
vn -0.763757  0.600918 -0.235739
vn -0.867111  0.356112 -0.348285
vn -0.867866  0.380433 -0.319499
vn -0.866207 -0.468093 -0.174853
vn  0.567797 -0.662881  0.488054
vn  0.151963 -0.961549  0.228758
vn 0.893699 0.400484 0.202272
vn  -0.253527   0.962707 -0.0944379
vn -0.465899  0.873371 -0.141989
vn 0.686601 0.675109 0.269829
vn  0.933023 0.0326086  0.358336
vn 0.922347 0.287908 0.257651
vn  0.276191 -0.941735  0.191972
vn -0.298107 -0.952033 0.0690338
vn -0.944873  0.211544 -0.249927
vn  -0.532211  -0.845233 -0.0482936
vn    -0.5484  -0.835583 -0.0325477
vn -0.811025  0.534287 -0.238278
vn   0.38905 -0.902252  0.185961
vn -0.389469  0.908466 -0.151672
vn -0.921087 -0.361201 -0.145371
vn   0.503066   0.861647 -0.0669979
vn 0.970029 0.202228 0.134714
vn 0.727748 0.671042 0.141722
vn  0.972993 0.0535987  0.224525
vn  0.736048 -0.632633  0.240851
vn  0.967368 -0.156885  0.198963
vn 0.962574 0.208862 0.172708
vn 0.899997 0.403096 0.165892
vn  0.902461 -0.390735  0.181356
vn  -0.354959   0.929837 -0.0969861
vn -0.692467  0.702321 -0.165032
vn 0.00730994   0.999721 -0.0224542
vn -0.756459  0.634322  -0.15939
vn 0.960299 0.211278 0.182175
vn -0.986483 0.0263737 -0.161726
vn  -0.551046    -0.8328 -0.0528416
vn   -0.98856 -0.0602004  -0.138291
vn -0.936101  0.285386 -0.205596
vn  -0.33663 -0.941509 0.0155262
vn  0.141341 -0.986132 0.0869886
vn -0.062651 -0.997196 0.0409188
# mm_gid 0
g mmGroup0
f 1//1 2//2 3//3
f 4//4 5//5 6//6
f 4//4 6//6 7//7
f 8//8 9//9 10//10
f 8//8 10//10 11//11
f 8//8 12//12 9//9
f 12//12 4//4 7//7
f 13//13 11//11 14//14
f 13//13 8//8 11//11
f 13//13 5//5 4//4
f 13//13 14//14 5//5
f 12//12 8//8 13//13
f 13//13 4//4 12//12
f 15//15 16//16 17//17
f 15//15 1//1 3//3
f 1//1 17//17 18//18
f 17//17 1//1 15//15
f 19//19 20//20 21//21
f 2//2 19//19 21//21
f 19//19 2//2 1//1
f 21//21 20//20 22//22
f 21//21 22//22 23//23
f 21//21 3//3 2//2
f 3//3 21//21 23//23
f 3//3 16//16 15//15
f 3//3 23//23 16//16
f 9//9 12//12 24//24
f 9//9 24//24 25//25
f 10//10 26//26 11//11
f 10//10 27//27 26//26
f 27//27 9//9 25//25
f 10//10 9//9 27//27
f 19//19 1//1 18//18
f 28//28 29//29 30//30
f 28//28 31//31 29//29
f 32//32 33//33 31//31
f 30//30 14//14 11//11
f 31//31 28//28 26//26
f 33//33 32//32 34//34
f 11//11 28//28 30//30
f 31//31 26//26 32//32
f 28//28 11//11 26//26
f 35//35 36//36 37//37
f 31//31 33//33 36//36
f 5//5 35//35 6//6
f 5//5 29//29 35//35
f 35//35 29//29 31//31
f 5//5 30//30 29//29
f 30//30 5//5 14//14
f 36//36 35//35 31//31
f 38//38 35//35 37//37
f 38//38 6//6 35//35
f 38//38 7//7 6//6
f 7//7 38//38 24//24
f 7//7 24//24 12//12
f 39//39 36//36 33//33
f 39//39 40//40 41//41
f 41//41 42//42 37//37
f 41//41 37//37 36//36
f 39//39 41//41 36//36
f 24//24 38//38 43//43
f 42//42 38//38 37//37
f 43//43 38//38 42//42
f 24//24 44//44 45//45
f 24//24 43//43 44//44
f 25//25 24//24 45//45
f 26//26 46//46 32//32
f 26//26 27//27 46//46
f 47//47 27//27 25//25
f 34//34 39//39 33//33
f 34//34 32//32 46//46
f 34//34 40//40 39//39
f 34//34 46//46 40//40
f 48//48 49//49 50//50
f 41//41 50//50 42//42
f 41//41 40//40 51//51
f 51//51 48//48 50//50
f 41//41 51//51 50//50
f 51//51 46//46 52//52
f 48//48 52//52 53//53
f 51//51 40//40 46//46
f 52//52 48//48 51//51
f 54//54 52//52 46//46
f 25//25 45//45 55//55
f 47//47 25//25 55//55
f 46//46 27//27 47//47
f 54//54 46//46 47//47
f 47//47 55//55 54//54
f 56//56 55//55 45//45
f 56//56 57//57 55//55
f 50//50 44//44 43//43
f 44//44 56//56 45//45
f 43//43 42//42 50//50
f 50//50 56//56 44//44
f 22//22 20//20 58//58
f 59//59 23//23 22//22
f 19//19 18//18 60//60
f 20//20 19//19 58//58
f 59//59 61//61 23//23
f 22//22 58//58 62//62
f 63//63 64//64 16//16
f 63//63 65//65 64//64
f 63//63 23//23 61//61
f 63//63 16//16 23//23
f 64//64 60//60 18//18
f 64//64 18//18 17//17
f 64//64 17//17 16//16
f 64//64 65//65 66//66
f 60//60 64//64 66//66
f 53//53 67//67 68//68
f 53//53 52//52 67//67
f 66//66 65//65 69//69
f 69//69 70//70 68//68
f 71//71 66//66 69//69
f 71//71 69//69 68//68
f 72//72 73//73 49//49
f 74//74 75//75 72//72
f 48//48 53//53 68//68
f 76//76 48//48 68//68
f 70//70 76//76 68//68
f 72//72 76//76 70//70
f 74//74 70//70 69//69
f 74//74 69//69 65//65
f 61//61 65//65 63//63
f 70//70 74//74 72//72
f 65//65 61//61 74//74
f 49//49 48//48 76//76
f 49//49 76//76 72//72
f 75//75 74//74 61//61
f 73//73 72//72 75//75
f 50//50 49//49 73//73
f 77//77 78//78 79//79
f 73//73 56//56 50//50
f 77//77 62//62 78//78
f 56//56 79//79 57//57
f 80//80 61//61 59//59
f 80//80 75//75 61//61
f 80//80 22//22 62//62
f 73//73 79//79 56//56
f 79//79 73//73 75//75
f 80//80 59//59 22//22
f 77//77 75//75 80//80
f 79//79 75//75 77//77
f 77//77 80//80 62//62
f 81//81 62//62 58//58
f 81//81 78//78 62//62
f 57//57 79//79 78//78
f 82//82 71//71 68//68
f 83//83 68//68 67//67
f 54//54 67//67 52//52
f 58//58 19//19 60//60
f 83//83 82//82 68//68
f 71//71 60//60 66//66
f 60//60 81//81 58//58
f 83//83 55//55 57//57
f 60//60 71//71 82//82
f 83//83 67//67 54//54
f 82//82 78//78 81//81
f 83//83 57//57 78//78
f 54//54 55//55 83//83
f 78//78 82//82 83//83
f 60//60 82//82 81//81
f 1//1 2//2 3//3
f 4//4 5//5 6//6
f 4//4 6//6 7//7
f 8//8 9//9 10//10
f 8//8 10//10 11//11
f 8//8 12//12 9//9
f 12//12 4//4 7//7
f 13//13 11//11 14//14
f 13//13 8//8 11//11
f 13//13 5//5 4//4
f 13//13 14//14 5//5
f 12//12 8//8 13//13
f 13//13 4//4 12//12
f 15//15 16//16 17//17
f 15//15 1//1 3//3
f 1//1 17//17 18//18
f 17//17 1//1 15//15
f 19//19 20//20 21//21
f 2//2 19//19 21//21
f 19//19 2//2 1//1
f 21//21 20//20 22//22
f 21//21 22//22 23//23
f 21//21 3//3 2//2
f 3//3 21//21 23//23
f 3//3 16//16 15//15
f 3//3 23//23 16//16
f 9//9 12//12 24//24
f 9//9 24//24 25//25
f 10//10 26//26 11//11
f 10//10 27//27 26//26
f 27//27 9//9 25//25
f 10//10 9//9 27//27
f 19//19 1//1 18//18
f 28//28 29//29 30//30
f 28//28 31//31 29//29
f 32//32 33//33 31//31
f 30//30 14//14 11//11
f 31//31 28//28 26//26
f 33//33 32//32 34//34
f 11//11 28//28 30//30
f 31//31 26//26 32//32
f 28//28 11//11 26//26
f 35//35 36//36 37//37
f 31//31 33//33 36//36
f 5//5 35//35 6//6
f 5//5 29//29 35//35
f 35//35 29//29 31//31
f 5//5 30//30 29//29
f 30//30 5//5 14//14
f 36//36 35//35 31//31
f 38//38 35//35 37//37
f 38//38 6//6 35//35
f 38//38 7//7 6//6
f 7//7 38//38 24//24
f 7//7 24//24 12//12
f 39//39 36//36 33//33
f 39//39 40//40 41//41
f 41//41 42//42 37//37
f 41//41 37//37 36//36
f 39//39 41//41 36//36
f 24//24 38//38 43//43
f 42//42 38//38 37//37
f 43//43 38//38 42//42
f 24//24 44//44 45//45
f 24//24 43//43 44//44
f 25//25 24//24 45//45
f 26//26 46//46 32//32
f 26//26 27//27 46//46
f 47//47 27//27 25//25
f 34//34 39//39 33//33
f 34//34 32//32 46//46
f 34//34 40//40 39//39
f 34//34 46//46 40//40
f 48//48 49//49 50//50
f 41//41 50//50 42//42
f 41//41 40//40 51//51
f 51//51 48//48 50//50
f 41//41 51//51 50//50
f 51//51 46//46 52//52
f 48//48 52//52 53//53
f 51//51 40//40 46//46
f 52//52 48//48 51//51
f 54//54 52//52 46//46
f 25//25 45//45 55//55
f 47//47 25//25 55//55
f 46//46 27//27 47//47
f 54//54 46//46 47//47
f 47//47 55//55 54//54
f 56//56 55//55 45//45
f 56//56 57//57 55//55
f 50//50 44//44 43//43
f 44//44 56//56 45//45
f 43//43 42//42 50//50
f 50//50 56//56 44//44
f 22//22 20//20 58//58
f 59//59 23//23 22//22
f 19//19 18//18 60//60
f 20//20 19//19 58//58
f 59//59 61//61 23//23
f 22//22 58//58 62//62
f 63//63 64//64 16//16
f 63//63 65//65 64//64
f 63//63 23//23 61//61
f 63//63 16//16 23//23
f 64//64 60//60 18//18
f 64//64 18//18 17//17
f 64//64 17//17 16//16
f 64//64 65//65 66//66
f 60//60 64//64 66//66
f 53//53 67//67 68//68
f 53//53 52//52 67//67
f 66//66 65//65 69//69
f 69//69 70//70 68//68
f 71//71 66//66 69//69
f 71//71 69//69 68//68
f 72//72 73//73 49//49
f 74//74 75//75 72//72
f 48//48 53//53 68//68
f 76//76 48//48 68//68
f 70//70 76//76 68//68
f 72//72 76//76 70//70
f 74//74 70//70 69//69
f 74//74 69//69 65//65
f 61//61 65//65 63//63
f 70//70 74//74 72//72
f 65//65 61//61 74//74
f 49//49 48//48 76//76
f 49//49 76//76 72//72
f 75//75 74//74 61//61
f 73//73 72//72 75//75
f 50//50 49//49 73//73
f 77//77 78//78 79//79
f 73//73 56//56 50//50
f 77//77 62//62 78//78
f 56//56 79//79 57//57
f 80//80 61//61 59//59
f 80//80 75//75 61//61
f 80//80 22//22 62//62
f 73//73 79//79 56//56
f 79//79 73//73 75//75
f 80//80 59//59 22//22
f 77//77 75//75 80//80
f 79//79 75//75 77//77
f 77//77 80//80 62//62
f 81//81 62//62 58//58
f 81//81 78//78 62//62
f 57//57 79//79 78//78
f 82//82 71//71 68//68
f 83//83 68//68 67//67
f 54//54 67//67 52//52
f 58//58 19//19 60//60
f 83//83 82//82 68//68
f 71//71 60//60 66//66
f 60//60 81//81 58//58
f 83//83 55//55 57//57
f 60//60 71//71 82//82
f 83//83 67//67 54//54
f 82//82 78//78 81//81
f 83//83 57//57 78//78
f 54//54 55//55 83//83
f 78//78 82//82 83//83
f 60//60 82//82 81//81
